





08/04/2017
73.68
74.57
73.61
74.53
2,778,305
08/03/2017
73.9
73.98
72.97
73.61
4,533,726
08/02/2017
73.4
74.44
73.11
74.1
5,824,244
08/01/2017
75.49
75.49
72.16
74.26
10,712,080
07/31/2017
78.43
79.08
77.85
78.25
3,674,431
07/28/2017
78.45
78.59
77.62
78.43
1,734,915
07/27/2017
79.11
79.18
77.95
78.49
2,638,689
07/26/2017
79.35
79.35
78.51
79
1,821,870
07/25/2017
79.5
79.59
78.74
79.33
2,301,381
07/24/2017
79
79.11
78.48
78.65
1,762,920
07/21/2017
79.19
79.41
78.355
78.97
2,422,328
07/20/2017
80.32
80.34
79.53
79.56
1,505,054
07/19/2017
80.44
80.6
79.78
80.38
1,758,258
07/18/2017
80.17
80.23
79.63
80.23
1,583,540
07/17/2017
80.48
80.53
80.06
80.21
1,807,866
07/14/2017
80.52
80.85
80.38
80.61
1,683,278
07/13/2017
80.41
80.69
79.94
80.32
1,857,847
07/12/2017
80.79
81.63
80.48
80.51
1,843,368
07/11/2017
80.3
80.5
79.47
80.45
2,314,978
07/10/2017
79.28
80.83
79.28
80.4
2,238,511
07/07/2017
78.55
79.9
78.35
79.36
1,894,541
07/06/2017
78.32
78.98
78.26
78.55
1,923,390
07/05/2017
78.33
78.86
78
78.63
1,892,701
07/03/2017
78.37
78.77
77.71
78.35
1,386,832
06/30/2017
76.9
78.32
76.86
77.83
1,843,617
06/29/2017
77.59
78
76
76.63
1,751,105
06/28/2017
77
77.64
76.78
77.44
1,608,561
06/27/2017
76.69
76.94
76.15
76.43
1,642,021
06/26/2017
77.14
77.61
76.3001
76.77
1,415,651
06/23/2017
75.84
76.93
75.66
76.88
2,995,752
06/22/2017
75.99
76.42
75.711
75.77
1,946,630
06/21/2017
77.24
77.375
75.76
75.92
1,702,935
06/20/2017
77.67
77.85
77
77.06
1,796,709
06/19/2017
77.28
78.42
77.24
78.07
2,482,441
06/16/2017
76.36
77.0513
76.22
76.8
2,623,751
06/15/2017
74.46
76.53
74.43
76.14
1,946,013
06/14/2017
76.28
76.32
74.84
75.34
2,319,965
06/13/2017
75.94
76.3
75.515
76.11
1,397,505
06/12/2017
75.83
76.21
75.46
75.77
1,706,487
06/09/2017
75.71
75.95
75.275
75.74
2,882,002
06/08/2017
74.94
75.61
74.6
75.47
3,662,940
06/07/2017
76.5
76.5
74.26
74.95
3,520,748
06/06/2017
76.44
76.73
76.08
76.33
1,924,288
06/05/2017
77.87
77.92
76.76
76.77
2,583,218
06/02/2017
78.2
78.615
77.69
77.88
1,868,944
06/01/2017
77.9
78.57
77.26
78.08
1,800,072
05/31/2017
77.31
78.4
76.726
77.38
1,659,446
05/30/2017
77.47
77.8099
77.12
77.72
1,023,445
05/26/2017
77.28
77.72
77.1
77.56
1,063,016
05/25/2017
77.92
78.27
77
77.31
1,753,182
05/24/2017
77.63
78
77.21
77.57
1,303,282
05/23/2017
77.85
77.93
77.33
77.65
2,296,168
05/22/2017
78.11
78.45
77.44
77.7
2,589,342
05/19/2017
76.44
78.19
76.43
78.01
3,116,080
05/18/2017
76.36
76.4
75.11
76.07
2,940,037
05/17/2017
76.22
77.07
76.11
76.18
2,787,163
05/16/2017
77.37
77.37
76.51
77.24
1,478,093
05/15/2017
77.13
77.24
76.72
76.97
1,834,997
05/12/2017
76.54
77.11
76.44
76.68
1,825,674
05/11/2017
76.79
77.17
76.28
77.03
1,828,679
05/10/2017
76.73
77.25
76.57
77.09
1,327,308
05/09/2017
76.67
77
76.5
76.76
1,386,652
05/08/2017
76.8
77.05
76.43
76.78
1,686,796
05/05/2017
76.11
76.89
75.904
76.86
2,160,124
05/04/2017
76.54
76.6
75.62
75.84
2,514,459
05/03/2017
76.39
76.45
75.78
76.33
2,748,296
05/02/2017
77.74
79.31
76.37
77.11
4,359,367
05/01/2017
75.9
76.49
75.16
76.13
4,044,117
04/28/2017
76.46
76.61
75.47
75.64
2,351,090
04/27/2017
76.7
77.11
76.263
76.49
2,073,825
04/26/2017
76.68
77.39
76.59
76.72
2,014,489
04/25/2017
76.07
76.93
75.84
76.52
3,026,514
04/24/2017
75.03
75.64
74.68
75.48
2,407,766
04/21/2017
74.23
74.45
73.63
73.85
2,624,756
04/20/2017
74.03
74.606
73.76
74.03
3,645,720
04/19/2017
74.88
75.18
73.5175
73.63
2,223,945
04/18/2017
73.82
74.66
73.82
74.47
1,744,042
04/17/2017
73.865
74.3
73.46
74.28
1,372,129
04/13/2017
74.09
74.34
73.51
73.51
1,405,817
04/12/2017
75.58
76
73.9578
74.24
3,322,174
04/11/2017
75.31
75.41
74.59
75.39
2,105,202
04/10/2017
74.79
76.39
74.62
75.6
2,959,703
04/07/2017
74.52
74.93
74.2
74.57
1,790,941
04/06/2017
74.84
75.25
74.5
74.73
1,592,474
04/05/2017
75.27
76.36
74.34
74.65
2,770,697
04/04/2017
74.31
75.08
73.954
74.88
2,783,431
04/03/2017
74.32
74.79
73.42
74.16
2,813,176
03/31/2017
73.8
74.63
73.67
74.15
2,011,445
03/30/2017
73.78
74.53
73.54
74.2
2,111,070
03/29/2017
73.53
74.41
73.21
73.94
2,492,284
03/28/2017
72.36
73.79
72.08
73.29
1,700,153
03/27/2017
72.55
72.97
71.46
72.68
2,225,399
03/24/2017
72.81
73.42
72.56
72.84
2,612,364
03/23/2017
72.55
73.24
72.25
72.78
1,653,853
03/22/2017
71.96
72.82
71.775
72.54
1,989,134
03/21/2017
73.58
74.02
71.85
71.99
2,315,295
03/20/2017
73.27
73.76
72.87
73.37
1,560,531
03/17/2017
73.67
73.84
72.91
73.25
3,245,317
03/16/2017
73.74
74.35
73.09
73.35
2,412,633
03/15/2017
72.12
74.08
72.02
73.96
2,435,587
03/14/2017
72.2
72.3269
71.48
71.82
1,394,811
03/13/2017
72.67
72.98
72.36
72.75
1,648,287
03/10/2017
72.04
72.59
72
72.49
2,131,117
03/09/2017
71.72
72.12
71.23
71.6
2,473,155
03/08/2017
71.6
72.34
71.52
71.83
2,008,990
03/07/2017
71.64
72
71.44
71.54
1,391,909
03/06/2017
71.22
72.12
71.08
71.84
2,711,697
03/03/2017
72.23
72.44
71.4
71.93
2,024,927
03/02/2017
72.67
72.74
71.78
72.11
2,236,749
03/01/2017
72.81
73.86
72.81
73.24
2,653,565
02/28/2017
72.35
72.59
71.71
71.98
2,504,221
02/27/2017
72.21
72.7
72.12
72.35
2,287,721
02/24/2017
71.54
72.39
71.13
72.39
2,528,808
02/23/2017
72.82
72.92
71.75
72.12
2,237,934
02/22/2017
71.68
72.74
71.52
72.5
2,315,153
02/21/2017
71.64
72.15
71.58
71.89
1,903,539
02/17/2017
71.54
71.63
70.89
71.63
2,355,879
02/16/2017
72.04
72.24
71.235
71.78
2,081,038
02/15/2017
72.06
72.28
71.68
72.1
1,971,821
02/14/2017
72
72.19
71.58
72.01
2,083,863
02/13/2017
71.31
72.26
71.31
72.2
2,528,079
02/10/2017
71.03
71.17
70.8
71
1,946,099
02/09/2017
70.04
71.27
70.03
70.79
2,204,443
02/08/2017
70.02
70.24
69.45
69.97
2,304,671
02/07/2017
70.33
71.1
70.125
70.24
2,231,614
02/06/2017
70.11
70.31
69.46
69.98
2,548,192
02/03/2017
70.33
70.73
69.61
70.22
2,938,716
02/02/2017
70.69
72
69.41
70.02
4,690,674
02/01/2017
70.97
71.71
70.28
71.31
3,919,439
01/31/2017
70.09
70.91
69.47
70.78
3,016,733
01/30/2017
71.02
71.02
69.68
70.41
2,034,843
01/27/2017
71.13
71.39
70.81
70.95
1,899,836
01/26/2017
70.82
71.68
70.33
71.31
2,249,868
01/25/2017
69.64
71.275
69.64
71.18
3,278,098
01/24/2017
68.05
69.32
67.75
69.17
2,044,395
01/23/2017
67.92
68.16
66.98
67.74
1,195,877
01/20/2017
68.02
68.5
67.57
67.93
1,559,863
01/19/2017
68.13
68.49
67.28
67.73
1,431,069
01/18/2017
67.69
68
67.4
67.8
1,651,334
01/17/2017
68.34
68.36
67.28
67.56
1,687,134
01/13/2017
68.36
68.94
68.35
68.66
1,264,710
01/12/2017
68.39
68.4
67.15
68.2
1,357,187
01/11/2017
66.95
68.49
66.77
68.46
2,126,430
01/10/2017
67.21
67.54
66.77
67.21
2,214,514
01/09/2017
68.48
68.51
66.86
66.88
2,704,975
01/06/2017
67.61
68.46
67.5
68.01
2,589,968
01/05/2017
68.06
68.45
66.6
67.35
2,394,192
01/04/2017
68.6
68.82
67.85
68.17
1,634,991
01/03/2017
67.59
68.58
67.22
68.53
2,232,124
12/30/2016
67.74
67.86
66.8
67.09
1,262,148
12/29/2016
67.74
67.99
67.25
67.61
703,737
12/28/2016
68.53
68.58
67.66
67.7
1,219,783
12/27/2016
68.47
68.61
68.18
68.49
618,980
12/23/2016
68
68.28
67.75
68.26
757,227
12/22/2016
67.66
68.33
67.66
68.07
1,559,149
12/21/2016
68.23
68.37
67.67
67.82
1,574,111
12/20/2016
68.06
68.65
67.85
68.45
2,988,076
12/19/2016
68.1
68.47
67.34
67.82
1,621,836
12/16/2016
67.92
68.53
67.6988
68.06
4,108,885
12/15/2016
67.37
67.95
67.04
67.89
2,839,366
12/14/2016
68.72
69.223
67.58
67.67
3,039,631
12/13/2016
69.72
69.93
68.36
68.85
2,814,377
12/12/2016
69.43
70
69.35
69.86
2,233,569
12/09/2016
69.68
69.795
68.93
69.53
1,988,048
12/08/2016
68.78
69.38
68.27
68.98
2,099,032
12/07/2016
68.38
69.17
68.23
68.9
3,512,149
12/06/2016
67.88
68.59
67.78
68.45
2,763,321
12/05/2016
68.03
68.64
67.48
68.01
2,252,875
12/02/2016
67.61
68.04
67.09
67.76
2,352,241
12/01/2016
66.86
68.19
66.73
67.65
3,073,649
11/30/2016
66.26
67.38
66.26
66.51
2,426,203
11/29/2016
65.61
66.39
65.35
65.69
2,779,295
11/28/2016
66.4
66.62
65.83
65.98
2,219,282
11/25/2016
66.49
66.97
66.49
66.81
920,589
11/23/2016
65.63
66.61
65.25
66.49
2,618,631
11/22/2016
65.76
65.95
64.96
65.58
2,131,944
11/21/2016
64.66
65.78
64.62
65.54
4,399,535
11/18/2016
64.66
64.75
63.94
64.15
4,690,990
11/17/2016
66.15
66.28
64.65
64.79
3,355,500
11/16/2016
65.54
65.94
65.2502
65.54
3,056,351
11/15/2016
66.88
66.93
65.29
65.85
4,813,175
11/14/2016
67.37
68.32
66.79
67.06
5,693,338
11/11/2016
68.5
68.9
66.6
67.31
5,332,425
11/10/2016
66.86
68.95
66.86
68.7
6,816,063
11/09/2016
62.59
66.9
62.59
66.32
5,666,477
11/08/2016
62.18
63.34
61.9501
63
3,377,940
11/07/2016
62.25
62.6
61.89
62.43
2,840,641
11/04/2016
59.91
61.445
59.7
60.76
4,583,259
11/03/2016
60.06
60.32
59.07
59.72
4,735,109
11/02/2016
60.6
61.32
60.37
60.88
4,162,555
11/01/2016
62.76
62.8
60.22
60.7
8,373,530
10/31/2016
62.76
63.85
62.64
63.77
4,252,112
10/28/2016
62.37
63.29
62.2
62.38
2,166,804
10/27/2016
64.05
64.17
61.965
62.29
4,972,997
10/26/2016
62.88
64.36
62.701
64.21
1,981,607
10/25/2016
63.15
63.59
62.47
63.18
1,989,193
10/24/2016
64.16
64.34
62.91
63.37
1,848,882
10/21/2016
63.13
63.91
62.89
63.71
2,103,398
10/20/2016
63.45
64.14
63.34
63.8
2,365,808
10/19/2016
63.3
63.99
62.91
63.68
1,935,232
10/18/2016
63.86
63.92
63.16
63.19
1,945,406
10/17/2016
63.24
63.36
62.09
63.12
2,671,938
10/14/2016
63.55
63.9238
63.195
63.3
2,034,939
10/13/2016
63.48
63.59
62.625
63.15
2,731,905
10/12/2016
63.12
64.45
62.85
64.26
2,793,749
10/11/2016
63.87
64.125
62.66
63.12
2,933,972
10/10/2016
65.01
65.27
64
64.14
2,704,891
10/07/2016
65.24
65.24
64.05
64.48
2,232,434
10/06/2016
65.5
65.61
64.83
65.5
1,389,908
10/05/2016
64.67
65.97
64.64
65.54
2,186,955
10/04/2016
66.05
66.25
64.135
64.32
2,110,609
10/03/2016
65.48
66.19
65.225
65.87
2,555,662
09/30/2016
64.44
66.21
64.43
65.71
3,799,282
09/29/2016
64.28
65.09
63.98
64.16
1,862,322
09/28/2016
63.69
64.61
63.52
64.57
1,856,683
09/27/2016
62.68
63.43
62.23
63.41
1,667,917
09/26/2016
63.1
63.44
62.779
62.9
1,327,347
09/23/2016
63.95
63.98
63.255
63.31
1,402,982
09/22/2016
64.5
64.67
63.87
64.09
2,665,890
09/21/2016
62.97
63.775
62.89
63.73
1,844,604
09/20/2016
63.8
63.88
62.73
62.74
2,384,356
09/19/2016
63.06
63.89
62.75
63.25
1,966,307
09/16/2016
62.61
62.63
61.945
62.35
4,824,833
09/15/2016
62.9
63.38
62.65
63.09
2,954,577
09/14/2016
63.12
63.6
62.7201
62.98
2,545,209
09/13/2016
64.06
64.24
62.93
63.21
3,261,160
09/12/2016
63.11
65.3466
62.8
64.99
2,699,844
09/09/2016
65.22
65.5
63.55
63.57
3,580,470
09/08/2016
66.6
66.66
66.06
66.08
1,925,652
09/07/2016
66.71
66.84
66.4934
66.74
1,470,580
09/06/2016
67.69
67.69
66.365
66.62
1,995,693
09/02/2016
67.33
67.66
67.1
67.54
1,509,518
09/01/2016
66.66
66.94
65.91
66.92
2,041,211
08/31/2016
67
67.15
66.26
66.54
2,390,688
08/30/2016
67.6
67.75
67
67.15
2,171,746
08/29/2016
67.28
67.9362
67.22
67.71
1,105,554
08/26/2016
67.67
68.2
67.06
67.32
1,509,493
08/25/2016
67.24
67.58
66.86
67.39
1,485,136
08/24/2016
67.59
67.7178
67.19
67.3
1,506,573
08/23/2016
68
68.175
67.64
67.68
1,409,002
08/22/2016
67.58
67.87
67.17
67.7
1,601,068
08/19/2016
67.3
67.76
67.16
67.66
1,854,711
08/18/2016
67.66
67.73
67.37
67.72
1,732,290
08/17/2016
67.47
67.7
67.1431
67.62
1,805,357
08/16/2016
67.54
67.55
67.19
67.27
2,044,561
08/15/2016
67.39
68.005
67.33
67.63
1,948,705
08/12/2016
67.07
67.46
66.94
67.21
2,359,043
08/11/2016
66.9
67.37
66.7
67.33
3,085,563
08/10/2016
66.34
66.74
66.06
66.71
2,734,342
08/09/2016
66
66.47
65.8
65.84
2,453,218
08/08/2016
65.72
66.54
65.49
65.83
2,768,697
08/05/2016
64.78
65.71
64.615
65.46
2,182,087
08/04/2016
64.36
64.905
64.13
64.5
2,641,189
08/03/2016
63.51
64.6
63.14
64.24
3,161,177
08/02/2016
65
65.51
63.91
64.01
5,154,781
08/01/2016
63.43
63.94
62.63
63.94
4,819,276
07/29/2016
63.91
64
63.06
63.41
3,157,865
07/28/2016
64.15
64.15
63.53
64.01
1,404,517
07/27/2016
64.8
64.85
64.13
64.41
2,075,684
07/26/2016
63.47
64.655
63.34
64.57
2,276,638
07/25/2016
63.39
63.47
62.93
63.47
1,520,526
07/22/2016
63.37
63.44
62.63
63.38
1,376,972
07/21/2016
63.6
63.86
62.86
63.21
1,594,982
07/20/2016
63.15
63.74
62.67
63.5
1,697,487
07/19/2016
63.05
63.52
62.78
63.05
2,493,088
07/18/2016
63.57
63.73
63.08
63.49
1,860,373
07/15/2016
63.97
64.19
63.54
63.83
2,670,788
07/14/2016
63.86
64.71
63.35
63.8
3,704,591
07/13/2016
63.98
64.15
63.32
63.87
1,960,584
07/12/2016
62.93
64.16
62.53
63.96
2,496,285
07/11/2016
62.22
62.72
62
62.4
2,075,325
07/08/2016
60.72
62
60.52
61.92
2,001,732
07/07/2016
59.52
60.49
59.48
60.11
2,689,835
07/06/2016
58.71
59.46
58.275
59.45
3,073,660
07/05/2016
59.66
60
58.29
58.72
2,490,344
07/01/2016
59.63
60.93
59.63
60.27
2,663,662
06/30/2016
58.34
59.73
57.9601
59.73
2,897,578
06/29/2016
57.73
58.3166
57.15
58.09
2,720,616
06/28/2016
56.14
57.11
55.85
56.86
4,623,995
06/27/2016
57.28
57.42
54.3001
55.57
5,786,033
06/24/2016
60.05
60.73
57.9201
58.03
5,749,309
06/23/2016
62.56
62.82
62.23
62.82
1,189,635
06/22/2016
61.88
62.1
61.62
61.76
1,661,972
06/21/2016
62.25
62.5
61.465
61.85
1,566,384
06/20/2016
62.54
63.25
62.25
62.29
1,983,507
06/17/2016
60.9
61.85
60.79
61.62
2,472,817
06/16/2016
60.23
60.98
59.62
60.79
1,662,465
06/15/2016
60.79
61.14
60.41
60.65
1,537,468
06/14/2016
60.46
60.88
59.9403
60.44
2,619,622
06/13/2016
61.25
61.49
60.6
60.63
2,656,153
06/10/2016
62.21
62.3525
61.19
61.62
1,872,178
06/09/2016
62.66
62.92
62.23
62.77
1,197,547
06/08/2016
62.96
63.57
62.91
63.14
1,817,148
06/07/2016
62.85
63.36
62.5
62.53
1,820,063
06/06/2016
61.74
62.76
61.56
62.67
1,620,120
06/03/2016
61.72
61.81
61.01
61.45
1,809,321
06/02/2016
61.53
61.785
61.12
61.75
1,789,289
06/01/2016
61.22
61.725
60.75
61.65
2,083,801
05/31/2016
61.7
62.03
61.175
61.63
1,849,199
05/27/2016
61.63
61.92
61.25
61.63
1,030,147
05/26/2016
61.54
62.29
61.38
61.52
1,527,473
05/25/2016
60.68
61.83
60.588
61.61
2,221,151
05/24/2016
60.43
60.63
60.1275
60.4
1,951,921
05/23/2016
59.67
60.28
59.32
60.05
1,692,630
05/20/2016
59.99
60.54
59.5
59.8
3,077,706
05/19/2016
59.64
59.74
58.86
59.54
3,452,133
05/18/2016
61.08
61.35
59.8
60.1
2,202,794
05/17/2016
61.84
62.38
61.09
61.32
1,809,717
05/16/2016
61.06
62.12
61.02
61.95
2,056,820
05/13/2016
61.92
62.388
60.62
60.87
1,693,920
05/12/2016
62.27
62.49
61.675
62.07
1,608,579
05/11/2016
62.05
62.64
61.795
62
1,837,541
05/10/2016
60.78
62.13
60.59
62.1
1,567,106
05/09/2016
61.11
61.19
60.31
60.66
1,761,191
05/06/2016
60.83
61.38
60.32
61.3
1,895,871
05/05/2016
61.13
61.61
60.62
60.98
1,891,626
05/04/2016
62.4
62.59
60.4501
60.97
3,096,145
05/03/2016
63.16
63.5
62.53
63.29
3,956,861
05/02/2016
63.48
63.62
62.17
63.46
2,722,034
04/29/2016
62.5
63.75
62.32
63.27
3,369,480
04/28/2016
63.51
63.98
62.9
63.19
2,457,610
04/27/2016
63.33
63.91
63.06
63.83
1,829,844
04/26/2016
62.7
63.38
62.65
63.25
2,066,907
04/25/2016
62.55
62.88
61.85
62.26
1,833,492
04/22/2016
61.9
63.06
61.9
62.99
1,903,532
04/21/2016
62.08
62.66
61.83
62.15
2,383,880
04/20/2016
62.86
62.95
62.07
62.16
2,855,088
04/19/2016
63.44
63.44
62.61
62.77
2,124,777
04/18/2016
62.59
62.9
62.2
62.68
1,538,901
04/15/2016
62.65
63.26
62.58
62.83
2,308,564
04/14/2016
63.31
63.39
62.43
62.58
2,107,994
04/13/2016
61.95
63.135
61.73
63.04
2,414,727
04/12/2016
60.78
61.785
60.74
61.54
2,525,443
04/11/2016
60.16
61.2
60.095
60.62
2,430,935
04/08/2016
60.11
60.7589
59.785
59.91
2,640,253
04/07/2016
59.07
60.2
58.94
59.48
4,162,304
04/06/2016
60.27
60.415
58.13
59.55
6,787,894
04/05/2016
61.68
61.71
60.22
60.39
6,083,992
04/04/2016
62.89
63.33
62.485
62.65
2,364,521
04/01/2016
61.89
63.8
61.44
63.66
3,007,417
03/31/2016
62.75
62.974
62.26
62.56
2,139,264
03/30/2016
62.88
63.17
62.4574
62.75
1,758,630
03/29/2016
62
62.5
61.62
62.37
2,488,451
03/28/2016
62.52
62.63
62.01
62.47
1,647,696
03/24/2016
61.93
62.4
61.3101
62.37
2,160,172
03/23/2016
63.26
63.26
62.395
62.48
2,905,342
03/22/2016
63.2
63.96
62.84
63.42
3,401,194
03/21/2016
63.46
63.76
63.14
63.68
3,562,233
03/18/2016
63.31
63.99
62.53
63.47
7,865,052
03/17/2016
60.78
63.295
60.78
63.11
4,274,703
03/16/2016
60.43
61.07
59.93
60.78
2,992,880
03/15/2016
60.03
60.49
59.36
60.45
2,460,640
03/14/2016
59.69
60.66
59.5
60.5
2,466,926
03/11/2016
59.65
60.63
59.65
60.13
3,767,758
03/10/2016
58.65
59.45
58.375
59.41
4,580,921
03/09/2016
58.23
58.74
57.86
58.56
2,851,441
03/08/2016
58.54
58.54
57.71
57.87
2,248,791
03/07/2016
57.77
59.11
57.75
59.02
2,580,361
03/04/2016
57.87
58.5399
57.265
57.95
2,887,472
03/03/2016
57.39
57.85
56.97
57.83
2,272,009
03/02/2016
57.91
57.97
57.14
57.95
3,066,408
03/01/2016
57.69
58.58
57.04
58.06
3,732,352
02/29/2016
57.43
57.76
56.68
56.71
4,059,249
02/26/2016
57.54
57.98
57.06
57.27
2,385,030
02/25/2016
56.75
57.3399
56.09
57.28
2,418,101
02/24/2016
55.81
56.92
54.91
56.8
2,784,222
02/23/2016
57.4
57.93
56.4142
56.55
2,522,571
02/22/2016
56.68
57.91
56.58
57.68
4,353,233
02/19/2016
55.86
56.15
54.92
56.01
2,669,660
02/18/2016
56.16
56.4899
55.87
56.2
2,727,819
02/17/2016
55.41
56.77
55.1
56.01
3,586,727
02/16/2016
54.18
54.91
53.51
54.82
3,511,453
02/12/2016
53.91
54.51
53.045
54.2
4,027,010
02/11/2016
52.59
53.72
52.35
53.1
4,928,156
02/10/2016
54.6
54.96
53.64
53.7
3,496,537
02/09/2016
53.76
55.245
53.76
54.48
5,233,751
02/08/2016
54
55.3
53.144
55.11
6,236,687
02/05/2016
53.97
55.25
53.75
54.66
4,270,921
02/04/2016
52.47
55.26
52.47
54.36
6,098,116
02/03/2016
51.95
52.62
50.31
52.48
7,387,856
02/02/2016
49.61
50.08
48.61
49
5,797,628
02/01/2016
50.04
50.45
49.27
50.22
3,903,198
01/29/2016
48.6
50.51
47.75
50.51
8,031,291
01/28/2016
50.3
50.7
49.5
50.19
3,825,820
01/27/2016
48.99
50.71
48.32
49.44
4,581,492
01/26/2016
48.27
49.135
47.46
49.02
3,406,979
01/25/2016
48.23
48.56
47.15
47.27
2,505,955
01/22/2016
48.87
49.47
47.69
48.51
3,436,793
01/21/2016
47.57
48.686
46.78
47.78
3,767,211
01/20/2016
47.23
47.95
46.19
47.51
4,127,041
01/19/2016
48.6
48.74
47.45
48.09
3,473,380
01/15/2016
47.01
48.12
46.98
47.86
4,598,945
01/14/2016
48.71
48.71
47.15
48.32
4,644,013
01/13/2016
50.11
50.59
48.35
48.43
3,551,561
01/12/2016
49.73
50.09
48.85
49.95
3,399,283
01/11/2016
49.64
49.81
48.58
49.15
3,175,986
01/08/2016
50.05
50.41
49.06
49.17
3,448,157
01/07/2016
49.95
50.26
49.38
49.73
4,577,414
01/06/2016
50.82
51.29
50.36
50.92
2,871,945
01/05/2016
52.22
52.34
51.26
51.85
2,102,326
01/04/2016
51.21
52.26
50.7775
52.22
3,831,414
12/31/2015
52.41
52.79
52.02
52.04
2,164,435
12/30/2015
52.89
53.3
52.51
52.59
1,842,643
12/29/2015
53.03
53.46
52.71
53.08
2,587,095
12/28/2015
53.1
53.2099
52.25
52.59
1,913,364
12/24/2015
53.2
53.5
53.01
53.25
985,943
12/23/2015
52.36
53.5
52.2801
53.28
3,571,680
12/22/2015
51
52.34
50.87
51.81
6,189,558
12/21/2015
50.26
50.9
50.1
50.71
5,611,698
12/18/2015
50.1
50.51
49.65
49.74
8,553,050
12/17/2015
51.93
52.17
50.11
50.13
4,468,556
12/16/2015
51.3
52.19
50.97
51.99
4,274,195
12/15/2015
50.62
50.9
49.93
50.58
3,639,374
12/14/2015
50.71
51.08
49.9799
50.38
4,204,944
12/11/2015
51.42
51.86
50.66
50.87
5,861,658
12/10/2015
52.64
53.05
52.02
52.14
4,149,376
12/09/2015
52.86
53.7
52.47
52.67
3,593,143
12/08/2015
54
54.2099
52.815
53
5,690,678
12/07/2015
55.85
55.88
54.595
54.71
3,528,982
12/04/2015
55.74
56.24
55.524
56.05
3,244,976
12/03/2015
57.09
57.22
55.15
55.62
5,184,923
12/02/2015
58.1
58.47
56.955
57.13
3,042,304
12/01/2015
58.35
58.58
58.01
58.45
3,122,362
11/30/2015
58.2
58.59
57.98
58.16
3,246,992
11/27/2015
57.87
58.18
57.6
58.1
1,049,154
11/25/2015
57.61
58.18
57.44
57.95
3,161,841
11/24/2015
57
57.77
56.55
57.69
3,157,526
11/23/2015
57.45
57.78
57.19
57.22
3,385,823
11/20/2015
57.03
57.68
56.93
57.59
4,809,959
11/19/2015
56.97
56.975
56.15
56.77
4,470,662
11/18/2015
55.04
56.95
55.04
56.88
3,013,961
11/17/2015
55.6
55.88
55.03
55.44
2,918,848
11/16/2015
54.1
55.42
54.04
55.41
2,730,047
11/13/2015
54.08
54.77
53.99
54.11
3,638,435
11/12/2015
54.92
55.21
54.08
54.19
5,806,323
11/11/2015
55.8
56.1
55.4
55.52
4,159,811
11/10/2015
55.83
56.44
55.54
56.23
3,707,675
11/09/2015
57.23
57.29
56.04
56.36
3,946,721
11/06/2015
56.7
57.4
56.46
57.22
5,281,963
11/05/2015
56.13
57.41
55.9605
57.11
6,716,472
11/04/2015
57.01
57.81
56.66
56.74
3,962,078
11/03/2015
56.5
57.46
56.4001
56.74
4,001,637
11/02/2015
55.49
56.97
55.19
56.72
4,551,465
10/30/2015
54.31
56.49
54
55.91
6,993,433
10/29/2015
53.68
54.45
53.68
54.31
3,572,898
10/28/2015
52.88
54.23
52.867
54.08
3,409,535
10/27/2015
53.31
53.31
51.89
52.75
3,028,256
10/26/2015
54.49
54.68
53.69
53.78
2,820,288
10/23/2015
54.64
55.34
54
54.31
3,169,014
10/22/2015
52.73
54.96
52.72
54.35
4,617,331
10/21/2015
52.84
53.3
52.4
52.52
3,648,639
10/20/2015
51.04
53.075
50.88
52.37
7,149,441
10/19/2015
50.75
51.32
50.61
51.27
4,391,517
10/16/2015
52.07
52.07
50.68
51.15
6,785,284
10/15/2015
52.46
52.61
51.41
52.1
4,716,010
10/14/2015
53.4
53.5
52.58
52.75
2,935,665
10/13/2015
53.83
54.11
53.45
53.5
2,492,535
10/12/2015
54.86
55
53.96
54.14
2,491,855
10/09/2015
54.8
55.65
54.55
54.82
3,162,567
10/08/2015
54.01
55.48
53.9
55.3
3,886,004
10/07/2015
53.25
54.725
52.88
54.11
5,440,058
10/06/2015
52.9
53.33
52.22
52.58
5,230,127
10/05/2015
51.57
53.3
51.5
52.76
3,842,713
10/02/2015
49.78
51.41
49.46
51.4
5,100,825
10/01/2015
51.44
51.67
50.2675
50.58
2,934,781
09/30/2015
51.29
51.57
50.75
51.3
3,120,541
09/29/2015
50.22
50.85
49.93
50.66
3,104,170
09/28/2015
51.48
51.68
49.93
50.05
6,837,987
09/25/2015
52.4
52.56
51.62
51.92
6,819,522
09/24/2015
51.73
52.325
50.86
52.19
6,620,142
09/23/2015
53.06
53.1761
52.2101
52.36
3,649,920
09/22/2015
52.45
53.01
52.15
53
3,802,452
09/21/2015
53.03
53.49
52.69
53.26
3,546,522
09/18/2015
54.3
54.44
52.51
52.93
6,767,279
09/17/2015
56.23
56.42
54.91
55.05
4,279,606
09/16/2015
55.79
56.65
55.53
56.54
2,364,096
09/15/2015
54.71
55.82
54.55
55.74
3,461,419
09/14/2015
55.64
55.735
54.55
54.68
4,092,788
09/11/2015
55.91
56.16
55.34
55.72
1,762,794
09/10/2015
56.13
56.515
55.46
55.86
2,395,802
09/09/2015
57.34
57.63
55.87
55.99
2,670,451
09/08/2015
55.98
56.81
55.76
56.68
2,952,013
09/04/2015
54.49
55.31
54.13
55.05
3,366,998
09/03/2015
55.33
56.02
55.04
55.29
3,216,486
09/02/2015
55.78
55.79
54.54
55.57
2,902,006
09/01/2015
55.75
56.32
54.61
54.9
3,625,910
08/31/2015
56.7
57.54
56.13
57.06
2,835,255
08/28/2015
56.35
57.45
56.165
57.05
2,974,520
08/27/2015
55.25
56.74
55.01
56.63
4,180,453
08/26/2015
54.01
54.775
53.14
54.57
4,609,285
08/25/2015
56.39
56.39
52.67
52.71
4,598,076
08/24/2015
51.77
56.07
49.21
54.32
6,020,061
08/21/2015
57.63
58
56.69
56.69
4,868,762
08/20/2015
58.29
58.61
58
58.12
3,600,350
08/19/2015
59.36
59.61
58.21
58.65
3,259,051
08/18/2015
60.07
60.23
59.74
59.82
2,128,754
08/17/2015
59.66
60.43
59.26
60.33
1,375,452
08/14/2015
59.6
60.26
59.6
59.96
2,080,136
08/13/2015
59.98
60.59
59.7
59.94
1,719,018
08/12/2015
59.78
60.41
59.43
60.3
2,947,072
08/11/2015
60.65
60.65
59.77
60.11
2,660,886
08/10/2015
60.26
61.4
60.15
61.39
2,414,629
08/07/2015
59.83
60.29
59.55
59.85
2,360,770
08/06/2015
59.88
60.42
59.5
59.98
2,528,258
08/05/2015
60.11
60.6
59.5
59.62
3,420,158
08/04/2015
60.43
60.71
59.49
59.58
3,021,342
08/03/2015
60.45
60.58
59.84
60.26
2,759,756
07/31/2015
61.31
61.31
60.51
60.58
3,288,975
07/30/2015
60.64
61.28
60.12
61.08
3,394,371
07/29/2015
60.05
62.52
59.5
61.8
7,329,129
07/28/2015
61.07
61.795
60.685
61.49
3,040,883
07/27/2015
60.85
61.23
60.335
60.57
3,084,740
07/24/2015
63
63.03
60.48
61.15
7,003,640
07/23/2015
63.41
63.8105
62.87
62.99
3,664,848
07/22/2015
63.79
64.2
63.37
63.48
2,167,038
07/21/2015
64.98
65.14
63.91
64.01
3,461,891
07/20/2015
65.04
65.51
64.95
65.25
1,659,398
07/17/2015
65.66
65.97
64.91
65.11
2,171,755
07/16/2015
66.33
66.4
65.6
65.98
2,097,449
07/15/2015
66.3
66.36
65.42
65.74
2,299,917
07/14/2015
66.26
66.61
66.04
66.43
1,712,125
07/13/2015
66.28
66.48
65.95
66.41
1,795,525
07/10/2015
66.25
66.38
65.43
65.77
1,570,240
07/09/2015
66.22
67.72
65.39
65.39
2,297,215
07/08/2015
66.41
66.51
65.21
65.41
2,036,997
07/07/2015
66.92
66.96
65.27
66.91
3,143,465
07/06/2015
66.66
67.45
66.35
66.74
1,868,789
07/02/2015
67.76
68.23
67.35
67.41
1,971,058
07/01/2015
67.98
68.13
67.39
67.64
2,151,564
06/30/2015
67.83
68.14
67.11
67.49
3,044,900
06/29/2015
67.75
68.09
66.86
66.93
2,235,243
06/26/2015
68.74
68.8
68.1
68.28
2,348,730
06/25/2015
69.67
69.83
68.45
68.54
2,238,822
06/24/2015
70.05
70.23
69.48
69.59
2,142,345
06/23/2015
70.08
70.42
70
70.3
1,936,160
06/22/2015
70.61
70.76
70.07
70.2
1,863,306
06/19/2015
70.88
70.88
70.17
70.2
3,127,233
06/18/2015
70.55
71.31
70.48
71.05
1,825,985
06/17/2015
70.63
70.69
69.89
70.38
2,082,837
06/16/2015
70.62
70.82
69.96
70.44
2,345,250
06/15/2015
71.33
71.33
70.53
70.89
1,781,159
06/12/2015
72.31
72.48
71.5175
71.88
1,745,697
06/11/2015
72.88
72.9899
72.17
72.57
1,315,857
06/10/2015
72.03
72.68
71.94
72.54
1,718,466
06/09/2015
71.66
72.1101
71.4
71.49
1,292,101
06/08/2015
71.67
72.09
71.49
71.66
1,575,500
06/05/2015
71.92
72.09
71.46
71.75
1,854,453
06/04/2015
72.45
72.49
71.66
72.04
2,222,603
06/03/2015
72.71
73.28
72.127
72.87
1,776,876
06/02/2015
71.53
72.73
71.49
72.35
1,754,594
06/01/2015
71.79
72.07
71.275
71.58
1,608,554
05/29/2015
72.81
73
71.37
71.59
2,480,303
05/28/2015
72.63
72.943
72.11
72.78
1,716,606
05/27/2015
72.32
73.13
71.97
72.98
1,949,406
05/26/2015
72.8
72.842
71.65
72.01
2,452,156
05/22/2015
73.38
73.51
73.09
73.09
1,515,172
05/21/2015
72.41
73.615
72.39
73.4
2,564,566
05/20/2015
72.91
73
72.49
72.77
6,877,855
05/19/2015
73.28
73.36
72.41
72.8
1,904,750
05/18/2015
73.05
73.62
72.66
73.46
1,743,300
05/15/2015
73.36
73.4
72.7
73.32
2,878,736
05/14/2015
73.41
73.82
73.12
73.5
2,767,436
05/13/2015
72.1
73.26
72.01
72.81
2,621,003
05/12/2015
71.92
72.01
71.44
71.94
1,693,312
05/11/2015
71.9
72.66
71.9
72.27
1,835,195
05/08/2015
72
72.29
71.75
72.1
2,076,145
05/07/2015
71.58
71.58
70.83
71.25
2,448,315
05/06/2015
71.84
71.97
71.11
71.56
3,019,953
05/05/2015
71.01
72.76
70.99
71.41
4,437,081
05/04/2015
70.55
70.98
70.29
70.8
2,791,135
05/01/2015
69.27
70.57
68.95
70.52
3,465,032
04/30/2015
68.41
69.41
68.25
68.73
3,502,970
04/29/2015
69.38
70.38
68.37
69.54
4,286,066
04/28/2015
68.83
69
68.125
68.61
4,923,984
04/27/2015
68.68
69.62
68.68
69.38
3,058,131
04/24/2015
69.36
69.36
68.42
68.58
2,130,901
04/23/2015
69.12
69.4336
68.8
69.1
2,069,411
04/22/2015
69.44
69.54
68.69
69.28
2,352,653
04/21/2015
70
70.25
69.04
69.35
2,378,418
04/20/2015
69.42
69.81
69.27
69.81
2,749,395
04/17/2015
68.94
69.11
68.3
69.11
2,900,848
04/16/2015
69.72
69.72
69.0347
69.43
1,654,553
04/15/2015
69
70
68.6
69.74
2,984,474
04/14/2015
68.01
68.87
67.76
68.66
2,583,061
04/13/2015
68.78
68.78
68.03
68.34
1,839,855
04/10/2015
68.52
68.97
68.09
68.69
2,529,406
04/09/2015
68.13
68.71
67.65
68.55
2,398,816
04/08/2015
68.21
68.5
67.79
68.15
1,967,203
04/07/2015
68.57
69.08
68.35
68.56
1,765,804
04/06/2015
67.02
69.36
66.95
68.94
2,186,667
04/02/2015
67.38
68.3
66.98
67.68
1,987,762
04/01/2015
67.95
67.97
67.1
67.58
2,934,923
03/31/2015
67.28
68.08
67.05
67.94
3,182,345
03/30/2015
67
68.11
67
67.82
1,385,296
03/27/2015
66.95
66.95
66.32
66.7
1,386,592
03/26/2015
66.5
66.97
66.2301
66.67
1,981,312
03/25/2015
67.92
68.19
66.81
66.81
2,193,605
03/24/2015
68.03
68.36
67.48
67.87
2,147,944
03/23/2015
68.46
68.7
67.81
68.06
2,288,443
03/20/2015
68.03
68.65
67.91
68.48
4,281,150
03/19/2015
68.1
68.205
67.26
67.58
2,029,838
03/18/2015
67.35
68.72
66.73
68.52
3,470,858
03/17/2015
67.49
67.85
67.13
67.68
2,215,701
03/16/2015
68.12
68.23
66.89
67.79
3,202,940
03/13/2015
67
67.25
66.04
66.64
2,503,415
03/12/2015
66.86
67.28
66.64
67.25
2,301,528
03/11/2015
67.32
67.3599
66.47
66.57
1,874,590
03/10/2015
67.77
67.84
67.16
67.16
1,988,389
03/09/2015
68.23
68.65
68.02
68.5
1,633,834
03/06/2015
68.68
69.21
67.98
68.17
1,968,858
03/05/2015
69.3
69.46
68.82
69.35
1,733,474
03/04/2015
70.23
70.325
69.15
69.65
2,186,389
03/03/2015
70.47
70.98
70.18
70.44
2,239,769
03/02/2015
71.01
71.49
70.73
71
2,208,432
02/27/2015
71.19
71.51
70.76
71.01
2,396,575
02/26/2015
71.53
71.97
71.3144
71.79
1,905,192
02/25/2015
71.87
72
70.85
71.55
2,566,555
02/24/2015
71.59
71.9999
71.47
71.72
2,064,224
02/23/2015
72.17
72.45
71.51
71.64
1,996,626
02/20/2015
72.13
72.59
71.3
72.51
1,779,937
02/19/2015
71.81
72.54
71.5
72.12
1,381,737
02/18/2015
72.08
72.775
71.73
72.29
1,655,785
02/17/2015
72.37
72.37
71.5301
72.13
1,977,798
02/13/2015
71.63
72.71
71.45
72.55
3,118,775
02/12/2015
70.79
71.85
70.35
71.65
2,697,345
02/11/2015
70.36
70.74
69.95
70.33
2,024,695
02/10/2015
70.9
70.935
69.65
70.74
1,971,648
02/09/2015
69.55
70.72
69.54
70.14
2,079,640
02/06/2015
69.49
70.87
69.49
70.05
3,272,425
02/05/2015
68.73
69.58
68.73
69.22
2,551,341
02/04/2015
69.38
69.49
68.17
68.48
4,300,733
02/03/2015
67.89
70.33
67.42
69.79
7,271,923
02/02/2015
63.62
64.91
62.84
64.4
4,116,886
01/30/2015
63.53
64.1
63.07
63.09
3,911,540
01/29/2015
63.44
64.35
62.8
64.19
3,359,637
01/28/2015
65.34
65.51
63.52
63.61
3,197,391
01/27/2015
65.4
65.81
64.69
65.02
3,771,724
01/26/2015
66.72
67.12
66.0704
66.82
1,950,483
01/23/2015
67.73
67.73
66.72
67.01
2,360,690
01/22/2015
66.6
67.91
66.1401
67.68
3,463,428
01/21/2015
64.35
65.915
64.23
65.82
3,276,978
01/20/2015
64.89
64.97
64.25
64.8
3,265,241
01/16/2015
63.65
64.64
63.62
64.59
3,488,807
01/15/2015
64.53
64.6599
63.58
64.07
3,640,779
01/14/2015
64.01
64.58
63.31
64.24
2,394,482
01/13/2015
65.75
66.59
64.64
65.46
3,575,949
01/12/2015
65.95
66.2
64.935
65.48
2,848,828
01/09/2015
67.09
67.24
65.85
66.06
2,810,694
01/08/2015
65.2
66.92
65.2
66.89
3,445,867
01/07/2015
65.31
65.57
64.35
64.58
3,120,946
01/06/2015
65.09
65.25
63.572
64.39
3,246,699
01/05/2015
67.11
67.14
64.948
65.12
3,206,165
01/02/2015
68.39
68.57
66.99
67.93
1,638,137
12/31/2014
69.12
69.23
67.93
67.96
1,222,339
12/30/2014
69.09
69.4
68.7
68.77
1,455,442
12/29/2014
69.15
69.5
69.0005
69.34
1,424,723
12/26/2014
69.41
69.92
69.36
69.43
851,364
12/24/2014
69.56
69.77
69.16
69.3
734,580
12/23/2014
69.57
70.51
69.25
69.39
1,969,261
12/22/2014
69.61
69.99
68.51
69.07
2,896,970
12/19/2014
67.62
69.26
67.6
69.16
4,569,702
12/18/2014
65.82
67.46
65.82
67.45
3,144,817
12/17/2014
65.11
65.15
64.1
64.88
4,484,076
12/16/2014
64.07
65.91
64.0301
65.17
3,474,577
12/15/2014
66
66
64.234
64.4
2,883,186
12/12/2014
66.02
66.27
64.69
64.72
3,350,503
12/11/2014
67.08
67.79
66.67
66.83
2,399,616
12/10/2014
68.21
68.31
66.59
66.81
2,452,003
12/09/2014
67.05
68.53
66.85
68.5
2,042,866
12/08/2014
69.25
69.5
67.89
67.92
2,828,270
12/05/2014
69.27
69.61
69.02
69.41
1,497,932
12/04/2014
69.75
69.85
68.92
69.48
1,768,655
12/03/2014
68.85
70.5
68.81
70.21
3,182,803
12/02/2014
67.39
68.58
67.25
68.5
3,488,776
12/01/2014
67.57
67.74
66.99
67.19
3,349,201
11/28/2014
68.92
69.27
67.28
67.83
1,915,121
11/26/2014
69.34
69.45
68.72
69.21
1,552,238
11/25/2014
68.97
69.6
68.8
69.47
2,777,777
11/24/2014
68.54
69.12
68.4
69.07
1,886,191
11/21/2014
68.23
69.07
68.15
68.39
2,514,665
11/20/2014
66.5
67.55
66.31
67.36
1,382,749
11/19/2014
67.37
67.37
66.59
66.84
1,568,313
11/18/2014
66.95
67.55
66.5901
67.41
1,982,593
11/17/2014
66.88
67.285
66.51
67.08
1,632,462
11/14/2014
66.58
67.02
66.27
66.94
1,955,651
11/13/2014
67.7
67.79
66.17
66.5
3,353,493
11/12/2014
67.77
67.95
67.17
67.64
3,016,113
11/11/2014
69.03
69.35
68.26
68.44
2,345,819
11/10/2014
69.15
69.41
68.79
69.38
2,575,410
11/07/2014
68.89
69.31
68.41
69.17
3,087,125
11/06/2014
68.5
69.1
68.38
69.06
2,741,735
11/05/2014
68.76
68.88
67.7
68.32
2,736,587
11/04/2014
68.34
68.56
67.36
67.91
2,911,542
11/03/2014
68.37
68.68
67.8
68.43
3,955,439
10/31/2014
67.85
68.42
67.26
68.39
4,427,133
10/30/2014
65.51
67.23
65.48
66.77
3,687,493
10/29/2014
66.22
67.22
65.17
65.92
6,765,832
10/28/2014
63.21
64.78
63.19
64.78
3,388,119
10/27/2014
62.74
62.85
62.23
62.55
2,248,790
10/24/2014
62.73
63.09
62.47
63.06
1,841,471
10/23/2014
62.08
63.08
61.92
62.74
3,428,867
10/22/2014
62.91
63
61.02
61.1
3,119,963
10/21/2014
61.7
62.99
61.63
62.9
2,389,670
10/20/2014
60.97
61.19
60.37
61.1
2,708,409
10/17/2014
60.92
63.04
60.82
61.44
5,604,424
10/16/2014
57.83
60.55
57.71
59.92
3,940,596
10/15/2014
58.38
59.28
57.11
58.97
4,671,057
10/14/2014
59.05
60.33
58.78
59.05
4,858,914
10/13/2014
58.84
59.738
58.21
58.27
3,720,062
10/10/2014
59.38
59.64
58.46
58.92
5,005,754
10/09/2014
62.53
62.6399
59.49
59.52
6,368,941
10/08/2014
61.82
62.86
60.9366
62.81
3,739,607
10/07/2014
62.98
62.98
61.69
61.69
3,266,092
10/06/2014
63.27
63.8
62.83
63.41
2,842,804
10/03/2014
62.62
63.22
62.51
63.15
3,790,696
10/02/2014
62
62.58
60.38
62.04
6,621,254
10/01/2014
63.03
63.37
62.43
62.68
5,457,860
09/30/2014
64.76
64.9
62.84
63.37
5,353,279
09/29/2014
64.53
64.89
64.4
64.69
2,529,638
09/26/2014
64.65
65.41
64.44
65.31
2,890,597
09/25/2014
65.21
65.24
64.44
64.45
3,833,392
09/24/2014
65.02
65.81
64.9
65.63
3,101,864
09/23/2014
64.7
65.4
64.11
65.14
4,035,805
09/22/2014
66.17
66.24
64.78
65.07
3,669,863
09/19/2014
66.89
67.05
66.12
66.37
2,639,574
09/18/2014
66.64
66.92
66.45
66.56
2,701,367
09/17/2014
66.71
66.86
66.27
66.36
2,808,483
09/16/2014
66.77
66.92
65.87
66.71
3,621,242
09/15/2014
67.01
67.35
66.44
67
2,666,548
09/12/2014
67.8
67.8
67.01
67.09
2,836,092
09/11/2014
67.9
68
67.6
67.78
3,338,791
09/10/2014
68.26
68.398
67.81
68.1
2,166,812
09/09/2014
68.89
68.94
68.11
68.23
1,924,092
09/08/2014
68.98
69.47
68.7
68.85
1,559,658
09/05/2014
69.24
69.37
68.311
69.17
3,128,751
09/04/2014
69.81
70.34
69.3
69.37
2,198,550
09/03/2014
70.56
70.6
69.71
69.81
2,682,213
09/02/2014
70
70.49
69.72
70.27
1,936,924
08/29/2014
69.98
69.98
69.305
69.81
1,271,936
08/28/2014
69.8
69.8
69.005
69.57
1,767,959
08/27/2014
70
70.26
69.65
69.77
1,826,114
08/26/2014
70.56
70.69
70
70
1,838,690
08/25/2014
70.23
70.63
70.0601
70.29
1,585,429
08/22/2014
69.91
70.1
69.64
69.81
2,038,155
08/21/2014
70.6
70.6
69.88
70.05
1,518,653
08/20/2014
68.92
70.52
68.92
70.4
3,673,751
08/19/2014
69.55
69.68
69.04
69.2
2,188,866
08/18/2014
68.52
69.02
68.51
69
3,310,589
08/15/2014
68.89
68.9
67.69
68.11
3,389,713
08/14/2014
68.78
68.873
68.32
68.57
2,500,275
08/13/2014
68.38
68.96
68.14
68.69
3,316,882
08/12/2014
67.8
68.19
67.72
67.96
2,100,691
08/11/2014
67.86
68.46
67.7
67.93
2,178,165
08/08/2014
67
67.76
66.98
67.71
3,209,778
08/07/2014
67.35
67.6
66.54
66.72
3,454,617
08/06/2014
66.8
67.15
66.57
66.76
4,946,636
08/05/2014
67.32
68.46
67.17
67.5
4,262,283
08/04/2014
67.58
67.97
66.86
67.68
4,326,227
08/01/2014
67.54
67.87
66.98
67.18
4,525,619
07/31/2014
68.91
69.24
67.76
67.92
6,087,767
07/30/2014
69.38
70.13
68.76
69.9
11,758,070
07/29/2014
75.04
75.11
70.16
70.51
10,517,590
07/28/2014
77.46
77.53
76.2
76.75
2,611,889
07/25/2014
77.1
77.64
77.02
77.47
2,404,827
07/24/2014
78.15
78.18
77.3
77.38
2,112,759
07/23/2014
78.5
78.62
77.66
78.03
1,715,413
07/22/2014
78.63
78.76
78.12
78.32
1,729,110
07/21/2014
77.79
78.05
77.01
77.92
3,528,183
07/18/2014
78.45
78.86
78.25
78.57
2,435,165
07/17/2014
79.15
79.35
78.111
78.25
1,985,521
07/16/2014
79.09
79.88
78.91
79.44
3,057,714
07/15/2014
79.21
79.427
78.04
78.62
2,790,580
07/14/2014
78.63
79.98
78.58
79.05
3,857,363
07/11/2014
77.7
78
77.1
77.82
1,869,085
07/10/2014
76.85
77.74
76.59
77.66
2,644,495
07/09/2014
78.05
78.33
77.55
77.9
2,039,547
07/08/2014
77.89
78.05
77.2
77.43
2,622,134
07/07/2014
78.08
78.58
77.35
78.45
2,797,094
07/03/2014
77.86
78.48
77.8
78.29
1,563,641
07/02/2014
77.37
78.35
77.33
77.6
2,747,309
07/01/2014
77.49
77.87
77
77.36
2,435,651
06/30/2014
77.07
77.33
76.67
77.18
2,186,985
06/27/2014
76.72
77.3
76.43
77.26
2,189,763
06/26/2014
77.05
77.07
76.21
76.97
2,107,142
06/25/2014
77.12
77.61
76.77
76.99
2,617,232
06/24/2014
78.86
79.08
77.32
77.46
2,998,136
06/23/2014
79.21
79.65
78.56
79.24
4,317,055
06/20/2014
77.06
77.74
76.69
77.56
4,131,480
06/19/2014
77.45
77.62
76.25
76.83
2,314,852
06/18/2014
76.14
76.68
75.64
76.59
1,958,237
06/17/2014
75.64
76.35
75.3
76.16
2,207,881
06/16/2014
74.99
76.23
74.98
75.82
2,216,839
06/13/2014
75.09
75.5
74.93
75.16
1,577,672
06/12/2014
75.39
75.56
74.74
74.93
2,860,509
06/11/2014
74.72
75.48
74.72
75.26
1,981,512
06/10/2014
75.4
75.55
74.83
75.15
1,487,195
06/09/2014
74.92
76.14
74.77
75.56
2,840,977
06/06/2014
73.81
74.89
73.6532
74.89
2,589,028
06/05/2014
73.58
74.44
73.31
73.56
5,181,198
06/04/2014
73.44
73.67
73.1
73.38
1,808,190
06/03/2014
73.4
73.671
73.14
73.54
2,121,708
06/02/2014
73.75
73.93
72.95
73.6
1,776,724
05/30/2014
73.73
73.94
73.28
73.69
2,047,955
05/29/2014
74.23
74.46
73.55
74.03
1,619,290
05/28/2014
74.26
74.59
73.9
73.98
2,141,121
05/27/2014
74
74.95
73.75
74.26
1,945,181
05/23/2014
73.4
73.8
72.85
73.72
1,629,630
05/22/2014
73.01
73.97
72.74
73.3
1,969,780
05/21/2014
72.34
73
72.34
72.94
2,250,597
05/20/2014
72.53
72.7399
71.72
72.09
2,350,523
05/19/2014
71.89
72.96
71.78
72.64
1,704,970
05/16/2014
72.71
72.76
71.59
72.21
3,956,859
05/15/2014
72.35
72.74
71.55
72.39
2,763,242
05/14/2014
73.34
73.45
72.59
72.74
1,503,371
05/13/2014
73.3
73.91
73
73.2
2,469,652
05/12/2014
72.17
73.31
72.03
73.04
2,388,990
05/09/2014
72
72.01
71.18
71.62
1,939,679
05/08/2014
72.46
73.05
71.65
71.92
2,946,984
05/07/2014
72.64
72.71
71.61
72.5
2,355,735
05/06/2014
72.57
72.8
72.19
72.37
2,316,819
05/05/2014
72.41
73.17
71.81
72.83
1,876,466
05/02/2014
72.92
73.695
72.72
72.86
2,735,113
05/01/2014
72.27
73.25
72.11
73.14
3,201,626
04/30/2014
72.08
72.99
71.31
72.64
3,968,188
04/29/2014
73.89
74.5
71.78
72.15
5,955,621
04/28/2014
74.1
75.05
73.46
74.5
3,172,035
04/25/2014
74.74
74.965
73.72
73.95
1,966,859
04/24/2014
74.71
75.32
74.06
74.96
2,031,642
04/23/2014
74.33
75.02
74.09
74.38
1,960,382
04/22/2014
73.99
74.89
73.82
74.43
1,662,517
04/21/2014
73.8
74.07
73.25
73.93
1,686,196
04/17/2014
73.53
74.26
72.99
73.82
2,757,117
04/16/2014
72.39
73.04
72.09
72.95
2,137,557
04/15/2014
71.07
71.93
70.26
71.89
3,159,715
04/14/2014
71.72
71.89
70.4
71.03
3,497,892
04/11/2014
72.59
72.59
70.56
70.92
4,130,226
04/10/2014
74.86
74.94
72.69
72.84
2,393,794
04/09/2014
73.5
74.84
73.38
74.79
2,353,591
04/08/2014
73.51
73.82
72.78
73.38
3,352,231
04/07/2014
75.19
75.3599
72.99
73.39
3,325,562
04/04/2014
77.31
77.71
75.37
75.57
3,811,707
04/03/2014
77
77.62
76.67
77.02
2,750,301
04/02/2014
76.05
77.16
75.7
76.67
2,521,076
04/01/2014
74.77
75.8
74.59
75.77
2,587,134
03/31/2014
74.72
75.54
74.71
75.12
2,315,721
03/28/2014
73.46
74.51
73.31
74.23
1,705,508
03/27/2014
72.79
73.49
72.1
73.3
2,374,025
03/26/2014
74.51
74.61
72.97
72.98
2,554,472
03/25/2014
73.54
74.2
73.18
73.93
2,663,265
03/24/2014
73.055
73.42
71.71
72.68
2,570,302
03/21/2014
73.46
74.44
72.58
72.65
2,526,849
03/20/2014
72.02
72.98
71.89
72.77
1,731,084
03/19/2014
73.26
73.3697
71.62
72.06
3,096,497
03/18/2014
72.78
73.43
72.7
73.33
1,961,903
03/17/2014
71.98
73.1499
71.97
72.4
3,343,145
03/14/2014
72.01
72.89
71.18
71.27
3,474,031
03/13/2014
74.06
74.19
72.1
72.55
2,776,900
03/12/2014
74.02
74.25
73.08
73.8
2,409,520
03/11/2014
75.04
75.48
74.16
74.53
2,721,634
03/10/2014
75.87
75.94
74.72
74.87
2,467,552
03/07/2014
75.73
76.645
75.55
76.15
4,176,630
03/06/2014
74.1
75.38
74.03
75.34
3,215,258
03/05/2014
74.27
74.64
73.9499
74.4
3,526,855
03/04/2014
74.5
74.7
73.87
73.88
4,624,043
03/03/2014
73.95
74.1
72.551
73.47
5,792,142
02/28/2014
75.45
76.14
74.25
74.71
4,704,961
02/27/2014
75.68
76
75.22
75.45
2,607,275
02/26/2014
75.46
76.16
75.31
75.78
3,933,254
02/25/2014
74.73
75.89
74.56
75.36
3,373,951
02/24/2014
73.78
75.39
73.78
74.98
3,503,612
02/21/2014
73.39
73.97
73.2
73.5
2,663,094
02/20/2014
72.16
73.16
71.75
72.97
2,619,294
02/19/2014
72.11
73.16
72.09
72.13
2,146,017
02/18/2014
72.97
73.06
72.11
72.47
1,773,705
02/14/2014
71.49
73.065
71.23
72.72
2,826,368
02/13/2014
70.43
71.7
70.25
71.55
2,169,260
02/12/2014
70.33
71.38
70.17
71.1
4,603,648
02/11/2014
69.92
70.3
69.41
70.01
3,340,937
02/10/2014
70.5
70.637
69.34
69.54
2,816,512
02/07/2014
69.32
70.84
68.8
70.62
5,040,640
02/06/2014
69.03
70.175
68.88
69.07
4,986,203
02/05/2014
67.91
69.15
66.89
69.1
6,970,503
02/04/2014
68.5
69
67.3
68.65
9,149,497
02/03/2014
73.44
73.84
70.18
70.27
4,858,491
01/31/2014
72.66
73.47
72.45
73.09
3,121,157
01/30/2014
74.12
74.24
73.4
73.91
2,833,785
01/29/2014
72.85
74.2
72.68
73.48
2,793,261
01/28/2014
73.22
74.01
72.99
73.55
1,748,863
01/27/2014
73.33
73.98
72.12
72.79
2,676,117
01/24/2014
75.12
75.25
72.98
73.13
4,557,235
01/23/2014
76.4
76.48
75.29
75.94
2,733,579
01/22/2014
77.35
77.55
76.56
77.19
2,863,789
01/21/2014
77.64
78.19
77.13
77.67
3,205,390
01/17/2014
76.63
77.155
76.31
76.85
3,159,795
01/16/2014
76.27
77.12
76.21
76.54
2,381,617
01/15/2014
75.87
76.57
75.64
76.44
2,636,697
01/14/2014
74.17
75.7
73.89
75.7
3,925,242
01/13/2014
75.07
75.57
73.57
74.07
6,969,354
01/10/2014
75.67
76.424
75.36
76.32
2,360,557
01/09/2014
75.74
76.21
75.005
75.55
2,436,609
01/08/2014
75.58
75.58
74.95
75.28
2,330,001
01/07/2014
75.44
75.98
75.11
75.54
1,940,799
01/06/2014
76.19
76.45
75.18
75.38
2,077,133
01/03/2014
75.55
76.09
75.38
75.71
1,936,371
01/02/2014
75.74
75.99
75.18
75.49
3,774,066
12/31/2013
76.19
76.27
75.78
76.12
2,722,645
12/30/2013
76.53
76.75
75.95
76.01
1,728,061
12/27/2013
76.61
77
76.51
76.75
964,409
12/26/2013
75.8
76.73
75.8
76.58
1,441,151
12/24/2013
75.34
76.1
75.17
75.73
610,065
12/23/2013
76.08
76.1959
74.9
75.44
2,352,082
12/20/2013
74.83
76.22
74.77
75.72
3,619,229
12/19/2013
74.48
74.6
73.8125
74.48
2,104,831
12/18/2013
73.45
75
72.92
75
3,080,217
12/17/2013
72.86
73.72
72.44
73.45
3,607,483
12/16/2013
72.08
73.05
71.93
72.87
3,110,851
12/13/2013
70.85
71.16
70.4101
70.97
2,078,912
12/12/2013
70.67
71.2499
70.36
70.57
1,638,660
12/11/2013
72.09
72.41
70.76
70.96
1,843,414
12/10/2013
72.16
72.74
71.79
72.09
2,106,889
12/09/2013
72.26
72.71
71.795
72.3
2,215,462
12/06/2013
72.31
73
71.71
72.42
2,221,527
12/05/2013
70.16
71.7
70.12
71.32
2,449,432
12/04/2013
70.8
71.7
70.09
70.3
3,904,656
12/03/2013
72.08
72.21
70.86
71.16
2,456,976
12/02/2013
72.66
73.23
71.73
71.89
1,936,431
11/29/2013
72.72
73.07
72.4
72.66
1,083,434
11/27/2013
72.91
73.4
72.68
72.85
1,129,751
11/26/2013
72.8
73.125
72.5653
72.83
1,903,773
11/25/2013
73.07
73.44
72.51
72.77
2,114,258
11/22/2013
72.33
73.195
72.05
73
2,214,045
11/21/2013
71.45
72.72
71.39
72.54
2,262,989
11/20/2013
71.3
72.04
70.75
70.89
1,926,478
11/19/2013
72.07
72.25
71.06
71.29
2,163,157
11/18/2013
72.43
72.73
71.83
72.07
2,415,547
11/15/2013
72.46
72.53
72.13
72.3
2,417,913
11/14/2013
72.48
72.742
72.025
72.3
1,935,624
11/13/2013
71.42
72.45
71.41
72.45
1,925,831
11/12/2013
70.9
72.09
70.59
71.9
3,317,197
11/11/2013
70.66
71.27
70.48
70.99
1,686,156
11/08/2013
69.04
70.64
69
70.6
2,350,191
11/07/2013
70.45
70.71
68.785
68.92
2,627,817
11/06/2013
70.42
70.96
69.96
70.21
1,956,535
11/05/2013
70.3
70.54
69.7
70.06
2,595,493
11/04/2013
70.95
71.16
70.26
70.62
1,760,093
11/01/2013
70.55
71.13
69.73
70.67
2,956,859
10/31/2013
70.66
71.14
70.176
70.56
3,287,240
10/30/2013
71.16
72.095
70.9
71.29
4,247,473
10/29/2013
70.93
71.43
70.09
71.31
3,117,636
10/28/2013
71.72
71.92
70.11
70.55
3,990,559
10/25/2013
68.02
72.54
67.5
71.64
10,766,300
10/24/2013
67.77
68.9
67.11
68.5
3,791,020
10/23/2013
68.72
68.75
67.35
67.77
2,428,671
10/22/2013
68.76
69.38
68.58
69.02
2,204,519
10/21/2013
69.11
69.19
68.16
68.38
2,883,931
10/18/2013
67.51
68.86
67.41
68.73
3,388,685
10/17/2013
66.57
67.46
66.4
67.33
2,986,533
10/16/2013
67.52
67.63
66.06
66.79
3,478,684
10/15/2013
68.5
68.59
66.65
66.94
3,976,898
10/14/2013
68.47
69.38
68.02
68.95
1,865,070
10/11/2013
67.89
69.3
67.75
69.3
2,468,386
10/10/2013
66.57
68.09
66.43
67.92
3,014,363
10/09/2013
66.01
66.17
65.2
65.65
2,914,030
10/08/2013
67.34
67.4
65.75
65.9
3,131,986
10/07/2013
68.12
68.26
67.19
67.21
3,019,874
10/04/2013
68.31
69.16
67.85
69.05
1,744,581
10/03/2013
69.14
69.15
67.84
68.23
2,433,228
10/02/2013
68.66
69.57
67.88
69.26
4,071,278
10/01/2013
68.72
70.15
68.72
68.99
3,149,571
09/30/2013
68.92
69.26
68.43
68.84
2,856,756
09/27/2013
70.29
70.29
69.43
69.69
1,789,142
09/26/2013
70.7
70.95
70.15
70.51
1,272,052
09/25/2013
70.4
71.11
69.83
70.4
1,865,695
09/24/2013
69.03
71.28
68.96
70.43
2,724,108
09/23/2013
70.23
70.43
68.95
69.49
2,521,300
09/20/2013
70.77
71.36
70.57
70.57
3,473,887
09/19/2013
69.94
71.16
69.9
70.79
3,727,878
09/18/2013
68.11
69.89
68.07
69.74
2,242,708
09/17/2013
68.35
68.419
67.92
68.22
1,594,739
09/16/2013
68.45
68.98
68.23
68.53
2,138,744
09/13/2013
67.03
67.46
66.62
67.33
1,320,176
09/12/2013
67.99
68.05
66.91
67.17
1,959,191
09/11/2013
67.54
68.35
67.26
68
1,735,937
09/10/2013
67.41
67.97
67.36
67.88
2,786,915
09/09/2013
66.19
67.66
66.13
66.75
3,577,918
09/06/2013
65.61
66.43
64.5679
65.63
2,595,149
09/05/2013
64.84
65.66
64.64
65.44
1,707,527
09/04/2013
63.09
65.11
63.01
64.99
3,411,104
09/03/2013
64.28
64.67
62.89
63.08
3,364,419
08/30/2013
64
64.1
63.19
63.32
1,672,556
08/29/2013
63.71
64.665
63.61
63.99
1,452,960
08/28/2013
63.95
64.2899
63.61
63.81
1,832,772
08/27/2013
65.12
65.23
63.95
64.04
2,660,183
08/26/2013
66.96
67
65.82
65.98
1,613,844
08/23/2013
67.11
67.24
66.25
66.89
1,545,819
08/22/2013
65.85
67.24
65.68
67
1,766,019
08/21/2013
64.92
65.98
64.64
65.47
2,634,293
08/20/2013
64.83
65.4
64.32
65.12
1,575,158
08/19/2013
65.27
65.535
64.75
64.83
1,510,529
08/16/2013
65.24
65.97
65.17
65.44
2,615,649
08/15/2013
66.08
66.105
65
65.24
3,035,671
08/14/2013
66.93
67.17
66.63
66.79
1,463,895
08/13/2013
66.66
67.3
66.4198
66.94
1,842,779
08/12/2013
65.38
66.84
65.19
66.47
2,518,185
08/09/2013
64.89
65.97
64.85
65.62
2,291,309
08/08/2013
64.8
65.575
64.8
65.35
3,983,896
08/07/2013
65.4
65.4
64.39
64.55
3,384,833
08/06/2013
66
66.18
65.36
65.5
2,867,833
08/05/2013
66.15
66.54
65.66
66.33
3,920,820
08/02/2013
66.64
67.7
65.4
66.06
10,925,280
08/01/2013
69.53
70.07
69.29
69.93
2,841,457
07/31/2013
68.36
69.44
68.23
68.95
2,220,462
07/30/2013
68.08
68.565
67.83
68.3
1,726,663
07/29/2013
68
68.179
67.535
67.62
1,383,941
07/26/2013
67.44
68.04
67.31
68.03
1,754,879
07/25/2013
67.66
68.04
67.105
68.02
1,913,239
07/24/2013
69.11
69.177
67.9
68.08
2,424,815
07/23/2013
68.34
69.11
68.1598
68.95
2,228,247
07/22/2013
68.26
68.65
68.02
68.12
1,304,100
07/19/2013
67.83
68.35
67.42
68.28
2,020,518
07/18/2013
67.33
67.727
66.95
67.64
2,058,940
07/17/2013
66.99
67.49
66.89
66.92
2,091,115
07/16/2013
68.15
68.25
66.44
66.5
2,788,910
07/15/2013
68.07
68.5569
68.02
68.19
2,920,835
07/12/2013
68.24
68.4
67.83
68.34
1,916,467
07/11/2013
68.38
68.63
67.83
68.21
3,210,320
07/10/2013
68.14
68.32
67.06
67.39
2,584,039
07/09/2013
68.25
68.87
67.96
68.11
2,504,790
07/08/2013
68.11
68.3
67.76
67.96
2,548,984
07/05/2013
66.61
67.76
66.55
67.72
2,388,245
07/03/2013
65.75
66.56
65.51
66.22
1,227,811
07/02/2013
66.23
67.08
65.72
66.04
2,699,141
07/01/2013
65.76
67.17
65.55
66.48
3,159,134
06/28/2013
65.08
65.88
64.9092
65.81
8,401,288
06/27/2013
64.56
65.575
64.56
65.22
2,815,941
06/26/2013
63.75
64.23
63.21
63.94
1,976,705
06/25/2013
62.78
63.35
61.97
63.15
3,033,698
06/24/2013
62.82
62.89
61.23
62.19
4,371,874
06/21/2013
64.12
64.62
63
63.96
3,829,001
06/20/2013
63.75
64.4
63.17
63.57
3,600,237
06/19/2013
65.82
65.94
64.7
64.7
1,890,008
06/18/2013
64.88
65.97
64.55
65.84
1,951,121
06/17/2013
65.02
65.47
64.2801
64.74
2,537,284
06/14/2013
64.69
65.28
64.4
64.58
1,792,833
06/13/2013
63.39
65.195
63.12
64.83
2,937,957
06/12/2013
65.43
65.43
63.44
63.52
2,932,969
06/11/2013
65.04
65.43
64.3
64.56
3,501,373
06/10/2013
65.69
66.98
65.07
65.64
7,466,839
06/07/2013
64.87
65.75
64.7765
65.62
3,174,395
06/06/2013
64.21
64.4
63.48
64.4
2,681,510
06/05/2013
65.3
65.46
64.02
64.08
3,229,093
06/04/2013
66.2
67.0125
65.19
65.59
2,930,857
06/03/2013
66.4
66.81
64.97
66.22
3,151,839
05/31/2013
67.28
67.82
66.06
66.06
3,848,319
05/30/2013
67.58
67.99
67.11
67.77
1,945,986
05/29/2013
68.2
68.26
67.03
67.24
3,386,457
05/28/2013
69.2
69.9183
68.5
68.67
2,589,676
05/24/2013
67.3
68.26
67.3
68.23
2,251,592
05/23/2013
67.78
68.6
67.3
68.24
3,687,341
05/22/2013
68.67
69.53
68.04
68.88
5,065,055
05/21/2013
67.99
68.82
67.96
68.69
3,104,814
05/20/2013
66.75
68.16
66.43
68.07
2,801,461
05/17/2013
66.31
67.01
65.85
66.86
3,978,402
05/16/2013
65.29
66.22
65.28
65.7
3,090,953
05/15/2013
64.59
65.71
64.5122
65.68
2,263,456
05/14/2013
64.14
65.18
64.14
65.09
2,853,662
05/13/2013
64.81
65
64.11
64.23
2,015,140
05/10/2013
64.68
65.31
64.5701
64.93
2,155,084
05/09/2013
64.3
65.315
64.2
64.74
2,851,339
05/08/2013
63.5
64.7
63.21
64.56
3,383,991
05/07/2013
62.52
63.49
62.39
63.46
2,643,880
05/06/2013
61.54
62.615
61.49
62.07
2,562,882
05/03/2013
60.25
62.18
60.25
61.65
4,798,732
05/02/2013
59.21
60.08
59.18
59.45
3,950,981
05/01/2013
61.02
61.02
59.18
59.27
4,413,715
04/30/2013
60.41
61.72
59.89
61.41
4,320,478
04/29/2013
60.41
62.03
60.04
60.28
6,076,737
04/26/2013
59.15
59.37
57.96
58.65
3,571,192
04/25/2013
58.91
59.24
58.64
58.69
2,487,029
04/24/2013
58.02
58.83
58.02
58.62
2,911,826
04/23/2013
57.01
58.595
56.98
58.16
3,766,049
04/22/2013
57
57.42
56.45
56.89
3,818,024
04/19/2013
55.78
57.19
55.69
56.96
4,691,141
04/18/2013
57.5
57.58
55.41
55.8
6,419,429
04/17/2013
58.54
58.55
56.72
57.35
4,571,261
04/16/2013
58.1
59.18
58
59.05
3,128,841
04/15/2013
59.9
60.04
57.09
57.22
4,962,822
04/12/2013
61.24
61.49
60
60.3
2,648,435
04/11/2013
61.17
62.88
61.1
61.69
2,978,777
04/10/2013
60.47
61.24
60.1
61.12
2,475,655
04/09/2013
60.48
60.72
59.8
60.47
3,067,682
04/08/2013
59.31
60.34
59.13
60.33
2,720,138
04/05/2013
58.63
59.4
58.271
59.32
3,303,267
04/04/2013
59.2
59.82
58.93
59.53
3,613,716
04/03/2013
61.13
61.23
58.55
59.25
5,596,531
04/02/2013
61.56
61.68
60.68
60.93
2,706,750
04/01/2013
61.25
62.15
60.81
61.18
3,277,173
03/28/2013
60.86
61.46
60.6
61.25
4,510,680
03/27/2013
60.71
61.2
60.35
60.74
5,384,286
03/26/2013
62.22
62.45
61.14
61.16
3,364,825
03/25/2013
63.18
63.66
61.92
61.98
3,461,689
03/22/2013
62.85
63.49
62.63
63.27
2,608,967
03/21/2013
62.39
63.265
62.25
62.62
3,024,779
03/20/2013
61.96
62.85
61.94
62.68
2,487,536
03/19/2013
62
62.1
60.7801
61.39
2,408,638
03/18/2013
61.9
62.44
61.571
61.83
2,596,168
03/15/2013
62.88
63.24
62.51
62.57
4,205,965
03/14/2013
63.79
63.81
62.81
63.17
2,794,495
03/13/2013
62.85
63.59
62.57
63.42
3,145,390
03/12/2013
63.29
63.29
61.96
62.84
2,717,157
03/11/2013
63.11
63.5
62.83
63.39
1,704,151
03/08/2013
62.46
63.42
62.24
63.35
2,581,901
03/07/2013
62.37
62.505
61.8
62.02
1,915,062
03/06/2013
62.4
62.935
61.951
62.62
2,813,264
03/05/2013
62.41
63.12
62.01
62.15
3,418,199
03/04/2013
62.51
62.85
61.03
62.12
3,951,918
03/01/2013
61.45
63.63
61.1706
62.66
5,229,186
02/28/2013
61.53
62.56
61.25
61.97
3,799,858
02/27/2013
59.44
61.98
59.32
61.69
3,003,600
02/26/2013
59.96
60.23
58.93
59.56
3,254,914
02/25/2013
60.32
61.06
59.25
59.27
4,589,941
02/22/2013
59.79
60.36
59.685
59.75
2,711,849
02/21/2013
60.24
60.28
59.29
59.45
3,779,026
02/20/2013
61.61
61.71
60.62
60.74
3,834,795
02/19/2013
61.05
61.55
61.05
61.49
2,514,414
02/15/2013
61.52
61.54
60.73
60.87
2,936,384
02/14/2013
60.67
61.46
60.61
61.24
2,522,415
02/13/2013
60.41
61.47
60.31
61.04
3,037,705
02/12/2013
59.68
60.3
59.44
60.21
2,833,020
02/11/2013
58.83
59.77
58.81
59.67
2,990,535
02/08/2013
58.95
59.6
58.82
58.92
4,440,823
02/07/2013
59.76
59.79
58.6
58.88
4,628,170
02/06/2013
59.4
59.82
59
59.65
6,833,774
02/05/2013
56.93
60.45
56.02
59.37
10,292,130
02/04/2013
56.08
57.3
55.6
56.58
5,461,979
02/01/2013
57.65
58.87
57.1
57.52
6,594,890
01/31/2013
56.7
57.11
56.47
56.95
2,890,437
01/30/2013
57.43
57.66
56.87
56.95
1,904,048
01/29/2013
57.21
57.61
56.82
57.54
1,665,317
01/28/2013
57.68
57.86
57.0557
57.25
2,093,071
01/25/2013
57.4
57.73
57.05
57.52
2,887,877
01/24/2013
56.5
57.48
56.28
57.31
3,866,482
01/23/2013
56.76
56.84
56.38
56.56
2,386,773
01/22/2013
56.75
56.99
55.97
56.98
3,272,966
01/18/2013
56.56
57.03
55.75
56.67
3,589,963
01/17/2013
55.48
56.52
55.28
56.42
3,511,409
01/16/2013
55.54
55.54
55
55.1
2,600,207
01/15/2013
55.2
55.78
55.2
55.59
2,164,135
01/14/2013
55.82
55.98
55.16
55.33
2,037,569
01/11/2013
55.4
55.945
55.08
55.75
2,753,379
01/10/2013
56
56.05
55.01
55.93
3,524,592
01/09/2013
55.34
55.92
55.26
55.77
2,627,011
01/08/2013
55.53
56.02
55.02
55.02
4,254,793
01/07/2013
56.47
56.49
55.19
55.75
3,183,941
01/04/2013
56.65
56.82
56.35
56.75
2,312,827
01/03/2013
56.3
56.93
56.09
56.37
3,124,608
01/02/2013
55.55
57.35
55.55
56.45
4,104,506
12/31/2012
52.72
54.23
52.45
54.18
2,619,023
12/28/2012
53.27
53.59
52.9
53.09
1,923,996
12/27/2012
53.99
54.26
52.87
53.63
2,299,458
12/26/2012
53.68
54.14
53.33
53.84
1,607,711
12/24/2012
53.61
53.76
53.18
53.47
1,293,084
12/21/2012
53.94
54.75
53.76
53.84
6,049,938
12/20/2012
54.23
54.6977
54.03
54.66
3,511,516
12/19/2012
54.25
54.72
54.12
54.12
3,386,453
12/18/2012
52.53
54.09
52.53
53.88
4,555,644
12/17/2012
52.74
52.97
52.14
52.45
3,374,352
12/14/2012
51.53
52.76
51.53
52.57
3,323,615
12/13/2012
52.04
52.36
51.54
51.68
3,268,740
12/12/2012
52.58
52.81
51.91
52.04
4,019,130
12/11/2012
52.48
52.75
52.17
52.45
2,576,932
12/10/2012
52.21
52.42
51.495
52.34
3,841,354
12/07/2012
52.12
52.51
51.72
52.47
3,887,865
12/06/2012
51.13
51.52
50.735
51.4
4,440,680
12/05/2012
51.22
51.8
50.75
51.18
4,205,850
12/04/2012
51.19
51.68
50.9
51.28
4,313,783
12/03/2012
51.48
52.19
51.12
51.1504
4,526,756
11/30/2012
51.93
52.25
51.64
52.16
7,780,386
11/29/2012
52.11
52.43
51.64
51.99
4,063,750
11/28/2012
50.87
52.17
50.5
52.03
4,370,851
11/27/2012
51.38
51.8467
50.97
51.05
3,831,431
11/26/2012
52.32
52.68
51.05
51.17
5,698,274
11/23/2012
50.77
51.66
50.62
51.58
1,841,282
11/21/2012
50.79
51.04
50.21
50.73
4,016,103
11/20/2012
50.08
50.94
49.81
50.72
3,933,123
11/19/2012
49.52
50.3
49.5
50.25
2,972,283
11/16/2012
48.79
49.15
48.24
48.94
4,987,375
11/15/2012
48.3
49
47.93
48.26
4,565,154
11/14/2012
48.9
49.75
48.32
48.45
3,688,113
11/13/2012
48.93
49.89
48.13
49.47
2,953,098
11/12/2012
49.07
49.88
48.93
49.55
2,594,520
11/09/2012
48.4
49.83
48.1
49.05
3,849,376
11/08/2012
49.31
49.58
48.7
48.88
4,796,378
11/07/2012
49.44
50.11
48.8753
49.55
4,935,584
11/06/2012
50.44
50.83
50.3
50.42
4,338,082
11/05/2012
48.98
50.61
48.84
50.49
5,325,310
11/02/2012
49.88
50.33
49.04
49.2
5,772,609
11/01/2012
47.74
49.79
47.74
49.59
8,070,092
10/31/2012
44.96
47.98
44.96
47.22
7,925,681
10/26/2012
45.46
45.75
44.66
45.12
3,108,879
10/25/2012
45.66
46.17
44.71
45.42
2,964,134
10/24/2012
46.04
46.17
44.91
44.99
3,621,880
10/23/2012
45.51
45.85
44.85
45.55
3,953,389
10/22/2012
46.85
46.99
45.74
46.1
4,846,753
10/19/2012
46.07
46.22
45.3
45.81
5,367,692
10/18/2012
46.52
46.63
46.01
46.51
3,526,801
10/17/2012
46.11
46.77
45.7
46.74
2,963,913
10/16/2012
45.51
46.03
45.35
46
3,104,202
10/15/2012
44.98
45.3
44.36
45.2
3,676,432
10/12/2012
44.66
45.35
44.47
44.97
4,280,402
10/11/2012
45.17
45.45
44.36
44.65
4,047,039
10/10/2012
45.58
46.12
44.68
44.86
6,361,991
10/09/2012
46.8
46.87
46.23
46.29
2,477,914
10/08/2012
46.99
47.12
46.51
46.81
2,862,267
10/05/2012
47.12
47.72
46.98
47.28
3,000,546
10/04/2012
46.66
46.879
46.22
46.66
3,197,644
10/03/2012
46.94
47.14
46.35
46.64
3,663,316
10/02/2012
47.24
47.4225
46.33
46.64
3,656,774
10/01/2012
47.08
47.99
46.85
47.14
4,294,371
09/28/2012
46.73
47.355
46.4
47.27
3,693,532
09/27/2012
46.73
47.14
46.47
47.1
2,632,511
09/26/2012
46.23
46.71
45.76
46.28
3,328,633
09/25/2012
47.63
47.74
46.1657
46.23
3,988,807
09/24/2012
47.72
48.01
47.3266
47.73
2,278,748
09/21/2012
48.13
48.42
47.6
48.13
4,204,181
09/20/2012
48.21
48.21
47.22
47.97
4,714,811
09/19/2012
47.79
49.18
47.26
48.52
5,073,286
09/18/2012
47.54
47.96
47.13
47.65
3,969,654
09/17/2012
47.25
47.41
46.94
47.26
3,345,577
09/14/2012
48.06
48.4
46.97
47.23
6,823,895
09/13/2012
47.64
47.945
46.79
47.82
4,615,200
09/12/2012
47.67
47.96
47.38
47.66
3,104,438
09/11/2012
47.1
47.86
46.8
47.62
3,236,527
09/10/2012
47.19
47.45
46.92
47.12
3,279,981
09/07/2012
47
48.15
46.88
47.43
6,581,539
09/06/2012
44.43
46.6
44.415
46.1
5,719,443
09/05/2012
44.42
44.42
43.7
43.98
2,798,661
09/04/2012
44.75
44.76
43.06
44.22
6,527,946
08/31/2012
44.86
45.08
44.4855
44.72
2,501,682
08/30/2012
45
45.121
44.33
44.5
2,634,070
08/29/2012
45.09
45.51
44.94
45.31
4,110,935
08/28/2012
45.92
46.08
45.53
45.64
2,644,341
08/27/2012
46.41
46.63
45.97
46.17
2,388,011
08/24/2012
45.59
46.67
45.37
46.44
3,700,618
08/23/2012
45.7
46.19
45.5
45.77
2,729,714
08/22/2012
45.55
45.99
45.24
45.9
2,843,351
08/21/2012
46.13
46.77
45.58
45.68
2,718,355
08/20/2012
46.13
46.34
45.66
46.06
2,294,690
08/17/2012
46.14
46.51
45.99
46.36
2,606,845
08/16/2012
45.7
46.25
45.42
46.05
2,892,282
08/15/2012
45.79
45.8
45.34
45.72
3,352,734
08/14/2012
46.07
46.1382
45.25
45.75
5,252,277
08/13/2012
46.02
46.19
45.48
45.94
3,531,013
08/10/2012
45.28
46.18
45.17
46.15
2,582,881
08/09/2012
45.23
45.7
45.2
45.5
2,307,609
08/08/2012
44.43
45.421
44.19
45.35
4,916,120
08/07/2012
44.45
45.1
44.45
44.65
3,086,287
08/06/2012
44.45
44.82
44.21
44.32
3,118,716
