





08/04/2017
175.78
176.12
174.62
176
315,594
08/03/2017
174.97
175.46
172.59
175.4
515,850
08/02/2017
174.1
175.72
173.84
174.97
485,349
08/01/2017
175.15
175.24
172.76
174.36
608,038
07/31/2017
176.63
177.61
174.91
174.97
474,301
07/28/2017
176.27
176.63
174.76
176.37
590,955
07/27/2017
175.96
178.58
173.85
176.02
1,001,241
07/26/2017
177.56
177.82
174.991
175.52
1,145,974
07/25/2017
178.29
178.335
176.12
177.31
528,506
07/24/2017
176.59
179.37
175.77
177.68
479,764
07/21/2017
176.54
178.36
172.73
176.62
1,106,401
07/20/2017
175
180.73
173.51
177.72
1,007,967
07/19/2017
170.39
172.01
170.31
171.96
330,268
07/18/2017
171.79
171.79
169.48
169.87
540,201
07/17/2017
172.18
173.36
171.08
171.98
430,778
07/14/2017
169.5
172.46
168.92
172.11
508,114
07/13/2017
169.71
171.09
168.68
168.99
336,044
07/12/2017
170.39
170.437
169.05
169.49
377,636
07/11/2017
170.11
170.43
168.54
169.66
415,392
07/10/2017
171.5
171.5
169.422
170.04
461,622
07/07/2017
169.06
172.74
168.81
171.51
643,770
07/06/2017
171.14
171.48
168.86
169.06
509,967
07/05/2017
170.53
172.04
170.1
171.33
559,667
07/03/2017
167.33
170.58
167.12
170.58
317,222
06/30/2017
166.61
167.66
166.22
167.08
612,166
06/29/2017
168.04
168.71
164.34
166.05
509,617
06/28/2017
166.77
168.6
166.55
168.04
421,234
06/27/2017
166.34
167.91
165.83
166.03
341,219
06/26/2017
168.35
168.45
165.96
166.41
870,955
06/23/2017
168.72
169.93
167.63
167.88
602,621
06/22/2017
169.5
170.63
168.8
168.84
528,282
06/21/2017
170
171.12
169.11
169.49
440,633
06/20/2017
168.95
172.07
168.95
170.26
563,828
06/19/2017
167.74
169.85
167.01
169.75
497,482
06/16/2017
167.79
168.49
166.4
166.95
1,043,347
06/15/2017
167.53
168.64
166.3
167.93
412,127
06/14/2017
168
169.07
166.45
168.37
1,133,391
06/13/2017
166.82
170.35
165.84
167.79
725,805
06/12/2017
166.16
167.04
165.335
166.93
657,510
06/09/2017
164.16
166.55
163.98
166.29
736,884
06/08/2017
162.63
164.4
161.04
164.32
700,984
06/07/2017
163.78
164
161.51
162.77
627,577
06/06/2017
165.64
166.51
163.62
163.67
582,241
06/05/2017
168.53
168.53
166.05
166.11
346,360
06/02/2017
167.07
170.054
166.38
168.44
536,749
06/01/2017
168.41
168.805
167.02
167.17
554,466
05/31/2017
166.9
168.84
165.1
168.59
640,406
05/30/2017
167.1
167.34
165.04
166.14
802,050
05/26/2017
167.89
168.175
166.03
167.14
640,368
05/25/2017
165.52
168.66
165.4
167.99
553,678
05/24/2017
164.38
165.2
164.09
164.83
439,961
05/23/2017
165.83
166.24
163.82
164.18
580,189
05/22/2017
164.88
166.875
163.695
165.47
861,876
05/19/2017
161.08
163.63
160.83
162.7
752,309
05/18/2017
161.02
161.19
159.43
160.69
837,411
05/17/2017
161.93
162.71
160.96
161.32
621,955
05/16/2017
164.96
165.3284
163.66
163.69
554,840
05/15/2017
165.39
166
164.8674
165.28
530,198
05/12/2017
167.39
167.64
165.28
165.32
309,960
05/11/2017
168.16
168.52
167.13
167.94
289,745
05/10/2017
167.83
168.61
167.11
168.53
452,228
05/09/2017
165.79
167.77
165.71
167.77
749,144
05/08/2017
168.58
168.6
165.92
166
557,484
05/05/2017
168.09
169.22
167.5
169
458,277
05/04/2017
168.82
170.22
167.8
167.99
652,632
05/03/2017
169.09
169.09
167.91
168.39
418,690
05/02/2017
170.08
170.27
168.64
169.21
460,314
05/01/2017
169.97
171.33
169.01
169.77
463,809
04/28/2017
174.65
174.98
171.03
171.77
568,858
04/27/2017
173.56
179.9499
169.36
173.94
674,147
04/26/2017
170.41
172.9
169.63
171.76
643,843
04/25/2017
169.98
171.09
169.27
170.46
457,299
04/24/2017
169.87
170.42
168.87
170.15
652,589
04/21/2017
168.6
169.31
167.35
167.89
677,852
04/20/2017
166.94
168.56
166.4
168.14
254,943
04/19/2017
166.8
167.14
165.96
166.59
541,067
04/18/2017
165.27
166.785
165.27
166.11
447,318
04/17/2017
166.54
167.03
165.76
166.54
591,540
04/13/2017
165.77
167
165.77
166.29
331,962
04/12/2017
167.12
167.2
165.84
166.45
326,813
04/11/2017
166.01
167.27
165.58
167.26
381,623
04/10/2017
165.77
167.05
165.475
166.11
847,151
04/07/2017
164.84
166.15
163.42
165.8
872,812
04/06/2017
162.45
163.135
162.04
162.9
626,341
04/05/2017
164.95
165.56
162.24
162.41
436,646
04/04/2017
164.99
165.79
164
164.74
323,731
04/03/2017
164.81
165.83
164.22
164.88
476,647
03/31/2017
166.02
166.56
164.57
165.29
570,946
03/30/2017
166.77
167.224
166.07
166.66
416,836
03/29/2017
166.42
167.06
165.71
166.81
397,136
03/28/2017
164.85
167.2899
164.4
166.7
326,894
03/27/2017
164.97
165.61
163.2
165.27
414,622
03/24/2017
168.09
169.56
166.38
166.92
498,371
03/23/2017
168.85
169.84
167.93
168.26
663,724
03/22/2017
167.24
169.72
166.78
169.12
618,127
03/21/2017
168.34
168.34
166.93
167.25
775,187
03/20/2017
169.58
170.04
167.67
168
772,460
03/17/2017
168.46
170.43
168.16
169.46
706,434
03/16/2017
170.49
170.88
167.4
167.87
351,905
03/15/2017
170.49
171.02
169.97
170.37
391,655
03/14/2017
169.27
170.41
168.56
170.35
252,155
03/13/2017
170.32
170.55
169.35
170.27
263,013
03/10/2017
170.44
170.94
169.51
170.32
545,326
03/09/2017
167.75
169.89
167.75
169.81
582,781
03/08/2017
169.3
169.71
167.21
167.55
486,588
03/07/2017
168.12
169.58
168.12
169.07
535,612
03/06/2017
167.09
168.86
166.8009
168.35
529,800
03/03/2017
167.58
168.7
167.3101
167.55
333,178
03/02/2017
171.24
171.24
167.6
167.62
505,062
03/01/2017
169.43
171.14
169.1454
170.81
507,592
02/28/2017
168.9
169.14
167.7
168.32
472,838
02/27/2017
166.93
169.29
165.45
168.9
385,446
02/24/2017
165.81
167.14
165.05
167.14
404,954
02/23/2017
169.11
169.11
166.11
166.45
480,775
02/22/2017
168.85
169.2
167.63
169.03
433,348
02/21/2017
167.49
169.41
167.26
168.8
390,675
02/17/2017
168.22
168.72
167.05
168.23
841,312
02/16/2017
168.19
168.52
166.15
168.49
433,096
02/15/2017
166.69
168.3
165.99
168.15
584,244
02/14/2017
165.93
166.87
165.32
165.73
819,689
02/13/2017
164.2
165.86
163.01
165.47
443,753
02/10/2017
161.64
163.46
161.25
163.11
433,656
02/09/2017
160.25
161.68
160.25
161.5
334,185
02/08/2017
160.65
161.43
159.95
160.19
433,503
02/07/2017
161.59
161.889
160.1243
160.75
681,524
02/06/2017
159.58
161.58
159.06
161.01
733,418
02/03/2017
158.38
160.63
157.14
160.12
700,566
02/02/2017
157.48
157.84
156.25
157.3
510,673
02/01/2017
158.85
159.21
157.07
157.61
684,962
01/31/2017
157.02
158.74
154.54
158.69
870,246
01/30/2017
158.29
158.29
156.03
157.13
543,544
01/27/2017
155.99
159.74
155.56
158.41
875,210
01/26/2017
154.04
159.52
153.2
155.65
1,734,251
01/25/2017
150.51
151.09
149.55
150.85
1,084,821
01/24/2017
149.08
150.37
147.82
149.6
730,024
01/23/2017
151.41
151.41
148.76
149.69
455,398
01/20/2017
152.61
152.61
150.34
151.41
515,588
01/19/2017
149.03
152.07
149.03
151.91
650,527
01/18/2017
148.14
149.68
146.88
148.49
566,486
01/17/2017
147.67
148.84
147.13
148.6
530,567
01/13/2017
145.91
149.33
145.54
148.89
646,830
01/12/2017
146.35
149.36
143.54
145.71
624,321
01/11/2017
151.03
151.03
146.875
147.5
883,485
01/10/2017
152.86
153.1
150.76
150.96
511,872
01/09/2017
154.15
154.15
152.48
152.87
363,685
01/06/2017
152.15
154.43
150.66
154.11
529,261
01/05/2017
151.44
153.7
151.12
152.33
414,805
01/04/2017
152
153.37
151.21
152.23
611,350
01/03/2017
153.04
154.22
151.71
152.29
414,695
12/30/2016
152.97
153.02
151.67
152.11
317,327
12/29/2016
152.03
153.19
151.96
152.97
259,636
12/28/2016
153.18
153.22
151.4
151.71
344,144
12/27/2016
153.78
153.8014
151.935
153.14
261,639
12/23/2016
153.48
154.28
152.57
153.15
256,671
12/22/2016
154.29
154.29
152.4
153.8
427,677
12/21/2016
155.92
156.21
154
154.01
378,326
12/20/2016
155
157.33
154.525
156.08
423,365
12/19/2016
158.1
158.2299
154.76
155.25
646,513
12/16/2016
158.2
158.41
156.63
157.35
853,479
12/15/2016
157.59
158.53
156.8844
158.08
534,579
12/14/2016
158.32
159.5
157.89
158.05
504,534
12/13/2016
158.27
159.5399
156.95
158.16
478,105
12/12/2016
156.89
158.16
153.5
158.06
957,277
12/09/2016
158.46
159.31
158.005
158.45
676,711
12/08/2016
158.8
160.19
158.13
158.31
803,178
12/07/2016
159.1
161.91
158.5
161.56
910,603
12/06/2016
157.96
159.01
157.22
158.46
615,992
12/05/2016
158.5
159.22
157.09
158.46
947,463
12/02/2016
157.44
157.9
156.64
157.23
511,958
12/01/2016
157.69
160.085
156.93
157.49
615,723
11/30/2016
158.61
159.66
156.96
157.77
578,360
11/29/2016
156.6
158.86
155.83
158.63
474,521
11/28/2016
156
157.143
155.57
156.52
487,752
11/25/2016
155.42
156.65
155.13
156.36
232,870
11/23/2016
151.81
155.04
151.81
154.99
470,473
11/22/2016
152.72
152.99
151.37
152.06
453,199
11/21/2016
152.69
153.04
151.79
152.11
428,495
11/18/2016
149.44
152.28
149.36
152.2
530,995
11/17/2016
150.72
150.74
149.37
149.97
420,293
11/16/2016
151.26
151.5
149.21
150.36
447,776
11/15/2016
153.67
154.44
150.1401
151.5
935,619
11/14/2016
150.9
154.57
150.13
153.93
1,183,875
11/11/2016
150.15
151.35
148.75
150.93
832,835
11/10/2016
150.83
152.05
148.83
150.62
946,680
11/09/2016
140.68
150.37
140.22
148.35
1,664,821
11/08/2016
137.37
138.5
136.94
137.73
409,813
11/07/2016
136.28
137.93
135.78
137.59
872,634
11/04/2016
133.99
136.33
133.75
134.59
581,831
11/03/2016
134.86
134.86
132.375
134.05
669,611
11/02/2016
136.56
137.16
134.18
134.86
711,737
11/01/2016
136.84
137.21
135.78
136.43
795,933
10/31/2016
139.99
140
136.79
136.94
1,044,779
10/28/2016
138.75
140.84
138.28
140.1
1,228,105
10/27/2016
145.56
145.56
135.2
137.75
2,560,209
10/26/2016
147.73
149.51
146.9
148.71
1,023,077
10/25/2016
147.16
148.34
146.03
147.93
368,982
10/24/2016
147.31
147.74
146.68
147.15
249,949
10/21/2016
145.94
146.86
145.29
146.33
293,966
10/20/2016
147.87
148.005
146.27
147.3
346,491
10/19/2016
149.7
149.7
147.9019
148.15
305,739
10/18/2016
149.26
149.835
148.44
149.22
211,014
10/17/2016
148.78
149.38
148.12
148.22
289,580
10/14/2016
149.93
150.42
148.38
148.54
424,914
10/13/2016
148.75
149.51
147.81
149.05
477,841
10/12/2016
149.49
149.92
148.76
149.16
531,149
10/11/2016
150.46
151.44
148.71
149.56
386,276
10/10/2016
150.67
152.83
150.67
151.05
360,448
10/07/2016
151.81
151.99
149.6
151.6
582,268
10/06/2016
150.56
152.6
149.98
152.54
654,749
10/05/2016
150.36
151.06
149.6
150.45
295,015
10/04/2016
151.12
152.19
149.78
150.17
546,070
10/03/2016
150.35
151.52
149.44
151.03
570,680
09/30/2016
151.25
151.63
149.05
150.73
550,812
09/29/2016
153.22
154.08
150.01
150.75
796,170
09/28/2016
153.06
153.92
152.82
153.61
580,894
09/27/2016
150.95
152.66
150.18
152.49
477,320
09/26/2016
149.71
152
148.96
150.65
394,613
09/23/2016
149.81
150.5
148.91
150.08
277,572
09/22/2016
150.27
150.605
149.13
150.08
333,494
09/21/2016
147.16
149.73
147.16
149.71
287,212
09/20/2016
147.99
148.56
146.67
147.09
388,482
09/19/2016
146.9
148.08
146.72
147.32
260,852
09/16/2016
146.95
147.34
146.07
146.78
453,450
09/15/2016
145.84
147.89
145.69
147.59
254,707
09/14/2016
146.35
147.73
145.4
145.93
364,595
09/13/2016
148.21
148.48
146.31
146.64
323,127
09/12/2016
146.68
149.43
146.45
148.95
369,718
09/09/2016
148.71
149.29
146.94
147.01
490,427
09/08/2016
149.57
150.52
149.1
150.11
268,251
09/07/2016
151.04
151.25
149.9203
150.22
238,211
09/06/2016
150.85
151.4925
149.72
151.38
476,167
09/02/2016
149.63
150.69
149.3301
149.89
324,685
09/01/2016
148.73
149.5
147.76
149.34
336,215
08/31/2016
148.6
149.11
147.53
148.82
404,869
08/30/2016
149.19
149.19
148.025
148.62
234,210
08/29/2016
148.54
149.53
148.25
149.13
445,665
08/26/2016
149
149.51
147.42
148.24
372,742
08/25/2016
147.61
149.84
146.8
148.38
645,967
08/24/2016
146.91
147.42
146.12
146.78
493,490
08/23/2016
149.48
149.48
147.02
147.08
709,043
08/22/2016
149.22
149.22
148.33
148.96
490,742
08/19/2016
150.1
150.57
148.78
148.84
1,618,544
08/18/2016
149.64
150.61
149.41
150.58
474,449
08/17/2016
148.14
149.51
147.7105
149.4
642,552
08/16/2016
149.7
150.67
147.535
148.16
658,968
08/15/2016
148.15
151.34
148.15
150.37
913,339
08/12/2016
149.13
149.36
147.9401
148.21
675,050
08/11/2016
150.99
151.2
148.98
149.04
669,294
08/10/2016
150.08
151
149.96
150.75
830,711
08/09/2016
150.34
150.76
149.77
150.01
419,110
08/08/2016
150.8
151.28
149.52
149.97
330,242
08/05/2016
150.93
152.16
150.66
151
310,550
08/04/2016
150.3
152
150
150.51
261,272
08/03/2016
150.49
150.57
148.76
150.12
610,235
08/02/2016
151.05
151.16
149.43
150.26
524,789
08/01/2016
151.16
151.99
150.46
151.51
615,339
07/29/2016
149.57
151.99
148.571
151.63
621,314
07/28/2016
148.25
154.5
148.25
149.84
848,947
07/27/2016
147.9
148.85
146.79
147.44
787,990
07/26/2016
147.66
148.43
147.01
147.97
288,398
07/25/2016
147.95
147.95
146.63
147.45
148,341
07/22/2016
147.37
148.2
146.41
148.05
288,237
07/21/2016
149.25
149.59
147.35
147.8
299,264
07/20/2016
149.59
149.84
148.83
149.25
218,094
07/19/2016
148.96
151.4
148.16
149.47
554,476
07/18/2016
149.99
150.14
148.65
149.02
416,962
07/15/2016
149.28
150.1399
148.17
149.79
433,018
07/14/2016
150.24
150.39
148.64
148.79
302,092
07/13/2016
149.4
149.87
148.88
149.28
244,241
07/12/2016
149.84
149.98
148.49
149.39
467,388
07/11/2016
149.3
150.89
148.92
149.03
698,252
07/08/2016
147.43
150.03
147.36
149.72
416,850
07/07/2016
150.25
150.25
146.37
146.8
752,660
07/06/2016
147.54
150.77
146.61
150.28
970,992
07/05/2016
146.23
147.24
146.15
147.23
680,032
07/01/2016
147.03
147.59
145.7029
146.75
381,679
06/30/2016
143.8
146.7
143.56
146.69
528,243
06/29/2016
141.77
143.64
141.65
143.32
378,751
06/28/2016
140.84
141.3
139.28
141.24
629,107
06/27/2016
140.96
141.07
138.57
140.11
1,210,835
06/24/2016
140.51
144.17
139.21
141.39
1,013,646
06/23/2016
145.33
145.33
143.63
144.32
289,445
06/22/2016
144.06
144.9999
143.6624
143.86
580,804
06/21/2016
143.42
144.04
143.13
143.73
717,761
06/20/2016
145.31
145.84
143.21
143.37
898,005
06/17/2016
144.75
144.75
142.67
143.7
644,999
06/16/2016
145.12
145.505
143.4
144.57
779,872
06/15/2016
146.14
146.4999
145.015
145.49
410,020
06/14/2016
145.13
145.99
144.4
145.78
518,204
06/13/2016
146.12
146.74
144.88
144.97
429,231
06/10/2016
146.89
147.61
146.02
146.2
728,363
06/09/2016
146.25
148.005
146.12
147.9
520,074
06/08/2016
144.25
146.99
143.5
146.91
841,275
06/07/2016
142.03
145.22
141.64
144.3
998,042
06/06/2016
141.96
142.84
141.2
141.55
650,475
06/03/2016
139.29
142.2
138.54
141.97
670,751
06/02/2016
138.85
140.56
138.53
139.86
696,187
06/01/2016
136.69
138.56
136.17
138.28
413,161
05/31/2016
137.95
138
136.61
137.21
421,812
05/27/2016
137.8
138.29
137.225
137.89
322,892
05/26/2016
137.74
138.54
137.71
137.79
528,500
05/25/2016
138.67
139.13
137.79
137.81
587,633
05/24/2016
138.53
138.9
138.03
138.34
592,217
05/23/2016
138.18
138.31
137.5816
137.94
567,904
05/20/2016
137.86
138.64
137.15
138.2
644,929
05/19/2016
137.24
138
136.38
136.85
570,484
05/18/2016
136.03
137.38
135.62
136.61
473,403
05/17/2016
136.01
136.98
135.61
136.48
647,694
05/16/2016
134.4
136.6
133.9
136.25
356,128
05/13/2016
135.05
135.48
133.9
134.51
446,377
05/12/2016
136.11
136.58
135.33
135.78
681,774
05/11/2016
137.06
137.84
135.81
135.88
482,038
05/10/2016
136.59
137.6
136.15
137.25
569,523
05/09/2016
136.59
137
135.87
135.93
711,114
05/06/2016
135.34
136.66
134.82
136.59
788,937
05/05/2016
134.34
135.79
134.07
135.75
1,118,621
05/04/2016
133.42
134.635
133.08
134.36
1,124,576
05/03/2016
132.5
134.37
132
134
684,072
05/02/2016
132.61
134.5675
132.61
133.54
884,871
04/29/2016
130.58
131.87
129.9
131.53
695,658
04/28/2016
129.9
132.63
128.66
130.84
1,104,509
04/27/2016
126.44
131.54
126.44
130.88
1,458,033
04/26/2016
124.02
125
123.455
124.82
1,126,168
04/25/2016
123.5
124.45
123.13
123.85
391,796
04/22/2016
122.99
124.66
122.235
124.03
615,352
04/21/2016
123.4
124.12
122.58
122.83
329,948
04/20/2016
123.37
124.44
122.48
123.56
1,020,483
04/19/2016
122.6
123.3
121.94
123.21
641,667
04/18/2016
120.3
123.27
120.01
122.5
1,243,082
04/15/2016
119.44
121.08
119.17
120.5
1,171,464
04/14/2016
119.9
120.35
118.605
119.9
1,913,249
04/13/2016
120.42
120.66
119.44
120.09
430,049
04/12/2016
119.36
120.37
119.36
119.83
454,712
04/11/2016
119.77
120.51
119.33
119.34
334,853
04/08/2016
119.67
120.695
119.23
119.41
352,926
04/07/2016
119.66
120.32
118.15
119.03
582,110
04/06/2016
118.93
120.57
118.67
120.24
421,611
04/05/2016
118.83
119.94
118.36
119.12
536,917
04/04/2016
118.27
119.86
118.03
119.4
539,895
04/01/2016
117.9
119.02
116.97
118.54
756,193
03/31/2016
120.34
120.61
118.29
118.5
929,052
03/30/2016
119.53
120.9
119.262
120.01
401,804
03/29/2016
118.25
119.1
117.5
118.97
416,006
03/28/2016
118.66
119.27
117.23
118.69
380,724
03/24/2016
118.71
119.11
117.564
118.42
488,522
03/23/2016
119.32
120.85
119.32
119.58
533,331
03/22/2016
118.5
119.9
117.81
119.38
1,248,472
03/21/2016
118.29
119.57
117.94
118.79
479,404
03/18/2016
118.13
119.52
117.735
118.74
850,714
03/17/2016
118.3
118.59
117.51
117.99
507,376
03/16/2016
117.66
118.37
116.7
117.93
407,141
03/15/2016
116.95
118.275
116.81
117.82
432,725
03/14/2016
118.55
119.06
116.37
117.85
271,533
03/11/2016
118.34
119.74
117.6325
119.09
567,449
03/10/2016
118.07
118.985
115.75
117
644,265
03/09/2016
118.74
119.42
117.36
117.59
465,417
03/08/2016
117.66
119
116.55
117.91
459,504
03/07/2016
119.07
119.92
116.89
118.01
567,137
03/04/2016
120.23
120.7599
119.02
119.5
535,799
03/03/2016
119.74
120.6
118.45
120.55
536,520
03/02/2016
118.8
119.82
118.37
119.47
561,428
03/01/2016
117.77
119.33
117.38
118.91
622,751
02/29/2016
118.84
119.52
117.29
117.31
591,780
02/26/2016
118.96
119.86
118.66
118.92
395,923
02/25/2016
117.68
119.24
117.6
119.19
318,469
02/24/2016
117.19
118.22
116.38
117.92
309,756
02/23/2016
118.22
119.39
116.4
117.8
373,389
02/22/2016
117.83
119.93
117.83
118.61
533,202
02/19/2016
117.36
117.69
116.235
117.56
508,433
02/18/2016
117.54
118.87
116.45
117.43
485,364
02/17/2016
117.25
118.37
116.38
117.14
595,594
02/16/2016
117.04
117.04
115.17
116.2
572,827
02/12/2016
115.19
115.96
113.98
115.33
416,040
02/11/2016
115.89
116.386
112.45
114.73
484,033
02/10/2016
118.54
119.25
117.56
118.1
349,711
02/09/2016
115.79
119.14
115.79
118.15
608,611
02/08/2016
116.14
117.28
115.61
117.2
699,167
02/05/2016
117.54
117.95
116.72
117.58
768,135
02/04/2016
117.57
118.45
116.89
117.39
543,065
02/03/2016
117.82
118.21
115.8
117.57
655,404
02/02/2016
116.65
117.52
116.17
116.75
657,600
02/01/2016
118.37
118.73
117.0301
117.59
854,804
01/29/2016
112.84
116.87
112.7
116.84
1,069,827
01/28/2016
112.5
114.57
110.26
111.98
864,300
01/27/2016
110.99
112.1
109.89
110.21
755,544
01/26/2016
110.17
112.253
110.17
111.92
427,339
01/25/2016
111.56
111.84
110.14
110.27
347,462
01/22/2016
109.89
111.6
109.89
111.56
422,400
01/21/2016
108.37
110.1
107.92
108.85
690,009
01/20/2016
108.35
108.96
105.88
108.05
632,046
01/19/2016
112.97
113.055
109.65
109.87
697,649
01/15/2016
110.61
112.5
109.9
111.69
607,572
01/14/2016
114.24
114.71
112.75
113.55
491,577
01/13/2016
117.57
117.77
113.37
114.18
494,000
01/12/2016
116.7
117.38
114.85
116.94
460,081
01/11/2016
115.09
116.45
114.625
115.89
437,130
01/08/2016
116.06
117.276
114.26
114.55
746,207
01/07/2016
115.05
117.56
114.93
115.68
573,606
01/06/2016
118.31
119.32
116.49
117.48
502,640
01/05/2016
117.6
120.115
117.6
119.6
555,291
01/04/2016
117.85
117.85
115.96
117.28
474,407
12/31/2015
120.26
120.736
119.12
119.51
290,300
12/30/2015
120.78
121.68
120.3
120.94
302,713
12/29/2015
120.05
121.27
119.94
120.72
270,399
12/28/2015
119.71
119.71
118.05
119.38
316,082
12/24/2015
119.61
120.45
119.07
119.95
123,490
12/23/2015
118.98
119.89
118.13
119.72
872,456
12/22/2015
117.93
119.12
117.58
118.48
432,243
12/21/2015
117.71
118.6599
116.76
117.26
512,719
12/18/2015
117.58
117.78
116.43
116.56
1,027,574
12/17/2015
120.99
121.24
117.53
117.65
658,289
12/16/2015
120.33
121.288
119.0901
120.77
461,108
12/15/2015
119.86
121.3
119.17
119.48
465,670
12/14/2015
119.55
119.89
117.94
119.51
670,855
12/11/2015
119.77
120.49
118.93
119.26
560,919
12/10/2015
120.57
121.97
119.84
121.19
538,861
12/09/2015
123.5
124.44
119.9296
120.61
737,318
12/08/2015
124.27
125.23
123.41
124.21
823,037
12/07/2015
123.81
125.695
123.81
125.47
815,706
12/04/2015
121.21
124.82
121.02
124.01
1,175,495
12/03/2015
122.56
122.9
120.08
120.74
482,083
12/02/2015
122.93
123.49
122
122.36
466,227
12/01/2015
123.3
123.9
122.18
122.96
625,233
11/30/2015
124.6
124.6
122.03
122.41
695,183
11/27/2015
123.6
124.86
123.59
124.47
152,501
11/25/2015
124.48
126.62
123.06
123.57
482,091
11/24/2015
125.63
125.93
118.29
124.61
2,009,842
11/23/2015
126.12
126.6
125.72
126.02
407,327
11/20/2015
126.04
126.93
125.835
126.35
496,059
11/19/2015
125.53
126.2
124.42
125.36
519,215
11/18/2015
124.68
125.96
124.21
125.16
679,091
11/17/2015
124.05
124.845
123.045
124.42
878,082
11/16/2015
118.96
123.95
118.96
123.65
1,149,275
11/13/2015
118.68
119.63
118.25
118.41
481,048
11/12/2015
119.07
119.59
118.37
118.85
820,086
11/11/2015
120.23
121.5
119.96
120.17
478,442
11/10/2015
120.3
121
119.05
119.89
486,244
11/09/2015
121.45
121.68
119.925
120.68
388,236
11/06/2015
122.46
122.98
120.47
122.09
707,155
11/05/2015
123.13
123.75
122.42
122.93
709,207
11/04/2015
123.94
124.495
122.6
123.04
876,024
11/03/2015
123.8
124.73
123.28
123.72
870,000
11/02/2015
126.4
127.47
123.07
124.23
1,327,030
10/30/2015
127.43
128.77
126.36
126.4
1,360,153
10/29/2015
123.79
131.36
120.93
128.4
2,192,290
10/28/2015
116.85
126.23
116.84
125.59
1,869,702
10/27/2015
114.46
115.22
114.2344
114.55
419,963
10/26/2015
114.99
115.31
114.36
115.04
256,749
10/23/2015
114.42
115.13
113.45
114.84
341,181
10/22/2015
112.18
114.7
112.08
114.01
365,763
10/21/2015
111.45
112.73
111.31
111.35
435,044
10/20/2015
109.76
111.07
108.2101
110.66
461,203
10/19/2015
109.94
110.14
109.59
109.93
658,559
10/16/2015
110.82
111.14
110.04
110.34
434,691
10/15/2015
110.23
110.7
108.91
110.34
592,227
10/14/2015
111.45
111.93
108.81
109.5
367,774
10/13/2015
112.59
113.27
111.44
111.48
450,134
10/12/2015
113.56
113.85
113.07
113.58
330,717
10/09/2015
113.12
114.35
112.64
113.68
433,461
10/08/2015
110.14
113.19
110.14
112.83
478,645
10/07/2015
108.13
110.56
108.13
110.44
758,885
10/06/2015
106.97
108.58
106.89
107.64
608,486
10/05/2015
106.14
107.21
106.14
107.13
438,883
10/02/2015
102.76
105.29
102.4
105.26
411,331
10/01/2015
104.34
105
102.7404
103.99
379,966
09/30/2015
103.25
104.58
103.07
104.52
498,083
09/29/2015
101.79
103.15
101.13
102.08
526,184
09/28/2015
103.46
103.82
101.84
101.9
589,082
09/25/2015
104.89
105.165
103.47
104.27
705,487
09/24/2015
103.4
104.67
102.56
104.34
602,562
09/23/2015
106.3
106.95
103.84
104.44
472,459
09/22/2015
106.56
106.822
105.47
105.99
388,357
09/21/2015
107.41
108.7
107.16
107.94
581,753
09/18/2015
106.77
107.93
106.11
106.89
843,309
09/17/2015
107.76
109.85
107.57
108.08
847,927
09/16/2015
107.65
107.87
106.42
107.65
498,591
09/15/2015
106.02
107.97
105.75
107.51
353,938
09/14/2015
105.58
106.01
105.08
105.84
455,637
09/11/2015
105.55
106.17
105.13
105.61
454,639
09/10/2015
105.63
106.59
104.262
105.84
382,522
09/09/2015
108.04
108.28
105.71
105.94
588,739
09/08/2015
104.94
107.05
104.86
107.02
1,088,598
09/04/2015
104.73
105.32
104.22
104.63
414,405
09/03/2015
106.23
107.57
105.88
106.32
334,205
09/02/2015
103.85
105.95
103.82
105.95
377,461
09/01/2015
103.78
104.22
102.69
103.07
598,592
08/31/2015
106.59
106.8
105.19
105.47
559,521
08/28/2015
106.77
107.17
106.25
106.97
528,866
08/27/2015
108.07
108.84
105.18
107.12
1,008,752
08/26/2015
106.42
107.295
103.83
107.12
736,646
08/25/2015
106.87
107.79
104.24
104.37
861,534
08/24/2015
101.11
108.43
101.11
105.66
1,151,859
08/21/2015
110.29
110.85
108.43
108.5
645,321
08/20/2015
112.72
112.96
111.55
111.63
496,760
08/19/2015
114.22
114.94
113.4
113.78
525,333
08/18/2015
115.37
115.64
114.81
115.05
439,938
08/17/2015
115.02
115.906
114.84
115.79
350,152
08/14/2015
115.65
116.16
114.38
115.43
675,187
08/13/2015
114.98
116.26
114.37
115.55
697,706
08/12/2015
114.3
116.005
113.76
115.54
793,640
08/11/2015
115.26
115.75
114.69
115.63
670,503
08/10/2015
116.18
117.36
115.72
116.34
925,232
08/07/2015
115.4
116.08
114.1
115.27
593,289
08/06/2015
115.59
116.06
114.56
115.71
702,787
08/05/2015
115.08
116.32
115.01
115.55
903,432
08/04/2015
114.32
115.53
113.58
114.76
478,990
08/03/2015
115.39
115.81
113.49
114.41
1,034,967
07/31/2015
114.43
117.5
113.34
115.46
1,287,446
07/30/2015
118.28
118.48
113.31
114.75
2,723,157
07/29/2015
122
124.404
121.37
124.04
722,725
07/28/2015
120.5
121.99
120.06
121.58
529,427
07/27/2015
120.38
120.485
119.54
120.19
466,334
07/24/2015
121.64
121.68
120.3
120.65
349,828
07/23/2015
122.04
122.98
121.71
121.93
496,962
07/22/2015
121.7
122.03
121.129
121.75
579,686
07/21/2015
122.43
122.59
121.47
121.75
682,663
07/20/2015
122.89
123.03
122.46
122.8
472,627
07/17/2015
122.73
123.08
122.46
122.67
485,316
07/16/2015
122.57
123.32
122.038
123.29
572,173
07/15/2015
121.76
122.11
121.24
122.05
509,215
07/14/2015
121.18
121.94
120.54
121.66
528,751
07/13/2015
121.07
121.34
120.542
121.05
663,499
07/10/2015
119.08
120.62
118.72
120.22
651,195
07/09/2015
118.2
118.54
117.59
117.59
765,632
07/08/2015
117.37
118.54
117.14
117.21
884,440
07/07/2015
116.44
118.32
115.26
118.24
809,913
07/06/2015
114.75
116.06
113.78
116.01
596,662
07/02/2015
116.13
116.46
115.63
115.74
681,914
07/01/2015
114.63
115.9
114.47
115.85
539,334
06/30/2015
114.25
114.31
113.01
113.38
535,613
06/29/2015
113.88
114.76
113.21
113.28
509,917
06/26/2015
114.7
114.875
114.295
114.7
492,330
06/25/2015
115.75
115.75
114.19
114.28
394,088
06/24/2015
116.71
116.72
115.55
115.73
409,130
06/23/2015
117.22
117.53
116.2301
116.71
412,976
06/22/2015
117.3
117.58
116.48
117.4
304,549
06/19/2015
117.52
117.58
116.42
116.77
476,859
06/18/2015
116.72
118.11
116.36
117.63
435,980
06/17/2015
115.99
117.1099
115.29
116.44
485,945
06/16/2015
115.21
116.04
114.86
115.73
347,081
06/15/2015
115.37
116.265
114.78
115.49
361,242
06/12/2015
116.19
116.76
115.37
116.55
402,265
06/11/2015
115.92
117.31
115.79
117.2
523,043
06/10/2015
114.17
116.12
114.13
115.84
513,154
06/09/2015
114.91
115.18
114.03
114.11
530,751
06/08/2015
115.53
115.99
115.06
115.1
484,799
06/05/2015
116.26
116.84
115.11
115.75
692,431
06/04/2015
117.83
118.5
116.79
116.84
766,118
06/03/2015
118.34
119.14
117.6
118.46
727,037
06/02/2015
117.53
118.2
116.66
117.59
464,608
06/01/2015
117.9
118.72
117.0801
117.92
521,837
05/29/2015
118.42
118.6
117.19
117.81
575,478
05/28/2015
118.5
118.8
117.8
118.21
600,911
05/27/2015
118.17
118.78
117.63
118.61
542,389
05/26/2015
119.18
119.24
117.39
117.73
486,743
05/22/2015
120.63
120.9
119.21
119.52
657,958
05/21/2015
121.23
122.14
121.006
121.11
525,903
05/20/2015
120.73
121.92
120.11
121.05
654,681
05/19/2015
120.1
121.05
119.81
120.52
451,266
05/18/2015
119.6
120.42
119.51
120.23
316,778
05/15/2015
119.97
120.215
119.21
119.56
514,362
05/14/2015
118.6
120.01
118.35
119.97
623,772
05/13/2015
117.23
118.62
116.81
118.42
944,280
05/12/2015
115.88
117.08
115.35
116.77
689,032
05/11/2015
116.17
117.34
115.83
116.64
599,923
05/08/2015
115.79
116.96
115.79
116.45
470,308
05/07/2015
113.47
115.29
113.05
114.9
677,625
05/06/2015
113.68
114.13
112.74
113.88
548,285
05/05/2015
115.07
115.25
112.88
113.38
755,060
05/04/2015
114.32
115.97
114.32
115.2
550,888
05/01/2015
115
115.48
112.72
114.52
1,351,283
04/30/2015
119.63
121.4934
113.74
114.91
1,421,320
04/29/2015
122.07
122.85
121.2363
121.65
574,914
04/28/2015
121.62
122.62
121.0601
122.59
349,279
04/27/2015
123.56
123.81
121.69
121.89
459,876
04/24/2015
123.75
124.04
122.73
123.37
278,348
04/23/2015
123.64
124.58
123.21
123.74
397,114
04/22/2015
123.25
124.03
122.41
123.83
292,478
04/21/2015
124.4
124.62
122.84
123.32
355,052
04/20/2015
122.78
124.14
122.78
123.69
278,464
04/17/2015
123.35
123.62
122.08
122.44
550,576
04/16/2015
123.5
124.79
123.05
124.42
490,096
04/15/2015
124.17
124.9
123.5
123.64
407,789
04/14/2015
124.24
124.86
122.98
123.96
367,608
04/13/2015
125.55
126.28
124.38
124.58
382,552
04/10/2015
126.07
126.61
125.33
126.04
323,562
04/09/2015
126.33
126.94
125.37
125.81
431,680
04/08/2015
125.47
126.9
125.39
126.31
399,280
04/07/2015
125.73
127.34
125.37
125.37
455,113
04/06/2015
124.59
126.37
124.3
125.73
404,719
04/02/2015
125.41
126.62
124.89
124.99
401,003
04/01/2015
124.92
125.82
123.38
125.29
697,294
03/31/2015
126.17
126.57
125.1575
125.79
434,091
03/30/2015
125.88
127.19
125.88
126.69
755,234
03/27/2015
125.21
125.93
124.76
125.23
541,291
03/26/2015
123.92
125.46
123.4
125.17
561,029
03/25/2015
127.74
127.74
124.64
124.64
905,341
03/24/2015
127.34
128.54
126.84
127.19
654,204
03/23/2015
128.86
129.5
127.6
127.67
537,871
03/20/2015
127.39
129
126.9
128.61
1,386,846
03/19/2015
126.82
127.325
126.28
126.77
547,937
03/18/2015
126.85
127.96
124.63
127.11
795,624
03/17/2015
126.48
127.39
126.25
127.02
374,251
03/16/2015
125.13
127.129
125.08
126.99
487,539
03/13/2015
125.55
126.52
123.665
124.89
449,271
03/12/2015
125.52
126.53
125.01
125.63
443,379
03/11/2015
125.83
126.425
124.49
125.08
751,035
03/10/2015
125.19
125.57
123.8404
123.87
468,534
03/09/2015
125.51
126.96
125.35
126.28
372,714
03/06/2015
126.36
127.03
124.8
125.3
485,447
03/05/2015
127.44
128.07
127.01
127.26
357,792
03/04/2015
128.75
128.75
127.53
127.91
521,699
03/03/2015
130.42
130.86
128.07
128.83
620,812
03/02/2015
129.32
131.28
129.1231
131.26
483,380
02/27/2015
130.64
130.815
129.36
129.43
446,198
02/26/2015
130.54
131.86
130.35
130.75
874,268
02/25/2015
132.24
132.3
130.75
131.08
728,437
02/24/2015
130.71
132.7
130.52
132.44
560,894
02/23/2015
130.22
132.23
129.07
131.95
658,557
02/20/2015
130.82
132.92
130.1
132.87
524,574
02/19/2015
129.64
131.21
129.05
131.18
616,949
02/18/2015
129.04
129.59
127.84
129.58
722,755
02/17/2015
129.03
130.03
128.65
129.31
392,578
02/13/2015
129.07
130.03
128.9
129.45
441,421
02/12/2015
129.1
129.61
128.23
129.26
435,450
02/11/2015
128.52
129.48
127.51
128.37
546,761
02/10/2015
128.09
129.07
127.26
128.73
385,852
02/09/2015
128.21
129.52
127.12
127.56
453,258
02/06/2015
128.34
129.96
127.68
128.91
702,068
02/05/2015
127.53
128.58
126.5
127.81
482,292
02/04/2015
126.65
128.12
125.78
127.08
648,939
02/03/2015
124.99
126.99
124.8101
126.92
596,814
02/02/2015
123.34
124.66
121.71
124.43
717,860
01/30/2015
122.04
124.61
120.5507
123.12
1,292,683
01/29/2015
122.39
127.13
121.45
123.06
930,916
01/28/2015
126.61
127.35
124.44
124.59
981,763
01/27/2015
125.95
127.31
125.55
125.71
467,323
01/26/2015
127.42
127.84
126.11
127.77
659,202
01/23/2015
128.28
128.58
127.35
127.74
623,291
01/22/2015
126.18
128.45
126.18
128.25
899,153
01/21/2015
125.67
126.74
124.98
125.8
718,172
01/20/2015
126
127.3
124.17
125.8
641,631
01/16/2015
125.57
126.46
124.64
125.67
1,040,752
01/15/2015
127.08
127.38
125.4801
125.71
645,195
01/14/2015
124.77
126.56
124.63
125.81
618,904
01/13/2015
127
129.48
125.17
126.25
667,300
01/12/2015
127.67
127.79
126.53
126.81
1,027,522
01/09/2015
127.87
127.98
126.14
127.18
861,065
01/08/2015
126.56
128.75
126.52
127.83
1,080,186
01/07/2015
124.57
126.29
124.48
125.71
788,414
01/06/2015
124.17
125.27
122.44
123.64
574,966
01/05/2015
126.23
127.29
124.02
124.13
662,883
01/02/2015
126.99
128.3
125.9
127.49
719,080
12/31/2014
128.4
128.52
126.08
126.21
685,076
12/30/2014
127.41
129.03
126.52
128.09
853,148
12/29/2014
127.84
128.61
127.09
127.76
609,392
12/26/2014
128.49
129.26
127.98
128.22
414,141
12/24/2014
128.27
129.22
128.02
128.34
315,309
12/23/2014
128.23
128.92
127.52
128.27
598,705
12/22/2014
125.5
127.99
125.39
127.51
884,057
12/19/2014
126.66
127.61
125.22
125.35
1,365,279
12/18/2014
123.67
126.09
123.34
126.05
1,056,962
12/17/2014
121.5
122.5
120.79
121.89
1,332,791
12/16/2014
120.57
123.24
119.87
121.09
969,160
12/15/2014
120.44
121.44
119.5032
120.73
814,686
12/12/2014
121.65
122.72
120.1
120.14
859,481
12/11/2014
123.44
124.62
122.52
122.71
774,746
12/10/2014
124.93
125.18
122.53
122.58
722,885
12/09/2014
123.09
125.5
122.68
125.1
837,094
12/08/2014
124.67
125.61
124.13
124.32
645,757
12/05/2014
123.98
125.89
123.98
124.59
826,722
12/04/2014
123.21
123.7797
122.62
123.52
920,720
12/03/2014
123.81
124.22
122.2125
123.08
1,278,054
12/02/2014
123.73
124.2097
123.01
123.52
836,620
12/01/2014
124.3
125.3
123.75
123.9
669,030
11/28/2014
124.68
125.52
124.17
124.6
286,382
11/26/2014
123.82
124.83
123.331
124.41
449,153
11/25/2014
123.8
124.89
122.88
124.02
777,123
11/24/2014
122.89
123.73
122.51
123.48
650,670
11/21/2014
122.98
123.1
121.76
122.29
774,166
11/20/2014
120.15
121.72
120.09
121.37
1,003,182
11/19/2014
120.75
121.27
119.905
120.85
794,606
11/18/2014
119.87
121.63
119.8
120.92
1,469,383
11/17/2014
119.19
120.15
118.88
119.84
816,289
11/14/2014
119.81
120.75
119.09
119.28
716,152
11/13/2014
117.08
119.92
116.9
119.73
945,109
11/12/2014
118.45
118.93
117.12
117.22
1,296,842
11/11/2014
120.13
120.22
118.3
118.7
1,252,952
11/10/2014
121.6
121.6
119.8
120.03
1,650,316
11/07/2014
122.54
123.32
120.94
121.64
781,467
11/06/2014
122.91
123.55
121.66
123.1
821,999
11/05/2014
123.12
123.5
121.92
123.1
755,118
11/04/2014
121.61
123.075
121.61
122.6
921,207
11/03/2014
121.3
122.34
119.725
121.46
961,260
10/31/2014
121.81
122.08
120.2
121.46
1,209,200
10/30/2014
113.32
122.875
111.41
119.85
2,476,478
10/29/2014
117.41
117.81
116.47
117.49
1,192,897
10/28/2014
115.59
117.05
115.35
116.76
626,354
10/27/2014
113.97
115.3
113.73
115.23
548,995
10/24/2014
114.85
114.85
112.8
114.56
537,017
10/23/2014
113.2
115.47
112.26
114.43
905,824
10/22/2014
110.57
113.42
110.57
111.66
992,323
10/21/2014
110.35
111.11
109.73
110.15
1,557,990
10/20/2014
110.03
110.65
108.8
109.55
1,320,800
10/17/2014
110.3
112.4
110.3
110.63
1,032,987
10/16/2014
106.61
110.46
105.94
109.23
848,399
10/15/2014
106.73
110.04
105.14
109.09
1,595,604
10/14/2014
108.74
110.5
107.59
108.27
1,305,931
10/13/2014
116
117.705
109.14
109.25
2,911,140
10/10/2014
107.72
122.68
106.46
115.15
5,234,647
10/09/2014
111.85
112.265
107.92
108.11
1,166,291
10/08/2014
110.77
112.18
109.1
112.06
1,312,958
10/07/2014
112.52
113.6
110.76
110.8
1,297,658
10/06/2014
115.67
116.01
112.98
113.08
1,205,952
10/03/2014
114.11
115.53
113.58
115.09
1,071,474
10/02/2014
115.11
115.49
111.96
113.61
974,507
10/01/2014
118.4
118.4
115.23
115.23
1,191,155
09/30/2014
115.42
119.53
114.92
118.92
2,031,708
09/29/2014
113.47
115.42
112.98
115.26
1,108,866
09/26/2014
109.88
114.83
109.84
114.75
1,384,704
09/25/2014
111.21
111.36
109.63
109.73
708,424
09/24/2014
110.77
111.31
110.14
111.13
708,324
09/23/2014
111.97
112.41
110.57
110.63
994,022
09/22/2014
114.21
114.53
112.55
112.61
775,603
09/19/2014
116.05
116.29
114.02
114.24
1,169,750
09/18/2014
116.48
116.82
115.26
115.49
744,871
09/17/2014
116.58
116.96
115.42
115.99
728,341
09/16/2014
115.8
116.46
115.35
116.13
789,464
09/15/2014
114.57
116.05
113.98
115.82
716,881
09/12/2014
114.5
115.01
113.75
114.78
678,777
09/11/2014
113.37
114.83
112.87
114.81
1,005,385
09/10/2014
111.99
113.66
111.85
113.58
1,014,082
09/09/2014
112.99
113.38
112.085
112.27
854,732
09/08/2014
113.41
114.23
112.87
112.96
714,628
09/05/2014
111.08
112.11
110.44
112.06
592,998
09/04/2014
111.92
113.02
110.73
110.97
1,553,710
09/03/2014
110.67
111.14
109.99
110.15
690,146
09/02/2014
110.2
110.53
109.62
110.19
518,146
08/29/2014
109.63
110.12
109.335
109.95
531,132
08/28/2014
109
109.68
108.85
109.52
491,091
08/27/2014
109.72
110.03
109.15
109.54
563,363
08/26/2014
109.88
110.338
109.36
109.43
468,423
08/25/2014
110.15
110.3
109.36
109.65
515,280
08/22/2014
110.3
110.62
109.57
109.77
459,378
08/21/2014
109.67
110.595
109.28
110.4
733,684
08/20/2014
107.67
109.38
107.25
109.28
947,062
08/19/2014
108.95
109.1597
107.57
107.75
744,142
08/18/2014
106.475
108.48
106.45
108.34
1,032,123
08/15/2014
105.61
106.64
104.79
105.74
1,546,945
08/14/2014
104.9
106.1
104.8
105.5
775,068
08/13/2014
104.38
105.66
104.19
105.55
645,112
08/12/2014
104
104.89
103.64
104.23
1,268,564
08/11/2014
105.06
105.43
104.02
104.12
768,402
08/08/2014
102.02
104.85
102.01
104.75
1,024,856
08/07/2014
102.13
102.57
101.34
101.59
1,140,616
08/06/2014
104.44
104.49
101.185
101.39
1,318,634
08/05/2014
103.84
105.42
103.6
104.83
1,712,207
08/04/2014
107.4
107.4
104.23
104.55
1,635,085
08/01/2014
104.96
108.97
104.612
107.41
2,345,957
07/31/2014
110
112
99.33
104.96
5,484,381
07/30/2014
119.97
120.26
118.61
119.64
694,698
07/29/2014
120.94
121
119.27
119.28
592,666
07/28/2014
120.87
121.49
119.72
120.78
394,685
07/25/2014
121.51
121.85
120.63
120.85
296,098
07/24/2014
122.49
122.49
121.32
121.99
337,388
07/23/2014
122.77
122.9897
121.81
122.38
333,361
07/22/2014
123.03
123.06
122.24
122.85
450,705
07/21/2014
121.58
122.61
121.22
122.43
381,727
07/18/2014
120.89
122
120.74
121.96
405,174
07/17/2014
120.7
122.09
120.59
120.61
519,767
07/16/2014
121.13
121.585
120.64
121.35
552,703
07/15/2014
120.62
121.73
120.38
120.82
567,549
07/14/2014
120.9
121.08
120.23
120.62
443,688
07/11/2014
119.06
120.38
118.73
120.22
454,400
07/10/2014
118.02
119.71
117.91
119.03
468,545
07/09/2014
119.1
119.71
118.45
119.24
520,575
07/08/2014
119.19
119.65
118.34
118.55
570,433
07/07/2014
120.56
120.6
119.2301
119.37
591,953
07/03/2014
120.44
121.12
120.27
120.63
352,763
07/02/2014
120.72
121.65
120.02
120.15
433,233
07/01/2014
120.89
121.52
119.78
121.18
570,829
06/30/2014
121.65
121.65
120.52
120.75
547,548
06/27/2014
120.99
121.41
120.63
121.19
734,011
06/26/2014
121.7
121.7
120.84
121.25
416,265
06/25/2014
120.81
121.75
120.81
121.66
439,320
06/24/2014
122.83
123.32
121.28
121.36
568,974
06/23/2014
123.24
123.85
122.31
122.89
493,327
06/20/2014
124.04
124.8
123.65
123.7
1,145,247
06/19/2014
123.86
124.43
122.3
124.24
715,982
06/18/2014
124.37
124.42
122.931
123.86
922,308
06/17/2014
125.15
125.15
123.4
124.12
936,337
06/16/2014
125.33
125.8
124.62
125.03
920,328
06/13/2014
125.2
125.84
124.76
125.56
796,139
06/12/2014
125.45
126.3
124.62
125.21
789,071
06/11/2014
126
126.18
125.32
125.82
864,887
06/10/2014
126.28
127
125.39
126.13
1,054,714
06/09/2014
125.42
127.27
125.02
126.76
1,022,156
06/06/2014
125
125.84
124.991
125.58
842,571
06/05/2014
123.43
125.05
123.05
124.88
909,655
06/04/2014
122.11
123.12
121.85
123.04
1,041,817
06/03/2014
121.33
122.46
121.07
122.35
1,124,065
06/02/2014
121.09
121.75
120.53
121.63
1,066,915
05/30/2014
120.04
121.24
119.72
121.17
1,061,133
05/29/2014
118.99
120.42
118.72
120.41
928,561
05/28/2014
118.64
119.44
118.54
118.97
866,743
05/27/2014
117.91
118.45
117.32
118.43
804,641
05/23/2014
116.17
117.77
116.01
117.74
949,159
05/22/2014
115
116.25
114.58
116.19
813,726
05/21/2014
115.28
115.73
114.2
115.01
830,535
05/20/2014
114.75
115.2
114.08
114.51
1,006,807
05/19/2014
114.51
115.15
113.7
114.8
1,116,825
05/16/2014
117.3
117.58
114.75
114.87
1,955,849
05/15/2014
116.99
117.425
115.56
116.35
1,960,924
05/14/2014
120.16
120.95
117.7
117.95
2,843,449
05/13/2014
115.97
121.43
115.97
121.06
4,684,100
05/12/2014
115.15
116.07
114.9415
115.85
409,586
05/09/2014
114.63
115.17
113.96
114.55
687,003
05/08/2014
115.58
116.31
114.74
114.89
586,056
05/07/2014
114.2
115.53
113.55
115.41
580,904
05/06/2014
114.15
114.43
113.62
113.8
627,473
05/05/2014
113.84
114.83
113.28
114.33
960,433
05/02/2014
114.44
114.87
113.16
113.38
1,297,908
05/01/2014
115
115.835
113.01
114.68
991,663
04/30/2014
115.47
116.16
114.65
115.37
829,545
04/29/2014
115.67
116.22
114.92
115.59
720,350
04/28/2014
116.01
116.16
113.58
114.69
923,480
04/25/2014
116.29
116.29
114.9
115.27
464,942
04/24/2014
117.79
118.24
115.42
116.46
693,829
04/23/2014
116.99
117.835
116.35
117.5
594,283
04/22/2014
117.91
118.48
116.74
116.75
639,587
04/21/2014
118.14
118.31
117.38
117.84
857,483
04/17/2014
116.9
118.07
116.9
117.73
447,894
04/16/2014
117
117.3
115.88
117.03
574,742
04/15/2014
114.67
116.68
114.15
116.53
754,350
04/14/2014
114.26
115.12
113.4
114.27
602,422
04/11/2014
113.98
114.96
113.54
113.66
681,268
04/10/2014
116.77
116.98
114.02
114.23
713,751
04/09/2014
115.31
116.84
114.96
116.64
1,327,103
04/08/2014
114.92
115.08
113.39
114.73
717,409
04/07/2014
116.5
117.3
114.41
114.96
854,334
04/04/2014
120.31
120.67
116.19
116.34
1,286,478
04/03/2014
119.95
120.15
119.41
119.91
675,506
04/02/2014
119.22
120.26
119.05
120.2
1,298,849
04/01/2014
118.5
119.16
118.04
118.79
991,415
03/31/2014
117.57
118.7
117.52
118.15
1,409,304
03/28/2014
116.73
118.02
116.67
117.41
353,927
03/27/2014
117.42
117.425
116.16
116.51
777,222
03/26/2014
117.07
118.605
117.07
117.27
1,540,022
03/25/2014
116.25
116.9
115.45
116.18
811,589
03/24/2014
116.01
116.38
114.77
115.82
433,235
03/21/2014
117.09
117.09
115.69
116.01
1,367,212
03/20/2014
115.89
117.11
115.89
116.06
501,796
03/19/2014
117.97
117.99
115.47
116.43
531,450
03/18/2014
118
118.8
117.44
117.7
509,295
03/17/2014
115.7
117.41
115.61
117.06
469,679
03/14/2014
114.21
115.99
113.78
115.3
776,097
03/13/2014
115.91
116.23
113.95
114.34
702,765
03/12/2014
114.81
115.5425
114.26
115.46
847,895
03/11/2014
116.52
116.52
114.83
115.07
622,813
03/10/2014
116.5
116.68
115.46
116.19
1,035,368
03/07/2014
117.78
118.23
116.815
117.25
1,084,112
03/06/2014
117.36
117.67
116.88
117.12
1,241,694
03/05/2014
117.49
118.47
116.78
117.16
1,442,763
03/04/2014
116.54
118.16
116.54
117.49
948,358
03/03/2014
114.89
116.46
114.59
116.01
748,509
02/28/2014
113.42
115.9
113.42
115.4
777,205
02/27/2014
112.41
113.87
112.41
113.82
653,582
02/26/2014
114
114.41
113.21
113.98
715,160
02/25/2014
115.53
116
113.63
113.84
1,450,828
02/24/2014
115.24
117.47
115.2
116.3
1,016,297
02/21/2014
115.7
116.49
114.88
115.58
760,185
02/20/2014
113.84
115.9
113.34
115.65
581,342
02/19/2014
114
115.19
113.4
113.67
1,279,109
02/18/2014
113.77
114.95
113.2299
114.82
862,913
02/14/2014
113.19
113.63
112.34
113.5
581,714
02/13/2014
112.73
113.6
112.36
113.08
901,913
02/12/2014
112.45
113.83
112.45
113.12
680,697
02/11/2014
112.75
113.24
112.37
112.54
1,475,296
02/10/2014
112.83
113.04
111.67
112.4
697,102
02/07/2014
111.83
113.95
110.74
113.02
1,292,834
02/06/2014
108.96
109.99
108.91
109.61
484,734
02/05/2014
107.7
109.47
106.9
108.96
825,532
02/04/2014
108.67
108.99
106.67
108.33
1,085,287
02/03/2014
110.25
111.89
108.33
108.62
1,879,551
01/31/2014
104.6
111.59
104.33
111.07
1,910,666
01/30/2014
104.51
105.43
103.42
105.41
1,234,065
01/29/2014
103.49
104.18
102.94
103.72
628,834
01/28/2014
103.79
104.64
103.74
104.47
570,758
01/27/2014
104.41
104.41
102.841
103.71
648,162
01/24/2014
106.79
106.9
104.16
104.17
774,171
01/23/2014
108.49
108.57
107.21
107.71
611,675
01/22/2014
108.69
108.94
107.79
108.62
569,185
01/21/2014
107.58
108.83
107.57
108.34
533,653
01/17/2014
107.04
107.61
106.91
107.57
418,155
01/16/2014
106.67
107.28
106.5
107
304,816
01/15/2014
106.4
107.7
106.34
107.28
438,633
01/14/2014
105.91
106.3768
105.46
106.14
403,270
01/13/2014
106.56
106.94
105.48
105.66
460,340
01/10/2014
106.4
106.69
105.85
106.32
551,775
01/09/2014
106.91
107.4
106.05
106.29
660,895
01/08/2014
104.64
105.71
104.04
105.46
615,270
01/07/2014
104.22
105.56
103.9875
104.74
717,239
01/06/2014
105.66
106.11
105.01
105.58
564,432
01/03/2014
105.13
105.851
105.026
105.38
369,001
01/02/2014
106.07
106.28
104.94
105.08
720,066
12/31/2013
106.87
107.13
106.662
106.86
323,395
12/30/2013
107.39
107.53
106.38
106.78
371,261
12/27/2013
108.6
108.69
107.07
107.12
254,018
12/26/2013
106.84
107.62
106.73
107.13
453,200
12/24/2013
105.82
106.95
105.82
106.73
175,141
12/23/2013
105.65
106.24
105.61
106.03
353,201
12/20/2013
105.09
106.13
104.8
105.49
1,014,556
12/19/2013
104.55
104.9
103.8
104.57
633,623
12/18/2013
102.42
104.9
102.17
104.78
830,859
12/17/2013
103.27
103.46
102.05
102.39
469,554
12/16/2013
102.19
103.4
102.02
103.02
909,205
12/13/2013
101.61
102.35
101.147
102.23
436,579
12/12/2013
100.61
101.5
100.61
101.3
511,466
12/11/2013
102.47
102.75
100.67
100.88
570,101
12/10/2013
101.72
102.46
101.25
102.38
722,471
12/09/2013
101.98
102.232
101.72
101.95
655,847
12/06/2013
101.47
101.96
101.39
101.8
582,151
12/05/2013
101.58
101.67
100.58
100.81
582,480
12/04/2013
102.4
102.65
100.633
101.58
764,393
12/03/2013
102.9
103.526
102.27
102.68
487,299
12/02/2013
103.46
103.77
102.9775
103.19
695,493
11/29/2013
103.5
103.85
103.22
103.46
276,882
11/27/2013
103.27
103.87
102.77
103.48
441,360
11/26/2013
102.5
103.45
102.26
103.01
576,085
11/25/2013
102.45
102.45
101.86
102.37
603,294
11/22/2013
101.87
102.445
101.86
102.34
741,283
11/21/2013
101.78
102.25
101.18
101.86
545,198
11/20/2013
101.78
102.55
101.09
101.36
568,900
11/19/2013
102.63
102.92
101.55
101.78
668,231
11/18/2013
102.31
103.41
102.31
102.86
465,923
11/15/2013
101.94
102.04
101.11
101.95
391,644
11/14/2013
101.53
102.22
100.79
101.96
348,385
11/13/2013
101.02
101.93
100.58
101.87
349,063
11/12/2013
101.41
101.75
100.9985
101.24
401,538
11/11/2013
101.5
101.64
101.15
101.35
394,750
11/08/2013
100.86
101.625
100.78
101.5
607,061
11/07/2013
102.28
102.73
100.79
100.86
600,750
11/06/2013
101.13
102.32
101.13
102.28
620,816
11/05/2013
100.73
101.32
100.26
101.05
676,227
11/04/2013
101
101.24
100.46
100.84
533,385
11/01/2013
100.59
101.45
100.1
100.76
720,386
10/31/2013
99.33
100.89
98.89
100.45
956,484
10/30/2013
98.31
100.5
98.1
99.45
1,392,448
10/29/2013
97.26
98.05
95.59
97.98
1,067,244
10/28/2013
97.18
97.58
96.74
97.1
720,596
10/25/2013
96.25
97.669
95.63
97.53
681,364
10/24/2013
96.05
96.42
95.37
96.29
361,985
10/23/2013
95.13
96
94.56
95.98
574,567
10/22/2013
94.74
95.57
94.45
95
546,105
10/21/2013
94.9
94.974
94.15
94.4
321,026
10/18/2013
95.5
95.5
94.41
94.77
404,931
10/17/2013
93.97
94.55
93.72
94.38
586,267
10/16/2013
94.22
94.44
93.72
94.06
450,057
10/15/2013
94.67
95.5
93.7
93.71
498,862
10/14/2013
93.65
95.16
93.14
94.98
383,812
10/11/2013
93.35
93.97
93.35
93.94
550,348
10/10/2013
92.56
93.56
92.56
93.56
790,352
10/09/2013
92.13
92.45
91.481
91.94
346,013
10/08/2013
92.83
93.44
91.96
91.99
331,401
10/07/2013
92.88
93.29
92.26
92.65
336,802
10/04/2013
92.69
93.04
92.23
92.88
239,308
10/03/2013
93.64
93.93
91.745
92.67
652,438
10/02/2013
94.74
94.855
93.24
93.93
406,757
10/01/2013
94.5
95.39
94.4
95.33
377,141
09/30/2013
94.81
94.89
94.2124
94.5
416,388
09/27/2013
95.25
95.7437
95.01
95.43
244,803
09/26/2013
95.9
96.29
95.51
95.91
432,356
09/25/2013
95.45
96.71
95.26
95.93
766,945
09/24/2013
94.65
95.89
94.51
95.52
427,756
09/23/2013
94.76
95.15
94.06
94.51
436,678
09/20/2013
96.26
96.285
94.88
95.22
710,352
09/19/2013
96.1
96.59
96
96.07
306,564
09/18/2013
96.07
96.32
94.71
96.09
426,987
09/17/2013
95.75
96.06
95.41
95.99
302,085
09/16/2013
95.27
95.98
94.63
95.76
430,756
09/13/2013
93.91
94.34
93.29
94.25
205,766
09/12/2013
94.17
94.75
93.78
93.96
430,822
09/11/2013
92.92
94.18
92.685
94.17
478,912
09/10/2013
92.44
93.24
92.12
92.88
372,142
09/09/2013
91.3
92.14
91.27
92.12
397,853
09/06/2013
91.6
91.63
90.155
91.19
519,485
09/05/2013
91.16
91.67
90.8
91.47
337,398
09/04/2013
90.62
91.5
90.52
91.25
381,949
09/03/2013
91
91.88
90.23
90.56
476,634
08/30/2013
91.26
91.26
90.07
90.33
311,195
08/29/2013
90.89
91.5
90.69
90.98
287,540
08/28/2013
90.71
91.41
90.39
91.09
371,317
08/27/2013
91.7
92.35
90.55
90.72
559,023
08/26/2013
92.59
93.17
92.2
92.27
252,552
08/23/2013
92.45
92.74
92.09
92.65
389,035
08/22/2013
91.49
92.49
91.49
92.3
235,072
08/21/2013
92
92.06
91.31
91.37
393,885
08/20/2013
91.49
92.74
91.49
92.1
417,779
08/19/2013
91.05
92.19
91.04
91.5
394,753
08/16/2013
91.26
92.05
91.15
91.2
654,816
08/15/2013
91.77
92.04
91.09
91.43
474,789
08/14/2013
93.25
93.425
92.53
92.6
545,452
08/13/2013
93.1
93.31
92.2929
93.31
626,560
08/12/2013
92.8
93.19
92.5
92.95
446,742
08/09/2013
93.5
93.71
92.38
92.89
480,173
08/08/2013
92.55
93.95
92.55
93.52
416,846
08/07/2013
92.96
93.55
92.65
93.19
556,345
08/06/2013
93.54
93.7
92.81
93.03
656,976
08/05/2013
94.09
94.14
93.06
93.55
689,408
08/02/2013
93.59
94.32
93.22
94.32
467,191
08/01/2013
94
94.17
93.28
93.53
709,687
07/31/2013
92.84
93.91
92.685
93.15
592,967
07/30/2013
92.5
92.82
91.68
92.54
526,390
07/29/2013
91.4
92.47
90.8
91.95
781,922
07/26/2013
92
92.22
91.55
92.15
819,575
07/25/2013
92.5
92.9
91.27
92.04
923,461
07/24/2013
93.34
93.7475
92.53
92.59
663,337
07/23/2013
92.7
93.26
92.1986
93
965,218
07/22/2013
92.33
92.5
92.04
92.39
425,854
07/19/2013
91.87
92.42
91.68
92.37
522,737
07/18/2013
91.15
92.07
91.02
91.84
380,655
07/17/2013
90.44
91.18
90.44
91.14
485,759
07/16/2013
91.01
91.35
90.22
90.25
755,206
07/15/2013
90.35
90.94
90.05
90.86
413,030
07/12/2013
90.02
90.46
89.18
90.22
794,124
07/11/2013
90.36
90.71
89.92
90.2
560,596
07/10/2013
88.33
89.97
88.29
89.83
796,890
07/09/2013
87.62
88.76
87
88.57
669,053
07/08/2013
87.44
88.15
86.95
86.98
1,159,039
07/05/2013
85.92
87.11
85.92
87.09
219,769
07/03/2013
84.5
85.96
84.5
85.6
211,621
07/02/2013
86.4
86.75
84.65
85.06
559,932
07/01/2013
86.58
87.22
86.09
86.74
392,989
06/28/2013
85.99
86.525
85.501
85.74
486,586
06/27/2013
85.22
86.4
84.93
86.03
355,079
06/26/2013
83.88
84.98
83.47
84.64
320,274
06/25/2013
83.56
83.56
82.6301
83.2
1,045,548
06/24/2013
83.51
83.8
82.6
82.89
517,512
06/21/2013
84.66
84.92
83.78
84.17
554,463
06/20/2013
84.72
85.28
84.07
84.13
486,041
06/19/2013
86.87
86.975
85.28
85.28
363,250
06/18/2013
86.61
87
86.38
86.8
421,523
06/17/2013
86.5
87.04
86.1
86.45
335,127
06/14/2013
85.87
86.45
85.5
86.04
318,332
06/13/2013
85.98
86.56
85.6
85.8
754,918
06/12/2013
86.71
87.38
85.91
85.96
419,069
06/11/2013
85.59
86.62
85.5
86.06
338,649
06/10/2013
86.81
86.95
86.22
86.56
344,957
06/07/2013
85.26
86.88
85.26
86.81
306,740
06/06/2013
84.46
85.24
84.05
85.22
400,219
06/05/2013
85.06
85.39
84.33
84.4
445,981
06/04/2013
86.38
86.842
85.26
85.71
506,520
06/03/2013
85.29
86.58
84.93
86.53
622,386
05/31/2013
86.5
86.69
85.07
85.09
564,369
05/30/2013
85.07
87.23
85.07
86.6
479,705
05/29/2013
84.93
85.2
84.13
84.61
466,325
05/28/2013
85.91
86.18
85.22
85.54
420,770
05/24/2013
84.69
85.32
84.5
85.19
290,991
05/23/2013
85.11
86.02
85
85.07
521,244
05/22/2013
87.42
87.96
85.67
85.81
860,290
05/21/2013
86.85
87.38
86.46
87.37
659,039
05/20/2013
85.44
86.96
85.21
86.76
571,789
05/17/2013
84.77
85.76
84.77
85.55
661,026
05/16/2013
84.89
85.69
84.64
84.77
384,755
05/15/2013
83.71
85.29
83.28
85.09
587,516
05/14/2013
83.85
84.45
83.74
84.27
514,709
05/13/2013
83.74
83.9875
83.52
83.82
326,680
05/10/2013
83.99
84.34
83.4
83.78
444,589
05/09/2013
84.42
84.98
83.9
84.08
494,476
05/08/2013
83.85
84.43
83.76
84.42
417,722
05/07/2013
83.66
84
83.24
83.86
352,624
05/06/2013
82.54
83.95
82.54
83.54
454,290
05/03/2013
82.6
83.7
82.5
83.42
517,612
05/02/2013
81.2
82.3825
81.01
82.31
503,947
05/01/2013
80.98
81.75
80.81
81
550,161
04/30/2013
80.99
81.34
80.8
81.25
496,146
04/29/2013
81.37
81.46
80.61
81.08
539,455
04/26/2013
82.48
82.48
79.63
81.39
483,771
04/25/2013
83
83
81
82.31
867,076
04/24/2013
81.69
83
81.69
82.6
850,509
04/23/2013
81.64
81.95
80.5374
81.35
508,235
04/22/2013
81.5
81.5
80.57
81.27
435,313
04/19/2013
80.49
81.49
80.428
81.38
619,517
04/18/2013
80.36
80.56
79.75
80.19
534,094
04/17/2013
82.05
82.4
80.21
80.31
834,968
04/16/2013
82.14
82.74
81.91
82.68
829,367
04/15/2013
82.12
82.605
81.3
81.58
730,707
04/12/2013
82.95
82.95
81.78
82.45
693,214
04/11/2013
83.5
83.99
83.229
83.3
824,215
04/10/2013
82
83.42
81.76
83.37
569,823
04/09/2013
82
82.32
81.541
81.84
483,734
04/08/2013
81.76
81.83
80.85
81.83
623,615
04/05/2013
80.55
82.44
80.21
82.4
1,088,109
04/04/2013
81.1
82.36
81.04
81.21
644,148
04/03/2013
80.11
81.5
80
81.09
796,693
04/02/2013
80.82
80.82
79.72
80.03
599,417
04/01/2013
80.92
81
80.265
80.45
407,792
03/28/2013
80.29
80.96
79.93
80.92
793,012
03/27/2013
79.7
80.29
79.5
80.16
366,837
03/26/2013
80.13
80.19
79.79
80.09
340,953
03/25/2013
80.75
81.05
79.7
79.82
426,914
03/22/2013
80.35
80.755
80.17
80.43
267,944
03/21/2013
80.73
81.33
80.09
80.29
411,364
03/20/2013
81.32
81.6
81.1
81.21
384,555
03/19/2013
81.06
81.23
80.5
81.03
510,244
03/18/2013
80.54
81.01
80.26
80.67
465,916
03/15/2013
79.82
81.13
79.49
81.13
1,622,716
03/14/2013
78.89
79.74
78.72
79.7
614,940
03/13/2013
77.55
79
77.55
78.77
656,582
03/12/2013
77.28
77.65
77.02
77.42
491,847
03/11/2013
77.06
77.39
76.75
77.31
512,305
03/08/2013
77
77.25
76.57
77.18
572,299
03/07/2013
76.44
76.9999
76.38
76.7
399,684
03/06/2013
77.02
77.03
75.64
76.33
626,860
03/05/2013
75.99
77.01
75.63
76.81
584,184
03/04/2013
76.12
76.4
75.21
75.84
725,160
03/01/2013
76.14
76.72
75.55
76.4
686,233
02/28/2013
76.46
77.15
76.24
76.27
560,454
02/27/2013
75.24
76.59
75.2
76.47
495,392
02/26/2013
75.67
75.99
75.33
75.89
1,030,230
02/25/2013
77.11
77.44
75.3
75.32
605,825
02/22/2013
76.66
76.99
76.525
76.88
534,889
02/21/2013
76.9
76.98
76.13
76.46
704,436
02/20/2013
76.98
77.9
76.43
77
790,308
02/19/2013
77.74
77.74
77.3
77.63
670,539
02/15/2013
77.62
77.69
77.35
77.67
778,936
02/14/2013
77.74
78.34
77.35
77.74
883,376
02/13/2013
78.37
78.602
77.31
78.07
635,582
02/12/2013
78.34
78.5
77.74
78.36
701,047
02/11/2013
77.64
78.29
77.305
78.12
557,637
02/08/2013
77.25
77.82
77.11
77.67
748,084
02/07/2013
76.32
77.27
76.06
77
1,271,702
02/06/2013
75.62
76.85
75.51
76.12
1,094,911
02/05/2013
75.06
76.13
75.06
75.76
1,059,162
02/04/2013
74.92
75.5
74.38
74.86
961,625
02/01/2013
76.39
76.95
74.28
75.22
1,963,765
01/31/2013
77.95
78.025
75.8
75.92
1,246,027
01/30/2013
78.37
79.08
75.79
78.11
1,585,463
01/29/2013
77.73
78.23
77.38
77.89
1,037,306
01/28/2013
78.69
78.82
77.5
77.73
604,378
01/25/2013
78.81
78.81
78.42
78.71
833,515
01/24/2013
79
79.13
78.36
78.73
671,455
01/23/2013
78.41
79.2
78.27
78.89
646,199
01/22/2013
78.72
78.96
78.6
78.82
533,887
01/18/2013
79.49
79.8
78.4
78.81
693,733
01/17/2013
78.61
79.65
78.42
79.37
527,039
01/16/2013
78.19
78.82
77.48
78.38
531,531
01/15/2013
77.69
79.16
77.214
78.86
659,803
01/14/2013
77.86
78.06
77.46
77.83
284,645
01/11/2013
78.31
78.56
77.63
77.88
489,622
01/10/2013
78
78.5
77.89
78.49
597,759
01/09/2013
77.01
78
76.92
77.86
597,130
01/08/2013
77.12
77.125
76.18
76.75
557,416
01/07/2013
77.41
77.63
76.84
77.18
406,410
01/04/2013
77.52
77.8
77.27
77.71
382,981
01/03/2013
77.46
77.93
77.21
77.42
427,558
01/02/2013
78.11
78.11
76.85
77.55
792,554
12/31/2012
75.4
76.68
74.63
76.62
562,654
12/28/2012
76.24
76.79
75.64
75.71
481,348
12/27/2012
77.06
77.38
75.92
76.76
587,439
12/26/2012
77.75
77.87
76.66
76.99
613,259
12/24/2012
77.61
77.7401
76.93
77.59
246,493
12/21/2012
76.6
77.7902
76.6
77.77
1,253,925
12/20/2012
76.22
77.91
76.17
77.91
726,978
12/19/2012
76.95
77
76.21
76.33
739,868
12/18/2012
76.01
77.04
75.88
77.03
836,894
12/17/2012
75.33
75.9
74.86
75.88
768,057
12/14/2012
75.38
75.65
74.95
75.28
717,413
12/13/2012
76.09
76.15
75.48
75.51
612,732
12/12/2012
76.93
77
76.01
76.14
969,304
12/11/2012
76.79
77.03
76.3
76.61
722,961
12/10/2012
76.56
77.05
76.12
76.65
1,041,261
12/07/2012
76.65
76.805
75.89
76.65
839,847
12/06/2012
75.96
76.48
75.35
76.26
811,304
12/05/2012
75.9
76.65
75.2389
76.18
647,046
12/04/2012
76.38
76.64
75.65
75.99
797,439
12/03/2012
77.05
77.2
75.921
76.44
614,253
11/30/2012
77.31
77.69
76.67
76.85
1,030,505
11/29/2012
77.49
77.7
76.68
77.45
457,916
11/28/2012
76.13
77.33
75.662
77.21
543,517
11/27/2012
76.48
77.34
75.88
76.47
606,237
11/26/2012
76
76.85
75.685
76.74
613,913
11/23/2012
75.92
76.33
75.38
76.33
196,571
11/21/2012
75.51
76.05
75.22
75.63
352,828
11/20/2012
74.9
75.45
74.32
75.45
366,766
11/19/2012
74.89
74.96
74.04
74.85
625,538
11/16/2012
72.6
74.01
71.91
73.97
1,899,671
11/15/2012
72.4
73.06
72.1
72.35
804,855
11/14/2012
74.26
74.42
72.43
72.67
654,605
11/13/2012
73.75
75.38
73.75
74.4
458,482
11/12/2012
74.57
74.71
74.21
74.28
429,041
11/09/2012
73.51
75.07
73.51
74.47
562,725
11/08/2012
73.95
74.9
73.73
73.73
797,876
11/07/2012
76.14
76.56
72.27
74.4
1,920,228
11/06/2012
76.05
77.68
76.05
77.46
954,716
11/05/2012
75.64
75.96
74.93
75.85
799,276
11/02/2012
74.88
76.19
74.51
75.85
877,635
11/01/2012
73.94
75
73.041
74.85
728,610
10/31/2012
73.65
74.4
72.81
73.8
336,547
10/26/2012
73.62
74.14
73.04
73.42
328,422
10/25/2012
73.58
74.12
73.11
73.79
481,221
10/24/2012
72.78
73.83
72.67
73.1
453,881
10/23/2012
71.89
72.89
71.89
72.61
466,797
10/22/2012
73.46
74.24
72.96
73.33
409,362
10/19/2012
74.47
74.755
73.48
73.61
579,219
10/18/2012
74.25
75
73.75
74.84
348,486
10/17/2012
73.72
74.51
73.6
74.42
497,557
10/16/2012
73.03
73.78
72.99
73.65
303,584
10/15/2012
72.33
72.81
72.24
72.75
387,714
10/12/2012
72.35
73.16
71.98
72.32
482,458
10/11/2012
72.62
72.96
72.1
72.1
426,247
10/10/2012
72.7
72.7
72.04
72.14
297,102
10/09/2012
73.25
73.68
72.63
72.72
300,017
10/08/2012
73.41
73.41
73.01
73.2
422,022
10/05/2012
73.57
73.94
73.23
73.46
371,201
10/04/2012
73.35
73.87
72.95
73.23
581,494
10/03/2012
73.22
73.64
72.86
72.99
460,950
10/02/2012
73.53
73.7
73.06
73.11
438,092
10/01/2012
71.96
73.52
71.73
73.38
633,934
09/28/2012
72.15
72.46
71.55
71.71
650,186
09/27/2012
72.42
72.75
72.111
72.47
491,998
09/26/2012
71.88
72.73
71.55
72.21
454,195
09/25/2012
72.24
72.51
71.9
71.97
426,714
09/24/2012
72.15
72.5
71.54
72.21
387,003
09/21/2012
72.31
72.91
72.27
72.46
621,466
09/20/2012
71.9
72.3
71.37
72.23
419,442
09/19/2012
72.38
72.6
71.83
72.35
440,582
09/18/2012
73.05
73.05
72.41
72.41
520,209
09/17/2012
72.83
73.61
72.8052
73
454,879
09/14/2012
72.48
73.45
72.24
73.1
575,898
09/13/2012
72.07
72.97
71.29
72.56
436,796
09/12/2012
71.78
72.38
71.25
72.1
469,466
09/11/2012
71.43
71.69
71.25
71.52
582,205
09/10/2012
70.99
71.79
70.9
71.46
383,611
09/07/2012
70.61
71.49
70.49
71.4
321,039
09/06/2012
69.81
70.93
69.71
70.91
425,281
09/05/2012
69.18
69.74
69.06
69.38
492,800
09/04/2012
70.12
70.27
68.84
69.06
614,258
08/31/2012
70.26
70.74
69.89
70.24
342,603
08/30/2012
69.72
70.09
69.4
69.88
372,305
08/29/2012
69.6
70.08
69.4
70.06
315,214
08/28/2012
69.24
69.98
68.72
69.48
510,527
08/27/2012
69.95
70.22
69.45
69.54
414,998
08/24/2012
69.45
70.07
68.79
69.98
725,086
08/23/2012
70.07
70.07
69.41
69.71
705,085
08/22/2012
69.47
69.84
69.25
69.55
742,671
08/21/2012
69.61
69.92
69.11
69.62
717,339
08/20/2012
68.39
69.48
68
69.44
544,604
08/17/2012
69.06
69.26
68.51
69.17
458,937
08/16/2012
68.85
69.39
68.45
69.04
531,107
08/15/2012
68.99
69.09
68.36
68.74
497,147
08/14/2012
69.63
69.75
69.06
69.29
588,669
08/13/2012
70.12
70.29
69.08
69.29
662,692
08/10/2012
70.26
70.53
69.15
70.39
475,922
08/09/2012
69.5
70.48
69.35
70.41
503,765
08/08/2012
69.25
69.84
69.03
69.76
677,624
08/07/2012
69.03
69.7
69
69.38
717,636
08/06/2012
69.96
69.96
68.67
68.79
538,157
