





08/04/2017
45.07
45.39
44.57
44.71
2,100,871
08/03/2017
45.59
45.8
44.665
44.97
2,196,763
08/02/2017
45.89
46.07
45.23
45.55
3,559,995
08/01/2017
45.68
46.64
45.32
45.67
2,126,590
07/31/2017
45.58
45.795
45.3
45.44
2,080,687
07/28/2017
45.45
45.62
45.16
45.47
1,984,491
07/27/2017
45.3
45.725
45.11
45.58
3,397,373
07/26/2017
44.93
45.19
44.7
45.19
2,273,575
07/25/2017
44.46
44.87
44.2
44.62
3,397,557
07/24/2017
45
45.16
44.36
44.52
2,514,152
07/21/2017
45.63
46.4
43.98
45.1
7,633,005
07/20/2017
47.29
48.03
47.24
47.84
2,850,703
07/19/2017
47.46
47.48
46.94
47.11
2,000,875
07/18/2017
46.83
47
46.72
46.94
1,065,969
07/17/2017
47.09
47.39
46.94
46.94
1,562,497
07/14/2017
46.98
47.12
46.79
47.1
1,246,809
07/13/2017
46.82
47.02
46.56
46.67
1,137,583
07/12/2017
46.52
46.98
46.2368
46.7
2,047,552
07/11/2017
45.97
46.39
45.84
46.16
1,832,670
07/10/2017
45.82
46.13
45.53
46.03
1,588,322
07/07/2017
45.09
45.97
44.98
45.74
1,335,842
07/06/2017
44.65
45.31
44.455
44.94
1,564,939
07/05/2017
44.46
45.13
44.46
44.97
2,663,914
07/03/2017
45.14
45.23
44.18
44.19
975,734
06/30/2017
44.89
45.11
44.35
44.9
2,352,889
06/29/2017
44.97
45.03
44.09
44.44
2,116,421
06/28/2017
45.02
45.19
44.62
45.05
2,159,842
06/27/2017
45.64
45.64
44.68
44.73
1,637,695
06/26/2017
46.07
46.26
44.31
45.78
1,441,522
06/23/2017
45.77
45.97
45.61
45.92
2,705,262
06/22/2017
46.04
46.154
45.48
45.75
1,751,430
06/21/2017
45.8
46.04
45.52
46.01
1,717,276
06/20/2017
46.38
46.5
45.32
45.64
3,282,714
06/19/2017
46.76
46.86
46.37
46.49
2,644,211
06/16/2017
46.75
46.895
46.09
46.25
3,454,710
06/15/2017
46.47
47.22
46.28
46.86
1,591,214
06/14/2017
47.28
47.73
46.57
47.02
1,849,583
06/13/2017
47.14
47.3828
46.525
47.14
2,358,075
06/12/2017
46.53
46.935
45.64
46.72
3,788,390
06/09/2017
49.5
49.7
46.42
47.08
2,940,928
06/08/2017
49.1
49.52
48.91
49.41
2,891,829
06/07/2017
48.78
49.23
48.7
49.02
1,518,808
06/06/2017
48.29
49.075
48.11
48.55
2,185,744
06/05/2017
48.32
48.74
48.25
48.51
1,639,473
06/02/2017
48.24
48.47
48.02
48.42
2,265,604
06/01/2017
47.93
48.12
47.6
48.12
2,260,624
05/31/2017
47.92
48.18
47.6403
47.8
3,291,083
05/30/2017
47.42
47.89
47.31
47.7
1,633,529
05/26/2017
47.65
47.87
47.285
47.7
1,966,343
05/25/2017
47.29
48
47.21
47.74
1,884,327
05/24/2017
46.88
47.22
46.51
47.18
1,721,356
05/23/2017
46.7
46.94
46.41
46.84
1,379,229
05/22/2017
46.86
47.04
46.68
46.69
1,978,209
05/19/2017
46.54
47.1479
46.54
46.85
2,440,584
05/18/2017
45.47
46.61
45.34
46.45
1,912,199
05/17/2017
46.53
46.79
45.49
45.51
1,880,007
05/16/2017
46.79
47
46.59
46.94
1,882,509
05/15/2017
46.05
46.83
45.91
46.82
1,835,203
05/12/2017
45.71
46.21
45.57
46.03
1,856,372
05/11/2017
45.95
46.07
45.6
45.72
1,396,987
05/10/2017
46.09
46.41
45.965
46.12
1,685,859
05/09/2017
45.75
45.94
45.695
45.9
1,650,467
05/08/2017
45.51
45.885
45.51
45.69
2,171,078
05/05/2017
45.45
45.58
45.235
45.51
1,628,184
05/04/2017
44.95
45.45
44.93
45.38
2,037,110
05/03/2017
45.04
45.13
44.74
44.89
1,706,212
05/02/2017
44.63
45.16
44.42
45.08
2,631,209
05/01/2017
44.36
44.76
43.99
44.71
1,545,210
04/28/2017
45.12
45.12
43.775
44.15
3,408,239
04/27/2017
44.99
45.53
44.98
45.08
1,793,949
04/26/2017
45.12
45.35
44.71
44.72
2,090,231
04/25/2017
45.04
45.335
44.51
45.12
4,007,714
04/24/2017
45.39
45.54
44.635
44.75
3,373,942
04/21/2017
43.86
45.01
43.35
44.92
7,956,712
04/20/2017
44.8
45.7
44.74
45.45
3,118,275
04/19/2017
44.66
44.94
44.32
44.59
1,786,490
04/18/2017
43.86
44.55
43.69
44.42
1,481,184
04/17/2017
43.91
44.2101
43.83
44.11
1,411,494
04/13/2017
43.69
44.18
43.4448
43.77
1,338,262
04/12/2017
44.17
44.31
43.35
43.69
1,632,505
04/11/2017
44.39
44.61
43.5
44.31
1,890,238
04/10/2017
44.96
45
44.52
44.67
1,198,688
04/07/2017
44.54
45.09
44.41
45.02
2,334,449
04/06/2017
44.37
44.56
44.17
44.49
1,215,223
04/05/2017
44.73
45.01
44.34
44.37
1,637,866
04/04/2017
44.28
44.57
44.24
44.53
1,670,166
04/03/2017
44.98
45.08
44.285
44.5
1,530,057
03/31/2017
45.08
45.16
44.72
44.96
2,439,372
03/30/2017
44.8
45.12
44.73
44.92
999,250
03/29/2017
44.85
44.9
44.57
44.77
1,820,391
03/28/2017
45.05
45.21
44.87
44.92
1,587,533
03/27/2017
45.03
45.26
44.67
45.09
1,393,356
03/24/2017
45.71
45.97
45.2
45.23
1,727,447
03/23/2017
45.48
45.6
45.14
45.14
1,228,537
03/22/2017
45.1
45.63
44.67
45.58
1,001,558
03/21/2017
45.89
46.04
44.91
45
1,544,900
03/20/2017
45.63
46.22
45.515
45.8
1,625,670
03/17/2017
45.69
45.725
45.37
45.62
3,812,202
03/16/2017
46.09
46.14
45.24
45.36
1,911,245
03/15/2017
45.74
46.1
45.61
46
2,179,793
03/14/2017
45.63
45.72
45.38
45.57
1,326,686
03/13/2017
45.06
45.84
44.94
45.78
2,058,463
03/10/2017
45.08
45.2
44.77
45.02
1,766,020
03/09/2017
44.85
45.0523
44.545
44.83
1,643,721
03/08/2017
44.73
45.04
44.615
44.84
1,303,249
03/07/2017
44.46
45.16
44.36
44.73
1,823,736
03/06/2017
44.19
44.74
43.95
44.64
1,673,717
03/03/2017
44.28
44.39
44.035
44.32
1,864,921
03/02/2017
44.62
44.68
44.09
44.18
1,853,165
03/01/2017
44.66
44.74
44.04
44.64
1,813,738
02/28/2017
44.72
44.72
44.2
44.3
1,536,436
02/27/2017
44.97
45.005
44.5
44.96
2,012,729
02/24/2017
44.55
45.09
44.155
45.06
1,270,754
02/23/2017
45.31
45.3825
44.71
44.86
1,308,779
02/22/2017
45.18
45.46
45.085
45.35
1,360,060
02/21/2017
45.05
45.44
45.04
45.37
1,317,455
02/17/2017
44.92
45.12
44.62
45.11
1,593,389
02/16/2017
44.87
45.4
44.82
45.03
1,109,377
02/15/2017
44.76
45.03
44.4
45
2,288,851
02/14/2017
44.87
45.13
44.57
44.63
1,327,163
02/13/2017
45.22
45.43
44.925
45.03
1,504,414
02/10/2017
45.01
45.255
44.345
45.07
1,915,370
02/09/2017
45.06
45.455
44.78
44.88
1,905,666
02/08/2017
45.55
45.58
45.1
45.14
2,667,927
02/07/2017
44.89
45.54
44.8
45.47
2,573,284
02/06/2017
44.6
44.89
44.39
44.84
2,598,838
02/03/2017
44.72
44.74
44.445
44.67
1,556,425
02/02/2017
44.44
44.65
44.035
44.54
1,742,609
02/01/2017
44.72
44.98
44.29
44.76
2,239,941
01/31/2017
44.86
44.86
44.2275
44.48
2,424,794
01/30/2017
44.56
45.035
43.08
45.01
3,314,327
01/27/2017
44.66
45.27
44.25
44.71
7,456,120
01/26/2017
42.26
42.3
41.66
41.97
2,588,285
01/25/2017
42.3
42.65
41.89
42.23
3,419,945
01/24/2017
41.03
42.09
41.03
42.03
2,410,781
01/23/2017
41.22
41.52
41.07
41.39
2,032,158
01/20/2017
40.88
41.66
40.88
41.39
3,433,827
01/19/2017
41.18
41.45
40.44
40.58
3,116,840
01/18/2017
40.76
41.3801
40.71
41.22
2,229,590
01/17/2017
41.28
41.3364
40.635
40.73
1,579,166
01/13/2017
40.56
41.83
40.4401
41.47
3,088,140
01/12/2017
40.65
40.65
39.75
40.47
2,135,639
01/11/2017
40.84
40.86
40.52
40.7
1,297,274
01/10/2017
40.68
41.03
40.461
40.89
2,443,496
01/09/2017
39.74
40.71
39.58
40.65
3,124,283
01/06/2017
38.45
39.84
38.18
39.74
2,377,656
01/05/2017
39.09
39.14
38.35
38.44
2,142,102
01/04/2017
38.64
39.04
38.49
39.03
1,892,258
01/03/2017
38.7
39.08
38.325
38.62
1,614,289
12/30/2016
39.14
39.165
38.45
38.57
1,659,023
12/29/2016
38.84
39.2
38.84
39.02
983,390
12/28/2016
39.51
39.59
38.945
38.96
1,038,859
12/27/2016
39.32
39.74
39.28
39.4
708,217
12/23/2016
39.02
39.34
38.94
39.26
737,402
12/22/2016
39.36
39.4
38.9
39.16
1,003,503
12/21/2016
39.17
39.49
39.12
39.18
1,368,408
12/20/2016
39.07
39.36
38.99
39.25
1,265,700
12/19/2016
38.84
39.16
38.785
39.06
1,411,250
12/16/2016
39.25
39.32
38.68
38.83
2,198,218
12/15/2016
38.99
39.39
38.71
39.23
1,672,174
12/14/2016
39.01
39.24
38.55
38.64
1,971,689
12/13/2016
38.77
39.21
38.64
38.94
1,655,305
12/12/2016
38.97
39.125
38.365
38.73
1,133,847
12/09/2016
39.54
39.83
39.08
39.15
1,479,714
12/08/2016
39.42
39.78
39.36
39.44
1,360,295
12/07/2016
38.57
39.53
38.445
39.37
1,966,609
12/06/2016
38.41
38.75
38.36
38.57
1,601,870
12/05/2016
38.07
38.37
37.885
38.24
1,638,387
12/02/2016
37.76
38.16
37.32
37.87
2,884,779
12/01/2016
39.19
39.84
37.6
37.77
3,157,658
11/30/2016
40.09
40.09
39.2
39.27
2,041,551
11/29/2016
39.5
39.92
39.251
39.75
1,708,235
11/28/2016
40.01
40.385
39.72
39.93
1,718,511
11/25/2016
39.93
40.25
39.79
40.2
1,010,601
11/23/2016
40.12
40.3
39.85
39.96
2,156,002
11/22/2016
40.5
40.935
40.02
40.07
2,818,329
11/21/2016
39.96
40.39
39.74
40.32
1,618,681
11/18/2016
39.6
40.49
39.6
40.09
2,224,977
11/17/2016
39.63
39.91
39.45
39.74
1,625,575
11/16/2016
39.2
39.9
39.2
39.79
1,790,165
11/15/2016
38.9
39.47
38.83
39.41
2,346,770
11/14/2016
39
39.14
38.565
38.89
2,158,631
11/11/2016
38.85
39.13
38.64
38.94
3,083,658
11/10/2016
39.67
39.955
38.42
38.76
2,929,210
11/09/2016
38.74
39.705
38.5
39.51
2,011,935
11/08/2016
39.79
40.05
39.56
39.7
2,232,885
11/07/2016
39.43
39.82
39.3
39.79
1,808,984
11/04/2016
38.83
39.31
38.762
38.95
1,474,711
11/03/2016
39.22
39.78
39.04
39.18
1,598,167
11/02/2016
39.53
39.62
39.09
39.2
1,339,610
11/01/2016
39.79
39.9299
39.07
39.42
1,161,248
10/31/2016
39.54
39.9
39.52
39.63
1,413,447
10/28/2016
39.6
39.98
39.4
39.43
1,538,990
10/27/2016
40.03
40.09
39.5
39.62
1,308,667
10/26/2016
39.84
40
39.71
39.9
1,561,304
10/25/2016
40.38
40.52
39.94
40.03
1,590,900
10/24/2016
40
40.39
39.93
40.37
1,689,159
10/21/2016
40.93
40.93
38.97
39.83
3,065,182
10/20/2016
39.12
39.45
38.95
39.1
3,187,145
10/19/2016
38.68
39.19
38.55
39.11
2,300,085
10/18/2016
38.57
39.24
38.39
38.9
2,941,528
10/17/2016
38.14
38.55
38.06
38.2
1,317,755
10/14/2016
37.82
38.53
37.79
38.2
2,079,916
10/13/2016
37.59
37.75
37.25
37.58
1,942,237
10/12/2016
37.99
38.17
37.59
37.87
1,857,779
10/11/2016
38.25
38.58
37.51
38.06
3,858,770
10/10/2016
40.2
40.345
38.62
38.67
3,019,791
10/07/2016
40.12
40.24
39.696
40.2
1,965,714
10/06/2016
39.57
40.11
39.51
40.07
2,685,326
10/05/2016
39.81
40.175
39.75
39.75
2,459,426
10/04/2016
39.86
40.11
39.47
39.63
1,561,814
10/03/2016
40.02
40.21
39.71
39.76
1,345,207
09/30/2016
39.7
40.18
39.57
39.93
2,587,483
09/29/2016
39.22
39.75
38.73
39.49
2,819,758
09/28/2016
39.37
39.53
39.12
39.29
1,219,239
09/27/2016
38.54
39.31
38.34
39.23
1,359,303
09/26/2016
38.84
38.925
38.54
38.65
2,170,935
09/23/2016
39.18
39.36
38.74
39
1,486,114
09/22/2016
39.06
39.28
38.76
39.25
1,699,595
09/21/2016
38.8
38.92
38.43
38.82
1,752,617
09/20/2016
38.95
39.105
38.56
38.66
2,121,453
09/19/2016
39.08
39.4
38.59
38.68
1,886,392
09/16/2016
39.32
39.32
38.4
38.81
4,575,902
09/15/2016
38.58
39.19
38.39
38.99
1,815,136
09/14/2016
38.29
38.75
38.095
38.5
1,639,536
09/13/2016
38.54
38.87
38.07
38.17
1,737,027
09/12/2016
37.99
38.78
37.94
38.71
2,276,854
09/09/2016
39.24
39.598
37.83
38.26
3,798,166
09/08/2016
39.57
39.84
39.505
39.65
2,686,088
09/07/2016
40
40.26
39.495
39.63
3,319,139
09/06/2016
41.18
41.34
40.45
40.55
1,775,616
09/02/2016
41.25
41.455
41.0383
41.12
1,486,529
09/01/2016
40.72
41.21
40.46
41.2
1,753,674
08/31/2016
40.8
41.09
40.71
40.72
2,475,727
08/30/2016
40.94
41.36
40.51
40.89
1,294,550
08/29/2016
41.1
41.21
40.74
40.83
1,380,892
08/26/2016
40.95
41.625
40.87
41.08
2,765,540
08/25/2016
40.7
41.13
40.57
40.91
1,808,812
08/24/2016
40.88
41.05
40.71
40.87
1,419,945
08/23/2016
41.2
41.3
40.96
40.97
1,327,489
08/22/2016
41.02
41.35
40.84
40.94
1,428,584
08/19/2016
40.19
41.18
40.19
40.99
1,809,549
08/18/2016
40.54
40.77
40.46
40.7
1,679,206
08/17/2016
40.23
40.57
40.03
40.52
1,911,864
08/16/2016
40.47
40.53
40.17
40.31
1,722,325
08/15/2016
40.78
41.19
40.78
40.99
1,831,390
08/12/2016
40.76
41.09
40.57
40.91
1,397,295
08/11/2016
41.1
41.1
40.72
40.75
2,047,388
08/10/2016
40.98
41.0468
40.605
40.92
2,397,878
08/09/2016
40.74
41.09
40.69
40.89
2,947,452
08/08/2016
40.69
40.9001
40.47
40.55
2,206,997
08/05/2016
41.13
41.13
40.67
40.73
2,057,947
08/04/2016
40.49
41.02
40.01
40.83
2,077,827
08/03/2016
40.06
40.535
39.83
40.51
1,866,662
08/02/2016
40.81
41.15
40.03
40.17
1,738,267
08/01/2016
40.79
41.44
40.505
41.09
2,693,778
07/29/2016
40.78
40.95
40.4
40.78
1,576,336
07/28/2016
41.13
41.2
40.58
40.67
3,116,883
07/27/2016
41.11
42.37
41.06
41.24
4,884,803
07/26/2016
39.2
41.29
38.82
40.91
9,896,663
07/25/2016
38.4
38.89
38.14
38.82
2,374,647
07/22/2016
38.46
38.89
37.96
38.35
3,670,048
07/21/2016
38.25
38.29
37.505
37.71
2,290,712
07/20/2016
37.5
38.35
37.5
38.24
1,821,627
07/19/2016
37.64
38.04
37.59
37.81
1,528,970
07/18/2016
38.16
38.27
37.94
38.12
1,328,657
07/15/2016
38.11
38.11
37.77
37.78
1,911,232
07/14/2016
38
38.14
37.44
37.95
1,112,809
07/13/2016
37.89
37.9768
37.63
37.73
1,146,003
07/12/2016
37.54
37.735
37.315
37.73
1,761,254
07/11/2016
37.12
37.4
37.06
37.14
1,744,819
07/08/2016
36.4
37
36.3
36.88
2,764,117
07/07/2016
35.67
36.34
35.67
36.22
1,977,923
07/06/2016
35.2
35.7
34.8
35.59
1,851,103
07/05/2016
35.3
35.46
34.96
35.32
2,041,090
07/01/2016
35.32
35.77
35.27
35.5
1,300,674
06/30/2016
35.15
35.71
34.91
35.69
2,025,080
06/29/2016
34.75
35.06
34.67
35.04
1,593,459
06/28/2016
34.22
34.68
34.06
34.43
2,564,624
06/27/2016
34.66
34.7628
33.385
33.84
3,978,287
06/24/2016
36.13
36.9399
35.06
35.1
8,255,594
06/23/2016
37.56
37.9
37.37
37.89
1,820,439
06/22/2016
37.4
37.53
37.08
37.15
1,475,052
06/21/2016
37.07
37.45
36.92
37.44
2,320,162
06/20/2016
36.98
37.45
36.91
37.01
1,654,186
06/17/2016
36.8
37.36
36.06
36.43
2,609,383
06/16/2016
36.88
37.13
36.52
37.08
1,156,438
06/15/2016
37.44
37.44
36.98
37.06
1,538,524
06/14/2016
37.38
37.415
37.02
37.35
2,029,200
06/13/2016
37.52
37.9
37.36
37.39
1,481,010
06/10/2016
37.38
37.82
37.38
37.63
1,708,225
06/09/2016
37.53
37.91
37.53
37.86
1,320,054
06/08/2016
37.6
37.9925
37.53
37.87
1,273,216
06/07/2016
37.86
37.9
37.43
37.58
1,588,758
06/06/2016
37.92
38.18
37.67
37.68
1,504,494
06/03/2016
38.33
38.35
37.61
37.89
1,844,667
06/02/2016
38.09
38.26
38.009
38.18
1,397,783
06/01/2016
37.84
38.3
37.645
38.28
1,273,034
05/31/2016
37.71
38
37.6
37.96
2,216,380
05/27/2016
37.47
37.72
37.4
37.69
1,239,351
05/26/2016
37.53
37.62
37.3401
37.48
1,177,452
05/25/2016
37.56
37.7348
37.24
37.54
2,634,257
05/24/2016
36.79
37.54
36.66
37.48
2,104,903
05/23/2016
36.23
36.92
35.9912
36.6
1,699,796
05/20/2016
36.05
36.73
36
36.45
2,034,988
05/19/2016
35.66
35.89
35.33
35.69
1,041,699
05/18/2016
35.35
36.12
35.275
35.87
1,456,975
05/17/2016
35.46
36.07
35.24
35.45
2,072,239
05/16/2016
35.94
36.585
35.94
36.36
1,683,200
05/13/2016
36.02
36.31
35.84
35.98
1,541,281
05/12/2016
36.45
36.67
35.59
35.92
2,448,481
05/11/2016
36.32
36.67
35.92
36.4
1,221,121
05/10/2016
35.96
36.51
35.76
36.51
2,189,288
05/09/2016
35.83
36.17
35.72
35.86
1,473,427
05/06/2016
35.51
35.86
35.31
35.86
1,594,366
05/05/2016
35.82
35.92
35.12
35.69
1,545,556
05/04/2016
35.92
36.015
35.49
35.59
1,829,188
05/03/2016
36.05
36.315
35.92
36.07
1,294,807
05/02/2016
35.85
36.46
35.48
36.41
2,278,555
04/29/2016
36.61
36.62
35.51
35.72
2,611,026
04/28/2016
37.36
38
36.79
36.89
2,635,611
04/27/2016
37.35
37.96
37.091
37.66
2,297,734
04/26/2016
37.76
38.27
37.19
37.45
2,991,088
04/25/2016
37.31
37.935
37.145
37.57
2,691,381
04/22/2016
37.5
37.57
36.63
37.31
3,848,365
04/21/2016
36.25
36.64
36.11
36.52
3,267,543
04/20/2016
35.85
36.63
35.76
36.33
1,740,495
04/19/2016
36.67
36.7
35.49
35.88
2,813,928
04/18/2016
36.4
36.91
36.4
36.72
1,158,995
04/15/2016
36.73
36.94
36.32
36.56
1,795,026
04/14/2016
37.03
37.03
36.0798
36.81
2,662,039
04/13/2016
36.66
37.47
36.47
37.32
2,058,106
04/12/2016
36.63
36.76
36.15
36.35
1,719,632
04/11/2016
36.71
37.04
36.51
36.52
1,483,000
04/08/2016
36.99
37.38
36.63
36.65
2,397,564
04/07/2016
36.7
36.8
36.11
36.37
1,711,899
04/06/2016
36.23
36.91
36.02
36.8
1,221,630
04/05/2016
36.38
36.88
36.1
36.27
1,405,912
04/04/2016
36.68
36.77
36.31
36.63
1,413,788
04/01/2016
36.28
36.62
36.04
36.61
1,844,150
03/31/2016
36.68
37.13
36.4599
36.78
2,502,155
03/30/2016
36.28
36.56
36.08
36.54
1,589,237
03/29/2016
35.46
36.325
35.35
36.17
1,477,902
03/28/2016
35.64
35.81
35.38
35.55
1,016,102
03/24/2016
35.21
35.62
35.06
35.62
1,171,851
03/23/2016
35.48
35.62
35.01
35.34
1,447,453
03/22/2016
35
35.57
34.9
35.47
992,394
03/21/2016
35.13
35.58
35
35.32
1,200,691
03/18/2016
35.38
35.45
34.98
35.28
4,655,095
03/17/2016
34.9
35.44
34.89
35.26
1,483,450
03/16/2016
34.36
35.03
34.19
35
1,769,651
03/15/2016
34.19
34.47
33.82
34.45
1,669,803
03/14/2016
34.57
34.7
34.02
34.4
1,417,260
03/11/2016
34.25
34.69
33.76
34.64
1,471,914
03/10/2016
33.96
34.18
33.3
33.77
1,214,512
03/09/2016
33.51
33.95
33
33.74
1,201,620
03/08/2016
33.95
34.09
33.18
33.2
1,698,298
03/07/2016
34.31
34.6
33.68
34.06
2,465,417
03/04/2016
34.4
34.78
34.02
34.47
1,777,101
03/03/2016
34.77
34.88
34.02
34.15
2,119,537
03/02/2016
34.18
34.87
34
34.82
1,944,519
03/01/2016
34.09
34.35
33.5
34.22
2,031,298
02/29/2016
34.01
34.325
33.85
33.86
1,302,515
02/26/2016
34.1
34.16
33.81
33.9
1,244,182
02/25/2016
33.52
34.03
33.285
34.03
2,082,284
02/24/2016
32.51
33.505
32.01
33.48
2,732,560
02/23/2016
33.26
33.35
32.72
32.78
1,399,006
02/22/2016
33.32
33.6
32.95
33.45
1,749,649
02/19/2016
32.95
33.19
32.68
32.99
1,654,585
02/18/2016
33.66
33.8
32.99
33
2,144,497
02/17/2016
33.37
33.98
33.21
33.66
3,059,527
02/16/2016
32.23
33.47
32.23
33.42
3,186,607
02/12/2016
32.18
32.52
31.56
32.45
3,608,057
02/11/2016
30.51
32.19
30.48
32
3,578,765
02/10/2016
31.19
31.93
31.14
31.15
1,720,992
02/09/2016
30.51
31.56
30.31
31.12
1,918,989
02/08/2016
30.77
31.33
30.35
30.74
3,147,281
02/05/2016
31.99
32.33
30.99
31.27
2,867,447
02/04/2016
32.37
32.88
31.7499
32.09
3,037,219
02/03/2016
32.74
33.13
31.93
32.36
3,161,958
02/02/2016
33.1
33.4799
32.3
32.39
2,121,403
02/01/2016
33.28
33.7
32.9988
33.5
2,242,871
01/29/2016
32.55
33.42
32.41
33.4
3,233,922
01/28/2016
31.21
32.665
30.33
32.225
2,305,929
01/27/2016
32.12
32.42
31.69
32.05
3,762,550
01/26/2016
31.5
32.62
31.5
32.37
3,311,580
01/25/2016
31.85
32.07
31.235
31.63
4,116,043
01/22/2016
32.08
33.36
31.84
32.19
6,025,411
01/21/2016
31.55
31.79
30.92
31.03
4,435,198
01/20/2016
31
31.59
30.71
31.16
3,735,667
01/19/2016
32.3
32.35
30.885
31.07
3,347,847
01/15/2016
30.43
32.01
30.28
31.99
5,002,651
01/14/2016
32.36
32.74
32.06
32.31
3,941,720
01/13/2016
33.27
33.64
32.09
32.11
2,810,728
01/12/2016
33.36
33.64
32.99
33.15
3,036,705
01/11/2016
32.45
33.435
32.45
33.06
5,380,920
01/08/2016
34.53
34.68
32.21
32.33
8,204,104
01/07/2016
34.49
34.57
33.81
34.26
5,323,110
01/06/2016
35.74
35.99
35.05
35.18
4,406,419
01/05/2016
36.78
37.32
36.19
36.23
3,423,675
01/04/2016
37.3
37.42
36.29
36.67
3,159,217
12/31/2015
38.24
38.48
38
38
1,517,655
12/30/2015
38.77
38.85
37.91
38.41
1,540,052
12/29/2015
37.9
38.93
37.82
38.79
1,493,656
12/28/2015
37.81
38
37.33
37.84
811,345
12/24/2015
37.46
38.005
37.46
37.87
505,416
12/23/2015
37.46
37.81
37.02
37.59
1,371,333
12/22/2015
37.76
37.975
37.05
37.305
1,566,672
12/21/2015
37.67
37.76
37.2
37.66
1,541,572
12/18/2015
37.56
37.84
37.08
37.24
11,721,350
12/17/2015
38.48
38.65
37.585
37.59
2,620,365
12/16/2015
38.63
38.84
37.83
38.33
1,856,721
12/15/2015
38.31
38.68
37.76
38.29
2,920,740
12/14/2015
37.91
38.48
37.6301
38.06
3,671,432
12/11/2015
37.55
38.4
37.53
37.79
3,362,814
12/10/2015
37.05
38.03
36.67
37.87
3,465,799
12/09/2015
37.41
37.59
36.86
37.11
2,632,519
12/08/2015
37.42
37.4579
36.4
36.6
2,376,873
12/07/2015
37.91
38.13
37.29
37.66
2,179,322
12/04/2015
36.32
38.2
36.23
38.15
3,606,763
12/03/2015
39
39
36.71
36.94
5,396,170
12/02/2015
38.53
38.89
38.45
38.69
2,782,794
12/01/2015
39.15
39.29
38.53
38.69
2,198,624
11/30/2015
39.14
39.19
38.4301
38.77
2,642,519
11/27/2015
38.78
39.2
38.6201
39.16
619,118
11/25/2015
38.64
39.07
38.48
38.83
1,633,631
11/24/2015
38.33
39.02
38.24
38.72
3,136,975
11/23/2015
39.61
39.77
38.44
38.46
4,428,359
11/20/2015
39.92
40.35
39.38
39.99
2,621,866
11/19/2015
39.23
39.83
39.04
39.65
1,489,924
11/18/2015
39
39.58
38.8
39.41
1,972,997
11/17/2015
38.56
39.235
38.56
38.69
1,439,693
11/16/2015
38.48
39.24
38.48
39.15
1,758,291
11/13/2015
39.27
39.35
38.755
38.83
2,307,085
11/12/2015
39.36
40.01
39.26
39.33
1,913,485
11/11/2015
39.49
39.99
39.49
39.63
1,985,980
11/10/2015
39.65
39.81
39.171
39.5
2,378,724
11/09/2015
40.6
40.86
40
40.02
2,214,644
11/06/2015
40.26
40.97
40.26
40.56
2,796,710
11/05/2015
40.9
41.36
40.535
40.71
1,767,586
11/04/2015
41.46
41.46
40.98
41.07
1,947,128
11/03/2015
41.2
41.43
40.745
41.22
2,127,381
11/02/2015
40.76
41.36
40.45
41.32
3,117,033
10/30/2015
40.53
41.39
40.43
40.98
3,636,590
10/29/2015
41.26
41.44
40.21
40.79
4,621,946
10/28/2015
38
42.18
37.95
42.01
10,492,450
10/27/2015
37.7
38.46
37.55
38.45
2,139,606
10/26/2015
37.9
38.27
37.61
38.15
2,317,385
10/23/2015
38.32
38.75
37.56
37.95
5,265,718
10/22/2015
39.77
40.09
38.96
39.12
5,312,690
10/21/2015
39.92
40.15
39.34
39.44
4,211,629
10/20/2015
39.58
40.18
39.14
39.54
5,224,923
10/19/2015
39.5
39.88
39
39.63
4,239,446
10/16/2015
39
40.05
38.63
39.74
5,935,778
10/15/2015
37.94
39.8
37.87
38.92
10,782,500
10/14/2015
34.82
39.39
34.74
38.33
10,242,750
10/13/2015
34.7
34.9
34.61
34.71
2,083,262
10/12/2015
34.78
35.02
34.67
34.86
1,725,836
10/09/2015
35.3
35.44
34.72
34.74
2,016,648
10/08/2015
34.69
35.4
34.46
35.31
2,864,064
10/07/2015
34.47
34.96
34.18
34.81
2,095,570
10/06/2015
34.08
34.46
33.93
34.27
1,833,104
10/05/2015
33.45
34.17
33.31
34.08
1,453,748
10/02/2015
32.4
33.29
32.2
33.29
2,067,707
10/01/2015
33.3
33.4
32.23
32.67
2,340,747
09/30/2015
32.47
33.43
32.47
33.4
2,184,458
09/29/2015
32.06
32.21
31.68
32.13
1,667,988
09/28/2015
32.3
32.49
31.89
32
1,831,812
09/25/2015
32.72
32.91
32.31
32.51
2,167,356
09/24/2015
32.44
32.64
31.93
32.42
1,900,045
09/23/2015
33.13
33.39
32.63
32.64
2,502,985
09/22/2015
32.61
33.37
32.6
33.12
3,037,421
09/21/2015
33.88
34.03
33.11
33.12
2,552,049
09/18/2015
33.49
33.97
33.27
33.52
3,807,756
09/17/2015
34.09
34.59
33.935
34.07
1,360,731
09/16/2015
34.24
34.24
33.95
34.22
1,735,617
09/15/2015
34.48
34.705
34.23
34.24
1,869,248
09/14/2015
34.28
34.43
34.04
34.35
1,756,241
09/11/2015
33.62
34.1
33.575
34.02
2,909,050
09/10/2015
33.67
34.19
33.47
33.8
2,576,364
09/09/2015
34.2
34.38
33.595
33.69
2,191,510
09/08/2015
33.38
34.01
33.23
33.97
2,708,718
09/04/2015
32.8
33.2
32.0001
32.99
1,857,680
09/03/2015
32.95
33.47
32.95
33.29
1,883,320
09/02/2015
32.59
32.99
32.32
32.95
2,791,224
09/01/2015
32.94
33.29
32.18
32.23
2,864,952
08/31/2015
34
34.08
33.595
33.67
2,785,132
08/28/2015
33
34.1
32.93
34.1
3,536,444
08/27/2015
32.43
33.42
32.21
33.39
3,411,140
08/26/2015
31.3
32.47
30.99
32.43
3,945,704
08/25/2015
31.54
32.06
30.71
30.71
2,688,797
08/24/2015
29.59
32.08
29.47
30.74
4,538,666
08/21/2015
31.88
32.22
31.38
31.49
3,229,247
08/20/2015
32.44
32.66
31.94
32
3,235,690
08/19/2015
32.9
33.32
32.85
32.91
1,769,277
08/18/2015
33.2
33.45
33.06
33.13
1,907,367
08/17/2015
33.63
33.84
33.31
33.83
2,116,565
08/14/2015
33.91
33.97
33.43
33.67
1,415,877
08/13/2015
34.29
34.53
33.83
33.85
2,667,086
08/12/2015
33.29
34.62
33.079
34.42
3,539,382
08/11/2015
34.29
34.585
33.74
33.75
2,724,543
08/10/2015
34.33
34.825
34.14
34.64
1,891,558
08/07/2015
33.8
34.23
33.76
34.2
1,523,173
08/06/2015
34.43
34.43
33.54
33.87
2,060,584
08/05/2015
33.54
34.52
33.43
34.3
2,465,445
08/04/2015
33.57
33.76
33.23
33.56
2,077,555
08/03/2015
33.81
33.93
33.43
33.63
2,281,627
07/31/2015
34.33
34.4
33.96
34.04
2,594,665
07/30/2015
34.45
34.74
34.21
34.41
2,456,384
07/29/2015
34.46
34.79
34.32
34.48
1,991,467
07/28/2015
34.02
34.92
33.79
34.46
3,833,135
07/27/2015
33.58
34.02
32.96
33.85
4,884,516
07/24/2015
34.43
35.71
32.75
33.57
9,798,485
07/23/2015
30.57
31.14
30.48
30.73
3,683,691
07/22/2015
30.34
30.47
30.05
30.23
4,211,349
07/21/2015
31.11
31.53
31.02
31.27
2,932,840
07/20/2015
31.54
31.54
31.11
31.13
3,863,957
07/17/2015
31.95
32
31.36
31.54
2,987,444
07/16/2015
32.17
32.28
31.76
31.91
2,781,904
07/15/2015
32.47
32.61
32.05
32.25
2,017,638
07/14/2015
32.25
32.52
32.05
32.41
4,059,992
07/13/2015
32.28
32.52
31.95
32.13
3,522,119
07/10/2015
32.22
32.27
31.78
32.27
2,751,855
07/09/2015
33.28
33.42
32.01
32.03
2,374,205
07/08/2015
32.97
33.35
32.3
32.855
4,010,981
07/07/2015
33.8
34
33.12
33.72
3,162,502
07/06/2015
34.38
34.655
34.05
34.165
2,460,488
07/02/2015
34.51
34.68
34.35
34.56
1,312,674
07/01/2015
34.8
34.9
34.4
34.5
2,161,952
06/30/2015
34.86
34.934
34.42
34.575
2,319,378
06/29/2015
34.5
34.74
34.22
34.375
2,650,097
06/26/2015
35.21
35.295
34.65
34.75
5,491,486
06/25/2015
35.39
35.5
35.19
35.335
1,586,977
06/24/2015
35.45
35.65
35.31
35.34
1,868,970
06/23/2015
35.74
35.79
35.39
35.47
1,293,513
06/22/2015
35.41
35.73
35.27
35.65
2,747,478
06/19/2015
34.61
35.81
33.96
35.56
7,425,401
06/18/2015
34.1
34.55
33.91
34.42
2,371,297
06/17/2015
34.23
34.285
34.02
34.225
1,661,406
06/16/2015
34.12
34.27
33.9
34.08
1,874,123
06/15/2015
33.82
34.19
33.46
34.18
1,640,796
06/12/2015
34.16
34.21
33.78
33.95
2,363,407
06/11/2015
34.25
34.35
34.05
34.335
1,078,594
06/10/2015
33.72
34.23
33.62
34.14
2,309,087
06/09/2015
33.7
33.75
33.29
33.63
2,224,956
06/08/2015
34.2
34.24
33.72
33.83
2,297,394
06/05/2015
34.04
34.19
33.74
34.09
2,019,867
06/04/2015
33.95
34.2
33.88
34.02
2,507,841
06/03/2015
34.31
34.56
34.16
34.195
2,573,621
06/02/2015
34.49
34.63
33.96
34
3,166,300
06/01/2015
35.06
35.18
34.64
34.67
2,464,760
05/29/2015
34.77
35.17
34.49
35.07
3,564,860
05/28/2015
34.4
34.82
33.94
34.72
4,457,050
05/27/2015
33.95
34.72
33.87
34.44
4,375,382
05/26/2015
34.04
34.19
33.8
33.965
1,726,136
05/22/2015
34.22
34.55
34.21
34.395
1,565,244
05/21/2015
34.25
34.36
33.91
34.26
1,653,887
05/20/2015
34.09
34.47
34.0352
34.25
4,272,045
05/19/2015
34.31
34.48
33.95
34.11
1,973,565
05/18/2015
33.82
34.4415
33.81
34.36
2,379,626
05/15/2015
34.06
34.6
33.68
34.19
4,282,744
05/14/2015
32.66
34.86
32.53
34.105
4,761,214
05/13/2015
32.57
32.84
32.29
32.52
1,190,768
05/12/2015
32.79
32.79
32.25
32.38
2,836,717
05/11/2015
32.45
33.05
32.45
32.925
1,967,115
05/08/2015
32.39
32.84
32.38
32.54
1,269,993
05/07/2015
32.36
32.64
32.195
32.28
1,555,729
05/06/2015
32.39
32.55
31.97
32.26
1,711,246
05/05/2015
32.89
33.01
32.24
32.28
1,670,988
05/04/2015
33.26
33.31
33.02
33.09
1,135,745
05/01/2015
32.91
33.13
32.61
33.095
2,556,602
04/30/2015
32.75
33.1
32.62
32.83
2,369,346
04/29/2015
32.87
33.32
32.53
32.86
2,470,697
04/28/2015
33.12
33.31
32.675
33.135
2,854,858
04/27/2015
32.82
33.4
32.785
33.105
4,009,049
04/24/2015
31.95
32.8
30.6305
32.78
7,953,867
04/23/2015
34.07
34.915
33.9
34.74
3,227,422
04/22/2015
35.33
35.38
34.8
35
1,655,157
04/21/2015
35.5
35.5
35.0844
35.19
1,531,342
04/20/2015
34.87
35.3
34.608
35.19
1,920,815
04/17/2015
34.87
34.98
34.49
34.58
2,012,084
04/16/2015
34.97
35.16
34.76
35
2,128,628
04/15/2015
34.96
35.16
34.74
35.075
2,022,168
04/14/2015
35.11
35.2
34.65
34.7
1,036,732
04/13/2015
35.2
35.53
35.07
35.08
1,513,978
04/10/2015
35.26
35.405
35.12
35.165
1,576,458
04/09/2015
35.12
35.345
34.9
35.23
2,223,471
04/08/2015
34.96
35.15
34.64
35
1,787,423
04/07/2015
35.05
35.22
34.81
34.82
1,173,407
04/06/2015
34.8
35.15
34.47
34.965
1,544,657
04/02/2015
35.19
35.24
34.68
34.82
1,897,301
04/01/2015
35.01
35.09
34.14
34.955
4,215,463
03/31/2015
35.16
35.24
34.73
34.81
2,732,519
03/30/2015
34.8
35.03
34.4
34.975
2,803,234
03/27/2015
34.12
34.845
33.93
34.64
2,264,778
03/26/2015
33.41
33.99
33.15
33.9
2,664,444
03/25/2015
35.74
35.84
33.68
33.9
4,882,548
03/24/2015
35.99
36.1
35.44
35.46
2,129,536
03/23/2015
36.28
36.37
36.03
36.05
1,949,106
03/20/2015
36.17
36.37
35.98
36.19
2,748,662
03/19/2015
35.96
36.07
35.71
35.785
1,847,360
03/18/2015
36.03
36.355
35.7
36.05
3,647,709
03/17/2015
35.84
36.24
35.63
36.225
2,337,699
03/16/2015
35.36
36.17
35.3
36.16
2,724,701
03/13/2015
35.19
35.28
34.92
35.25
1,954,366
03/12/2015
34.73
35.25
34.7101
35.16
1,788,557
03/11/2015
35.49
35.71
34.96
35.06
2,275,130
03/10/2015
35.53
35.76
35.2
35.21
3,015,376
03/09/2015
35.97
36.36
35.69
35.74
3,142,051
03/06/2015
35.56
36.09
35.34
35.67
4,201,776
03/05/2015
35.44
35.965
35.27
35.61
2,602,295
03/04/2015
35.01
35.56
34.77
35.39
3,300,227
03/03/2015
35.57
35.69
34.8
35.09
4,227,878
03/02/2015
34.6
35.6
34.6
35.57
3,805,886
02/27/2015
34.47
34.63
34.3
34.395
2,305,930
02/26/2015
34.56
34.7
34.39
34.5
1,826,430
02/25/2015
34.76
34.83
34.37
34.48
1,219,924
02/24/2015
34.46
34.84
34.23
34.765
1,292,756
02/23/2015
34.56
34.68
34.3
34.465
873,174
02/20/2015
34.46
34.61
34.25
34.6
1,493,864
02/19/2015
34.49
34.65
34.34
34.52
1,093,348
02/18/2015
34.33
34.76
34.26
34.62
1,561,611
02/17/2015
34.46
34.88
34.34
34.7
1,710,822
02/13/2015
34.77
34.94
34.38
34.92
1,875,704
02/12/2015
34.7
35.2
34.38
34.565
2,867,481
02/11/2015
34.43
34.63
34.31
34.46
2,018,914
02/10/2015
34.04
34.4
33.69
34.38
1,195,186
02/09/2015
33.79
34.045
33.58
33.73
1,260,438
02/06/2015
34.14
34.45
33.95
33.975
1,332,349
02/05/2015
34.06
34.22
33.905
34.15
1,301,792
02/04/2015
34.04
34.1
33.7
33.89
1,215,072
02/03/2015
32.94
34.13
32.94
34.02
2,217,295
02/02/2015
33.17
33.26
32.53
33.13
2,417,877
01/30/2015
33.65
33.96
33.08
33.09
3,415,789
01/29/2015
33.77
34.15
33.5
33.85
1,510,794
01/28/2015
33.92
34.27
33.43
33.73
1,711,249
01/27/2015
33.4
33.93
33.315
33.76
2,039,495
01/26/2015
33.22
34.06
33.04
33.92
2,869,692
01/23/2015
33.84
34.19
33.13
33.76
7,064,894
01/22/2015
32.7
33.11
32.2
33.01
4,176,367
01/21/2015
32.37
32.88
32.23
32.87
1,791,280
01/20/2015
32.15
32.38
31.93
32.31
2,110,260
01/16/2015
31.68
32.05
31.62
32.015
1,886,386
01/15/2015
32.38
32.7
31.62
31.69
2,486,878
01/14/2015
32.93
33.03
31.96
32.25
4,851,104
01/13/2015
33
33.42
32.105
32.35
3,503,135
01/12/2015
32.91
33.08
32.46
32.76
2,877,615
01/09/2015
32.54
33.14
32.38
32.99
2,682,633
01/08/2015
31.81
32.605
31.755
32.48
2,800,165
01/07/2015
31.38
31.935
31.02
31.74
2,526,551
01/06/2015
31.2
31.255
30.72
31.02
3,142,073
01/05/2015
31.76
31.8
31.1
31.155
2,620,273
01/02/2015
31.98
32.14
31.23
31.64
1,585,150
12/31/2014
31.44
32.1
31.18
31.87
3,271,492
12/30/2014
31.32
31.54
31.2
31.255
2,019,604
12/29/2014
31.63
31.78
31.4
31.46
1,739,408
12/26/2014
32
32.16
31.5
31.645
1,649,511
12/24/2014
31.78
32.1
31.61
31.97
981,854
12/23/2014
31.94
32
31.6146
31.66
2,345,899
12/22/2014
31.18
31.73
31.14
31.72
2,019,498
12/19/2014
30.77
31.24
30.59
31.12
11,130,290
12/18/2014
31.12
31.28
30.83
31.2
2,445,130
12/17/2014
30.46
30.87
30.2
30.79
2,498,348
12/16/2014
30.61
31.19
30.26
30.48
2,724,695
12/15/2014
30.8
31.18
30.485
30.64
3,220,696
12/12/2014
30.52
30.82
30.43
30.625
3,088,104
12/11/2014
30.96
31.2335
30.71
30.79
1,812,853
12/10/2014
30.85
31.06
30.49
30.645
1,891,861
12/09/2014
30.8
31.17
30.62
31.04
1,716,163
12/08/2014
31.31
31.56
30.8099
31.11
2,870,481
12/05/2014
31.04
31.49
30.95
31.36
3,169,868
12/04/2014
31.16
31.17
30.43
31.1
4,248,049
12/03/2014
29.86
31.22
29.85
30.92
5,174,899
12/02/2014
29.23
29.91
28.89
29.77
3,626,983
12/01/2014
29.52
29.64
29.02
29.14
2,129,316
11/28/2014
29.67
29.67
29.32
29.57
1,022,486
11/26/2014
28.99
29.72
28.97
29.68
3,239,561
11/25/2014
28.98
29.32
28.87
28.97
1,998,928
11/24/2014
28.75
29.06
28.48
29.045
1,938,838
11/21/2014
29.31
29.38
28.8
28.93
1,812,565
11/20/2014
28.76
29.0337
28.5501
28.83
1,433,469
11/19/2014
29.21
29.4
28.58
28.78
3,056,282
11/18/2014
28.94
29.34
28.72
29.32
1,705,427
11/17/2014
29.38
29.5501
29.04
29.37
1,677,330
11/14/2014
29.38
29.65
29.05
29.57
1,254,147
11/13/2014
29.57
29.77
29.21
29.3
1,660,468
11/12/2014
29.41
29.58
29.33
29.45
966,069
11/11/2014
29.68
29.77
29.19
29.49
1,177,509
11/10/2014
29.55
29.96
29.55
29.71
1,137,542
11/07/2014
29.74
29.74
29.25
29.595
1,638,598
11/06/2014
29.66
29.96
29.49
29.67
1,650,185
11/05/2014
29.46
29.85
28.95
29.75
1,322,755
11/04/2014
29.41
29.65
29.27
29.33
1,283,837
11/03/2014
29.42
29.64
29.28
29.54
1,945,267
10/31/2014
29.33
30.19
29.09
29.34
3,238,968
10/30/2014
28.75
28.93
28.14
28.4
2,001,771
10/29/2014
28.9
28.99
28.55
28.87
1,969,089
10/28/2014
28.63
28.94
28.37
28.93
2,194,693
10/27/2014
28.63
28.84
28.01
28.52
2,641,174
10/24/2014
27.98
29.82
27.5
28.74
7,440,385
10/23/2014
27.43
27.68
27.39
27.66
3,057,594
10/22/2014
27.75
27.97
27.24
27.27
2,420,075
10/21/2014
26.84
27.66
26.81
27.6
3,359,539
10/20/2014
26.28
26.76
26.07
26.66
3,173,732
10/17/2014
26.41
26.63
26.12
26.26
2,549,838
10/16/2014
25.36
26.21
25.3
25.99
3,455,572
10/15/2014
25.3
26.115
25.28
25.78
4,497,936
10/14/2014
26.43
26.81
25.86
25.98
2,973,787
10/13/2014
26.1
26.89
25.79
25.94
4,334,371
10/10/2014
27.3
27.74
25.7176
26.12
9,487,954
10/09/2014
28.95
28.95
27.85
27.87
3,570,064
10/08/2014
28.48
29.055
28.22
28.97
2,540,764
10/07/2014
29.12
29.21
28.36
28.41
3,365,946
10/06/2014
29.8
30.16
29.19
29.22
2,242,661
10/03/2014
29.82
29.87
29.47
29.68
1,536,781
10/02/2014
29.55
29.78
28.92
29.65
2,724,215
10/01/2014
30.26
30.28
29.58
29.64
1,910,909
09/30/2014
30.48
30.575
30.16
30.24
1,508,814
09/29/2014
30.5
30.59
30.06
30.51
2,214,281
09/26/2014
30.39
30.69
30.24
30.67
1,361,548
09/25/2014
30.6
30.82
30.17
30.36
2,157,701
09/24/2014
30.64
30.94
30.56
30.73
1,271,702
09/23/2014
30.53
30.83
30.36
30.53
1,444,470
09/22/2014
30.83
30.947
30.52
30.57
2,060,538
09/19/2014
31.5
31.52
30.92
30.96
2,319,366
09/18/2014
30.98
31.51
30.93
31.42
1,663,856
09/17/2014
30.74
31.11
30.574
30.91
1,288,691
09/16/2014
30.3
30.9
30.27
30.85
1,376,868
09/15/2014
30.43
30.54
30.11
30.41
1,456,372
09/12/2014
30.5
30.89
30.14
30.39
1,972,125
09/11/2014
30.71
30.84
30.25
30.6
3,145,332
09/10/2014
31.11
31.15
30.76
30.84
1,441,142
09/09/2014
30.95
31.37
30.89
31.14
1,625,243
09/08/2014
31.27
31.48
30.95
31.08
1,934,595
09/05/2014
31.4
31.54
31.15
31.3
1,482,486
09/04/2014
30.95
31.68
30.94
31.37
2,712,725
09/03/2014
30.94
31.21
30.67
30.82
3,821,034
09/02/2014
30.97
31.105
30.615
30.76
2,368,203
08/29/2014
31.46
31.48
30.78
30.89
2,879,689
08/28/2014
30.67
31.27
30.67
31.14
1,474,220
08/27/2014
30.87
31.04
30.71
30.85
1,615,665
08/26/2014
30.92
31.02
30.81
30.91
1,285,008
08/25/2014
31.12
31.19
30.8
30.84
1,008,368
08/22/2014
31.1
31.17
30.89
31.05
1,050,625
08/21/2014
30.93
31.12
30.74
31.02
1,109,014
08/20/2014
30.62
31
30.62
30.96
1,715,956
08/19/2014
30.75
30.88
30.55
30.75
1,557,387
08/18/2014
30.34
30.8
30.34
30.8
2,679,067
08/15/2014
30.82
30.91
30.28
30.74
2,720,393
08/14/2014
30.43
30.68
30.43
30.59
1,703,646
08/13/2014
30.63
31
30.245
30.53
3,985,141
08/12/2014
30.58
30.75
30.37
30.61
1,554,010
08/11/2014
30.72
30.94
30.53
30.6
1,320,865
08/08/2014
30.15
30.59
30.03
30.54
1,999,081
08/07/2014
30.18
30.3465
29.965
30.01
2,860,002
08/06/2014
29.79
30.27
29.51
30.21
2,197,408
08/05/2014
29.45
30.04
29.4
29.84
2,248,997
08/04/2014
29.82
29.91
29.461
29.63
1,821,261
08/01/2014
29.45
29.94
29.405
29.85
2,916,566
07/31/2014
29.5
29.52
29.19
29.31
2,196,889
07/30/2014
29.29
29.83
29.29
29.72
2,997,511
07/29/2014
30.59
30.59
29.74
29.77
3,399,499
07/28/2014
29.51
30.31
29.51
30.25
5,090,348
07/25/2014
28.25
29.53
27.95
29.38
13,450,690
07/24/2014
33
33.16
32.76
32.94
3,398,742
07/23/2014
34.15
34.15
32.875
32.98
3,448,717
07/22/2014
34.26
34.42
34.06
34.11
2,104,577
07/21/2014
33.85
34.285
33.8301
34.05
1,681,790
07/18/2014
33.58
34.09
33.45
34.09
1,918,815
07/17/2014
33.51
33.8
33.37
33.38
2,289,134
07/16/2014
33.69
33.92
33.59
33.7
982,266
07/15/2014
33.15
33.72
33.12
33.53
2,025,278
07/14/2014
34.15
34.15
33.86
33.92
1,145,183
07/11/2014
34.04
34.07
33.78
33.97
1,008,515
07/10/2014
33.7
34.17
33.49
33.93
1,531,372
07/09/2014
34.02
34.195
33.72
34.12
1,827,281
07/08/2014
34.19
34.43
33.835
34.14
1,940,674
07/07/2014
34.45
34.55
34.24
34.37
1,365,663
07/03/2014
34.38
34.68
34.18
34.46
1,030,448
07/02/2014
34.01
34.435
34.01
34.23
1,351,427
07/01/2014
33.96
34.35
33.82
34.17
1,579,970
06/30/2014
34.03
34.05
33.61
33.81
2,086,717
06/27/2014
33.79
33.94
33.61
33.91
2,691,512
06/26/2014
34.16
34.26
33.45
33.91
1,574,675
06/25/2014
34.02
34.02
33.48
33.97
1,726,163
06/24/2014
34.31
34.4801
33.89
33.93
1,673,908
06/23/2014
34.46
34.6
34.095
34.17
2,564,278
06/20/2014
34.75
34.755
34.43
34.58
2,646,148
06/19/2014
34.95
34.95
34.32
34.64
2,010,210
06/18/2014
35.24
35.256
34.65
34.79
1,500,306
06/17/2014
34.97
35.255
34.89
35.09
1,545,144
06/16/2014
34.96
35.22
34.71
35.02
1,303,146
06/13/2014
35.4
35.47
34.9
35
2,400,111
06/12/2014
35.17
35.37
35.025
35.09
2,243,723
06/11/2014
35.28
35.61
35
35.21
1,660,667
06/10/2014
35.42
35.73
35.2301
35.38
1,924,518
06/09/2014
35.26
35.76
35.15
35.41
2,214,418
06/06/2014
35.33
35.53
34.82
34.93
2,358,543
06/05/2014
34.53
35.52
34.42
35.35
3,688,869
06/04/2014
34.16
34.62
34.16
34.45
1,787,729
06/03/2014
34.11
34.43
33.95
34.2
2,335,387
06/02/2014
34.27
34.45
34.12
34.2
1,548,148
05/30/2014
34.32
34.49
34.14
34.25
2,854,882
05/29/2014
34.31
34.5
34.22
34.5
1,599,958
05/28/2014
34.08
34.4
33.91
34.23
2,202,230
05/27/2014
34.17
34.495
34.15
34.19
3,095,077
05/23/2014
33.87
34.4
33.79
34.39
3,234,295
05/22/2014
33.36
33.98
33.36
33.82
3,693,833
05/21/2014
33.17
33.48
32.86
33.22
3,053,048
05/20/2014
33.17
33.375
32.91
33
4,573,229
05/19/2014
32.25
33.56
32.16
33.53
5,587,013
05/16/2014
31.81
32.24
31.74
32.22
1,856,299
05/15/2014
32.01
32.17
31.71
32.06
3,112,655
05/14/2014
31.92
32.3
31.83
32.11
2,207,735
05/13/2014
32.24
32.31
31.86
31.91
1,875,492
05/12/2014
31.8
32.12
31.76
32.1
4,765,784
05/09/2014
31.92
31.92
31.44
31.63
2,663,714
05/08/2014
31.82
32.24
31.59
31.87
3,136,231
05/07/2014
31.93
32.04
31.66
31.95
2,071,918
05/06/2014
32.15
32.25
31.76
31.83
1,788,454
05/05/2014
32.06
32.34
31.89
32.18
1,571,966
05/02/2014
32.29
32.54
32.19
32.36
1,765,191
05/01/2014
32.4
32.785
32
32.17
1,852,571
04/30/2014
32.04
32.44
31.73
32.44
2,418,515
04/29/2014
32.21
32.4
31.93
32.06
1,750,417
04/28/2014
31.72
32.26
31.44
32.13
3,543,307
04/25/2014
33.25
33.7
31.425
31.55
4,383,423
04/24/2014
32.83
33.095
32.6
32.99
3,368,716
04/23/2014
32.67
32.92
32.45
32.69
1,724,936
04/22/2014
32.15
32.74
32.08
32.68
2,279,222
04/21/2014
32.2
32.47
32.03
32.22
1,200,886
04/17/2014
31.75
32.31
31.615
32.08
1,945,200
04/16/2014
32.25
32.32
31.43
31.78
2,135,707
04/15/2014
32.02
32.29
31.6
32.22
2,222,113
04/14/2014
31.8
32.02
31.52
31.88
1,466,594
04/11/2014
32.1
32.45
31.3
31.49
3,747,216
04/10/2014
33
33.1
32.37
32.41
2,455,458
04/09/2014
32.91
33.14
32.07
32.99
2,894,272
04/08/2014
32.67
32.94
32.45
32.9
2,082,268
04/07/2014
32.56
32.805
32.3
32.51
2,609,328
04/04/2014
33.75
33.7816
32.58
32.68
2,749,335
04/03/2014
33.29
33.74
33.29
33.52
2,569,619
04/02/2014
33.17
33.71
33.107
33.27
3,541,498
04/01/2014
33.17
33.19
32.74
33.12
2,835,274
03/31/2014
32.46
33.13
32.38
33.12
3,931,435
03/28/2014
32.26
32.49
32.09
32.29
1,969,963
03/27/2014
32.14
32.52
31.95
32
1,360,912
03/26/2014
32.64
32.78
32.03
32.15
1,673,479
03/25/2014
32.4
32.74
32.3
32.445
1,961,968
03/24/2014
32.13
32.4
31.71
32.21
2,317,640
03/21/2014
32.6
32.74
31.76
31.898
5,990,340
03/20/2014
32.41
32.747
32.16
32.66
1,778,025
03/19/2014
32.76
32.93
32.27
32.43
1,581,845
03/18/2014
32.4
32.88
32.28
32.81
1,913,219
03/17/2014
32.08
32.4
31.88
32.39
2,928,792
03/14/2014
31.68
32.08
31.64
31.75
2,628,331
03/13/2014
32.38
32.53
31.69
31.89
2,990,453
03/12/2014
32.12
32.53
32.03
32.37
2,547,421
03/11/2014
32.68
32.86
32.16
32.19
2,081,083
03/10/2014
32.74
33
32.51
32.74
1,431,430
03/07/2014
32.91
32.99
32.64
32.76
2,248,601
03/06/2014
32.005
32.8875
32.005
32.63
2,171,082
03/05/2014
32.62
33.09
32.41
32.7
2,770,491
03/04/2014
32.45
32.85
32.38
32.71
2,807,662
03/03/2014
32.27
32.36
31.89
32.09
2,653,387
02/28/2014
32.17
32.745
32.01
32.71
3,431,790
02/27/2014
32.02
32.25
31.85
32.11
2,074,392
02/26/2014
31.91
32.24
31.79
32.09
2,484,812
02/25/2014
31.85
32.07
31.33
31.87
5,817,309
02/24/2014
31.28
31.83
31.07
31.74
3,435,635
02/21/2014
31.42
31.43
30.9
31.16
1,994,978
02/20/2014
31.35
31.415
30.84
31.3
2,461,574
02/19/2014
30.94
31.49
30.91
31.28
1,931,608
02/18/2014
31.49
31.5
31.05
31.11
3,152,453
02/14/2014
31.06
31.67
31.02
31.49
3,108,574
02/13/2014
30.6
31.29
30.53
31.25
2,375,240
02/12/2014
30.43
30.795
30.41
30.64
2,905,840
02/11/2014
30.35
30.55
30.25
30.39
1,504,583
02/10/2014
30.21
30.4
29.95
30.27
2,793,304
02/07/2014
29.63
29.74
29.38
29.64
2,434,745
02/06/2014
29.56
29.62
29.39
29.44
1,970,491
02/05/2014
29.33
29.56
29.1
29.45
2,223,603
02/04/2014
30
30.13
29.32
29.48
3,266,205
02/03/2014
30.04
30.34
29.77
29.86
5,208,669
01/31/2014
30.04
30.355
29.81
30.26
4,752,120
01/30/2014
30
30.245
29.62
30.18
3,746,114
01/29/2014
29.76
30.12
29.47
29.67
4,434,241
01/28/2014
29.34
30.09
29
29.92
7,564,843
01/27/2014
29.4
29.4
28.58
28.59
3,848,246
01/24/2014
29.62
30.2
29.01
29.2
6,753,261
01/23/2014
28.71
28.88
28.495
28.88
3,508,770
01/22/2014
28.78
29.05
28.59
28.87
2,989,255
01/21/2014
28.8
28.89
28.59
28.7
3,086,569
01/17/2014
28.45
28.9
28.45
28.55
3,290,606
01/16/2014
28.2
28.525
27.72
28.51
6,087,000
01/15/2014
28.37
28.64
28.24
28.42
5,248,426
01/14/2014
28.08
28.57
28.08
28.24
3,638,072
01/13/2014
28.27
28.43
27.92
27.96
2,888,327
01/10/2014
28.11
28.54
28.1
28.15
3,927,602
01/09/2014
28.81
28.94
28.44
28.44
2,148,912
01/08/2014
28.89
29.04
28.78
28.78
2,094,899
01/07/2014
28.99
29.06
28.745
28.78
3,163,918
01/06/2014
28.84
28.985
28.49
28.96
4,692,284
01/03/2014
28.5
28.86
28.04
28.73
6,138,177
01/02/2014
27.7
27.94
27.59
27.86
3,148,856
12/31/2013
28.08
28.11
27.79
27.9
2,782,802
12/30/2013
28.09
28.37
27.77
27.91
3,035,039
12/27/2013
28.1
28.21
28.02
28.1
1,812,492
12/26/2013
28.38
28.4
28.04
28.15
1,208,691
12/24/2013
28.29
28.44
28.29
28.31
986,357
12/23/2013
28.52
28.53
28.19
28.2
1,847,511
12/20/2013
27.91
28.36
27.87
28.32
6,010,118
12/19/2013
28.38
28.41
27.695
27.93
3,900,316
12/18/2013
28.11
28.475
27.62
28.41
3,848,977
12/17/2013
27.81
28.1
27.7
27.96
3,314,935
12/16/2013
27.89
28.27
27.88
27.91
3,307,375
12/13/2013
27.75
27.75
27.4
27.74
2,680,705
12/12/2013
27.91
28.03
27.499
27.6
2,271,426
12/11/2013
28.3
28.42
27.86
27.92
2,157,865
12/10/2013
28.29
28.375
28.08
28.26
1,098,672
12/09/2013
28.45
28.58
28.23
28.28
1,316,218
12/06/2013
28.22
28.51
28.22
28.46
3,175,962
12/05/2013
28.14
28.27
27.925
28.04
2,506,014
12/04/2013
28.39
28.5
28.1
28.23
2,073,393
12/03/2013
28.18
28.59
28.18
28.44
3,091,486
12/02/2013
28.65
28.67
28.18
28.22
1,967,677
11/29/2013
28.15
28.67
28.15
28.48
1,478,343
11/27/2013
28.4
28.57
28.22
28.54
2,413,311
11/26/2013
28.47
28.59
28.33
28.41
3,006,020
11/25/2013
28.62
28.62
28.24
28.4
3,369,055
11/22/2013
28.49
28.56
28.31
28.39
2,381,503
11/21/2013
28.4
28.54
28.3
28.48
2,015,949
11/20/2013
28.78
28.8
28.22
28.26
2,435,255
11/19/2013
28.98
29.0525
28.55
28.66
2,261,701
11/18/2013
29.41
29.55
29.1218
29.191
3,200,576
11/15/2013
29.49
29.59
29.18
29.19
2,083,302
11/14/2013
29.3
29.43
29.22
29.37
3,764,958
11/13/2013
28.96
29.41
28.937
29.35
2,701,606
11/12/2013
29.08
29.21
28.93
29.11
2,595,698
11/11/2013
29.01
29.415
28.82
29.14
3,230,389
11/08/2013
28.49
28.98
28.4
28.87
3,105,318
11/07/2013
29.43
29.43
28.44
28.495
4,243,779
11/06/2013
29.02
29.25
28.91
29.25
2,695,356
11/05/2013
29.2
29.43
28.78
29.19
11,160,150
11/04/2013
29.41
29.47
29.16
29.31
2,076,446
11/01/2013
29.87
29.87
29.19
29.37
7,449,390
10/31/2013
29.34
29.76
29.29
29.695
2,448,151
10/30/2013
29.7
29.785
29.33
29.42
2,304,221
10/29/2013
29.61
29.91
29.23
29.545
4,414,069
10/28/2013
30.06
30.25
29.53
29.55
3,788,409
10/25/2013
31
31.4
30.03
30.1
8,277,897
10/24/2013
28.97
29.24
28.82
29.05
4,203,699
10/23/2013
29.33
29.57
28.75
28.92
3,237,774
10/22/2013
30.09
30.2
29.69
29.84
2,726,477
10/21/2013
30.16
30.32
29.88
29.92
1,882,227
10/18/2013
29.74
30
29.57
29.969
1,531,197
10/17/2013
29.31
29.85
28.86
29.645
2,961,959
10/16/2013
29.74
29.99
29.7
29.93
1,181,431
10/15/2013
30.05
30.08
29.62
29.69
1,575,497
10/14/2013
29.48
30.11
29.48
30.08
997,419
10/11/2013
29.56
29.98
29.38
29.74
2,054,920
10/10/2013
29.76
29.76
29.2
29.55
2,615,227
10/09/2013
29.49
29.57
29.025
29.22
1,575,822
10/08/2013
29.86
29.99
29.25
29.42
2,702,513
10/07/2013
29.86
30.14
29.63
29.88
1,129,272
10/04/2013
29.72
30.22
29.54
30.08
3,233,443
10/03/2013
29.65
29.86
29.55
29.6
2,469,572
10/02/2013
29.99
30.365
29.69
29.74
5,520,219
10/01/2013
29.81
30.44
29.78
30.22
3,380,477
09/30/2013
29.19
30.05
29.02
29.82
4,023,795
09/27/2013
29.71
29.71
29.38
29.49
1,805,283
09/26/2013
29.49
29.92
29.43
29.86
2,788,610
09/25/2013
30.05
30.14
29.32
29.47
5,642,600
09/24/2013
29.97
30.26
29.89
30.04
2,740,490
09/23/2013
30.04
30.55
29.97
30.04
5,244,196
09/20/2013
29.87
29.92
29.58
29.68
5,929,460
09/19/2013
29.69
29.75
29.465
29.7
2,756,851
09/18/2013
29.28
29.63
28.935
29.61
2,695,263
09/17/2013
29.19
29.32
29.14
29.31
1,530,413
09/16/2013
29.28
29.355
29.1
29.11
1,488,931
09/13/2013
29.41
29.47
28.93
28.97
2,462,121
09/12/2013
29.01
29.42
28.785
29.31
3,079,750
09/11/2013
28.47
29.17
28.47
29.12
2,916,392
09/10/2013
28.49
28.64
28.37
28.6
2,374,466
09/09/2013
28.32
28.38
28.08
28.31
1,549,283
09/06/2013
28.76
28.76
28.12
28.21
2,064,101
09/05/2013
28.64
28.77
28.385
28.58
1,668,090
09/04/2013
28.23
28.7
28.15
28.63
1,998,276
09/03/2013
28.09
28.65
28.06
28.16
3,015,044
08/30/2013
27.9
28
27.67
27.845
2,711,857
08/29/2013
27.75
28.055
27.62
27.895
1,632,715
08/28/2013
27.55
27.815
27.45
27.71
1,802,275
08/27/2013
27.37
27.56
27.18
27.49
2,538,404
08/26/2013
27.64
27.91
27.48
27.6
1,823,975
08/23/2013
27.73
27.89
27.55
27.71
1,482,538
08/22/2013
27.44
27.72
27.44
27.64
814,696
08/21/2013
27.45
27.67
27.265
27.37
1,762,009
08/20/2013
27.5
27.74
27.4
27.64
1,542,514
08/19/2013
27.89
28.17
27.68
27.7
2,294,966
08/16/2013
27.47
28.09
27.47
27.87
2,583,277
08/15/2013
28.31
28.57
27.73
27.76
4,561,153
08/14/2013
28.83
28.84
28.63
28.74
1,788,908
08/13/2013
28.82
28.88
28.43
28.81
1,859,984
08/12/2013
28.57
28.83
28.54
28.71
2,456,430
08/09/2013
28.76
28.89
28.6
28.69
2,180,715
08/08/2013
28.77
28.995
28.5
28.86
2,269,394
08/07/2013
28.56
28.59
28.22
28.51
3,136,120
08/06/2013
28.91
28.98
28.6
28.68
3,054,804
08/05/2013
29.18
29.235
28.93
29.05
2,071,925
08/02/2013
29.11
29.31
28.89
29.31
2,689,802
08/01/2013
28.77
29.35
28.6632
29.31
3,250,455
07/31/2013
28.71
28.84
28.51
28.6
1,950,266
07/30/2013
28.15
28.76
28.15
28.6
4,023,865
07/29/2013
28.19
28.62
28.05
28.18
4,818,108
07/26/2013
26.93
28.375
26.4872
28.03
13,313,539
07/25/2013
27.26
27.55
27.09
27.42
5,167,873
07/24/2013
27.83
27.83
26.98
27.16
3,302,554
07/23/2013
27.8
27.94
27.55
27.6
3,040,198
07/22/2013
27.79
27.872
27.55
27.64
2,225,892
07/19/2013
27.36
27.8
27.09
27.6
3,450,221
07/18/2013
28.87
28.87
27.35
27.4
5,565,764
07/17/2013
29.08
29.25
28.7
28.75
2,594,847
07/16/2013
29.24
29.39
28.87
29.06
2,081,707
07/15/2013
28.4
29.32
28.26
29.28
4,517,542
07/12/2013
28.57
28.75
28.18
28.37
2,412,806
07/11/2013
28.05
28.62
27.96
28.59
1,749,328
07/10/2013
27.55
27.76
27.38
27.73
2,477,303
07/09/2013
27.36
27.949
27.36
27.73
2,358,364
07/08/2013
28.03
28.07
27.09
27.11
3,481,914
07/05/2013
27.76
27.95
27.53
27.87
2,445,778
07/03/2013
27.49
27.97
27.4
27.72
1,231,139
07/02/2013
27.65
27.84
27.45
27.55
2,027,180
07/01/2013
27.98
28.15
27.63
27.64
1,829,096
06/28/2013
27.72
28.02
27.585
27.78
4,888,108
06/27/2013
28.03
28.17
27.84
27.97
1,521,964
06/26/2013
27.96
28.33
27.74
27.84
1,621,164
06/25/2013
27.49
27.75
27.24
27.69
2,061,942
06/24/2013
27.56
27.73
27.21
27.22
2,938,442
06/21/2013
27.43
28.14
27.43
27.87
4,767,693
06/20/2013
27.88
27.96
27.29
27.36
3,536,946
06/19/2013
28.29
28.56
28.12
28.27
3,284,409
06/18/2013
28.35
28.51
28.11
28.32
2,998,749
06/17/2013
27.88
28.4
27.78
28.19
4,216,286
06/14/2013
27.47
27.87
27.33
27.67
2,920,540
06/13/2013
26.87
27.49
26.7
27.47
4,406,658
06/12/2013
27.7
27.8
26.79
26.91
5,289,571
06/11/2013
27.62
27.75
27.215
27.43
5,194,609
06/10/2013
28.12
28.15
27.57
27.77
6,606,224
06/07/2013
28.95
29.07
28.26
28.48
4,111,572
06/06/2013
29.13
29.32
28.61
28.84
3,186,662
06/05/2013
29.06
29.24
28.75
29.1
3,128,798
06/04/2013
29.64
29.86
29.19
29.21
3,085,443
06/03/2013
29.66
29.66
29.12
29.32
3,216,526
05/31/2013
29.84
29.9
29.48
29.49
3,253,555
05/30/2013
29.34
29.98
29.02
29.86
3,372,554
05/29/2013
29.28
29.57
29
29.36
7,197,371
05/28/2013
30.26
30.53
29.81
29.9
3,740,972
05/24/2013
29.83
30.13
29.56
30.08
2,497,624
05/23/2013
29.98
30.235
29.88
30.02
3,236,854
05/22/2013
30.7
30.82
30.14
30.2
3,519,004
05/21/2013
31.04
31.1
30.615
30.8
3,320,842
05/20/2013
31.23
31.41
30.77
30.92
2,462,545
05/17/2013
31.53
31.72
31.35
31.61
2,437,748
05/16/2013
31.44
31.8
31.22
31.29
2,730,320
05/15/2013
31.54
31.98
31.13
31.54
4,511,506
05/14/2013
32.02
32.14
31.65
31.75
2,205,065
05/13/2013
32.22
32.29
31.89
31.92
1,364,401
05/10/2013
31.93
32.34
31.7
32.32
3,253,849
05/09/2013
31.83
31.84
31.47
31.75
2,718,102
05/08/2013
31.68
31.82
31.535
31.81
2,298,941
05/07/2013
31.65
31.83
31.4
31.63
1,770,637
05/06/2013
31.46
31.97
31.45
31.69
1,690,400
05/03/2013
31.05
31.5
30.885
31.36
2,990,114
05/02/2013
30.589
30.589
30.589
30.589
5,789
05/01/2013
30.99
31.19
30.44
30.5
2,157,497
04/30/2013
30.81
30.985
30.52
30.93
2,699,729
04/29/2013
30.67
30.97
30.42
30.71
2,663,477
04/26/2013
31.5
31.5
30.27
30.67
7,809,373
04/25/2013
32.75
33.11
32.71
32.92
3,162,248
04/24/2013
32.84
33.09
32.6
32.7
2,099,157
04/23/2013
32.23
32.81
32.06
32.77
2,908,180
04/22/2013
31.37
31.94
30.95
31.87
2,275,895
04/19/2013
30.91
31.455
30.63
31.25
2,070,134
04/18/2013
31.66
31.76
30.91
30.95
2,755,661
04/17/2013
32.24
32.27
30.94
31.4
3,085,487
04/16/2013
31.97
32.73
31.86
32.69
1,962,118
04/15/2013
32.1
32.39
31.671
31.74
1,837,123
04/12/2013
32.42
32.435
32.05
32.25
1,770,954
04/11/2013
32.19
32.78
32.19
32.46
1,710,774
04/10/2013
32.14
32.49
32.08
32.375
1,713,530
04/09/2013
31.6
32.22
31.6
32.1
2,854,875
04/08/2013
31.31
31.6
31.07
31.54
2,157,208
04/05/2013
30.94
31.32
30.52
31.25
2,055,301
04/04/2013
31.24
31.51
31.04
31.43
1,711,226
04/03/2013
31.71
31.73
30.962
31.19
2,216,112
04/02/2013
32.09
32.09
31.455
31.6
2,547,028
04/01/2013
32.65
32.7
31.845
31.98
2,424,962
03/28/2013
32.14
32.75
32.1
32.64
2,860,017
03/27/2013
31.84
32.24
31.78
32.15
2,183,798
03/26/2013
31.97
32.25
31.95
32.17
1,798,013
03/25/2013
31.97
32.02
31.5
31.79
1,738,328
03/22/2013
31.81
32.125
31.69
31.77
1,807,648
03/21/2013
31.9
32.23
31.53
31.59
1,904,805
03/20/2013
32.38
32.47
32.1
32.3
1,737,826
03/19/2013
32.45
32.6
31.875
32.14
2,912,705
03/18/2013
32.36
32.56
31.97
32.4
2,762,719
03/15/2013
33.14
33.2397
32.62
32.85
3,327,190
03/14/2013
32.92
33.67
32.92
33.31
3,792,698
03/13/2013
32.32
32.95
32.16
32.93
2,643,653
03/12/2013
31.99
32.5
31.87
32.41
2,464,329
03/11/2013
31.63
32.2
31.63
32.13
1,900,745
03/08/2013
32.09
32.16
31.51
31.82
1,792,806
03/07/2013
31.98
32.27
31.7
31.89
1,994,847
03/06/2013
32.01
32.15
31.6
31.8
2,130,522
03/05/2013
31.38
32.02
31.38
32
2,326,476
03/04/2013
30.94
31.385
30.78
31.14
3,087,399
03/01/2013
31.14
31.315
30.58
31
2,785,571
02/28/2013
31.41
31.64
31.03
31.2
2,304,176
02/27/2013
30.96
31.61
30.93
31.42
1,569,486
02/26/2013
31
31.09
30.68
31.02
1,937,273
02/25/2013
31.4
31.63
30.8
30.82
2,171,674
02/22/2013
31.52
31.71
31.11
31.36
2,840,992
02/21/2013
31.7
31.7
30.94
31.24
3,142,380
02/20/2013
32.74
32.845
31.73
31.77
3,569,166
02/19/2013
32.06
32.84
32.055
32.77
2,027,198
02/15/2013
32.69
32.7
31.96
32.27
2,510,648
02/14/2013
32.42
33.07
32.32
32.94
3,002,642
02/13/2013
32.46
32.58
32.12
32.5
2,352,140
02/12/2013
32.12
32.45
32.07
32.44
2,072,265
02/11/2013
32.23
32.27
31.96
32.21
1,797,593
02/08/2013
31.7
32.39
31.65
32.31
3,437,525
02/07/2013
31.51
31.625
31.245
31.51
3,625,811
02/06/2013
31.29
31.66
31.29
31.61
3,637,122
02/05/2013
31.2
31.91
31.17
31.55
3,329,036
02/04/2013
31.49
31.73
31.17
31.18
3,194,294
02/01/2013
31.74
31.89
31.62
31.67
3,845,061
01/31/2013
31.72
32.19
31.35
31.45
6,365,284
01/30/2013
31.8
32.08
31.64
31.74
2,137,501
01/29/2013
31.91
32.03
31.54
31.88
3,695,175
01/28/2013
31.63
32.41
31.538
32.2
3,138,926
01/25/2013
31.05
31.85
31
31.63
3,617,687
01/24/2013
30.67
31.41
30.37
30.99
2,600,495
01/23/2013
30.69
30.99
30.6
30.95
2,361,591
01/22/2013
30.34
30.83
30.34
30.63
2,157,149
01/18/2013
30.31
30.62
30.25
30.53
2,258,390
01/17/2013
30.34
30.91
30.29
30.67
2,546,367
01/16/2013
29.37
30.48
29.33
30.24
4,251,633
01/15/2013
29.3
29.41
29.06
29.33
3,123,570
01/14/2013
28.69
29.32
28.68
29.15
6,054,311
01/11/2013
30.05
30.13
29.51
29.61
4,284,299
01/10/2013
30.1
30.1
29.518
29.64
3,028,000
01/09/2013
29.68
29.87
29.44
29.86
1,951,371
01/08/2013
29.82
29.92
29.58
29.59
2,415,578
01/07/2013
29.69
30.06
29.66
29.94
1,868,044
01/04/2013
30.41
30.48
29.74
29.8
3,090,832
01/03/2013
30.52
30.83
30.26
30.36
1,954,746
01/02/2013
30.11
30.69
30.01
30.69
2,994,440
12/31/2012
28.9
29.4
28.79
29.4
1,550,361
12/28/2012
28.93
29.32
28.9
28.93
1,233,570
12/27/2012
29.42
29.5287
28.845
29.22
1,721,783
12/26/2012
29.56
29.69
29.325
29.51
1,238,758
12/24/2012
29.45
29.545
29.02
29.49
670,076
12/21/2012
28.88
29.59
28.88
29.42
5,046,430
12/20/2012
29.86
30.05
29.29
29.55
4,467,354
12/19/2012
30.06
30.74
30.02
30.06
3,010,417
12/18/2012
29.71
30.01
29.6
29.88
1,845,372
12/17/2012
29.6
29.9
29.3
29.58
1,983,493
12/14/2012
29.12
29.891
29.05
29.56
2,766,873
12/13/2012
30.12
30.12
29.26
29.37
2,859,577
12/12/2012
30.21
30.43
30.04
30.09
2,037,694
12/11/2012
29.82
30.28
29.79
30.22
3,205,568
12/10/2012
29.45
29.885
29.36
29.79
2,437,564
12/07/2012
29.64
30
29
29.48
2,665,386
12/06/2012
29.2
29.7
29.125
29.63
2,705,546
12/05/2012
28.79
29.2
28.71
29.2
2,343,101
12/04/2012
28.71
29.04
28.555
28.95
2,420,828
12/03/2012
29.11
29.275
28.51
28.63
2,957,203
11/30/2012
29.27
29.6
29.15
29.19
3,125,139
11/29/2012
28.97
29.57
28.85
29.4
3,876,797
11/28/2012
28.11
28.89
28.03
28.85
2,564,135
11/27/2012
28.2
28.58
28.17
28.3
1,587,084
11/26/2012
28
28.49
27.96
28.3
1,736,783
11/23/2012
27.86
28.33
27.6
28.18
926,402
11/21/2012
27.43
27.77
27.4
27.66
2,168,253
11/20/2012
27.36
27.44
27.17
27.44
2,519,957
11/19/2012
27.05
27.47
27.02
27.45
2,341,285
11/16/2012
27.29
27.3793
26.75
27.02
3,359,449
11/15/2012
27.86
27.9293
27.32
27.415
1,903,718
11/14/2012
28.45
28.45
27.81
27.88
1,808,580
11/13/2012
28.37
28.7
28.21
28.3
1,255,706
11/12/2012
28.55
28.66
28.23
28.49
994,882
11/09/2012
28.64
28.84
28.38
28.39
2,576,615
11/08/2012
29.09
29.09
28.645
28.68
2,132,243
11/07/2012
29.2
29.35
28.49
28.6
2,689,154
11/06/2012
28.69
29.58
28.62
29.3894
3,439,496
11/05/2012
28.06
28.86
27.94
28.72
1,826,587
11/02/2012
28.48
28.6
28.05
28.08
2,022,924
11/01/2012
27.39
28.52
27.29
28.52
2,343,105
10/31/2012
27.8
27.85
27.5
27.525
2,206,089
10/26/2012
26.73
28.13
26.5
27.77
3,738,027
10/25/2012
26.49
26.75
26.34
26.49
2,143,539
10/24/2012
26.89
27
26.26
26.28
1,653,873
10/23/2012
26.38
26.81
26.13
26.72
1,662,452
10/22/2012
26.73
26.95
26.465
26.63
1,871,528
10/19/2012
27.37
27.37
26.6
26.64
2,582,547
10/18/2012
27.58
27.59
27.25
27.39
1,751,470
10/17/2012
27.42
27.81
27.07
27.65
1,285,752
10/16/2012
27
27.76
26.96
27.68
1,854,952
10/15/2012
26.69
27.1
26.69
26.96
1,710,670
10/12/2012
26.8
26.95
26.7
26.73
1,559,464
10/11/2012
27.02
27.08
26.75
26.865
1,329,205
10/10/2012
27.29
27.35
26.66
26.72
3,189,413
10/09/2012
27.69
27.82
27.22
27.39
3,589,870
10/08/2012
27.75
28.09
27.66
27.81
2,261,298
10/05/2012
27.58
28.06
27.5
27.79
2,291,185
10/04/2012
27.41
27.54
27.26
27.48
1,389,507
10/03/2012
27.32
27.6
27.27
27.33
1,959,867
10/02/2012
27.21
27.4
26.95
27.22
2,346,012
10/01/2012
26.68
27.34
26.57
27.2
4,076,403
09/28/2012
26.9
26.9
26.32
26.6222
2,204,411
09/27/2012
26.69
27.06
26.39
27.03
5,000,696
09/26/2012
26.19
26.26
25.54
26.085
2,770,751
09/25/2012
26.69
26.8
26.09
26.16
2,151,339
09/24/2012
26.87
27.01
26.41
26.46
2,352,321
09/21/2012
27.05
27.25
26.95
27.04
3,211,549
09/20/2012
27.38
27.47
26.78
26.93
3,203,175
09/19/2012
27.47
27.71
27.34
27.51
1,714,389
09/18/2012
27.44
27.67
27.365
27.58
1,605,231
09/17/2012
28.05
28.11
27.48
27.65
3,464,812
09/14/2012
27.51
28.3
27.475
28.17
3,204,057
09/13/2012
27.11
27.47
26.86
27.385
2,345,731
09/12/2012
27.39
27.59
26.99
27.15
2,544,776
09/11/2012
27.4
27.6193
27.29
27.35
1,955,991
09/10/2012
27.93
27.955
27.38
27.4
1,723,813
09/07/2012
27.96
28.0983
27.89
27.97
2,179,145
09/06/2012
27.16
28.22
27.16
28.095
3,270,433
09/05/2012
27.22
27.31
27.06
27.08
3,400,554
09/04/2012
27.05
27.39
26.86
27.32
2,395,927
08/31/2012
27.1
27.29
26.72
27.14
2,272,998
08/30/2012
26.94
27.13
26.82
26.95
1,879,825
08/29/2012
26.96
27.38
26.89
27.12
2,776,060
08/28/2012
27.11
27.265
26.84
26.85
3,815,331
08/27/2012
26.63
27.67
26.59
27.07
3,810,754
08/24/2012
27.975
28.34
27.93
28.16
2,794,575
08/23/2012
27.88
28.09
27.67
27.99
2,025,655
08/22/2012
28.04
28.2495
27.738
27.93
2,516,857
08/21/2012
28.28
28.52
28.05
28.25
1,954,146
08/20/2012
28.54
28.6
28.06
28.31
1,988,137
08/17/2012
28.87
28.87
28.47
28.8
1,979,946
08/16/2012
28.46
28.96
28.46
28.8
1,709,727
08/15/2012
28.33
28.715
28.33
28.46
1,919,059
08/14/2012
28.5
28.69
28.39
28.53
2,216,355
08/13/2012
28.35
28.46
28.03
28.33
2,221,679
08/10/2012
28.21
28.56
28.21
28.5
1,667,956
08/09/2012
28.13
28.48
28.13
28.42
1,825,562
08/08/2012
28.17
28.44
28.01
28.32
1,744,575
08/07/2012
27.68
28.36
27.68
28.21
2,611,790
08/06/2012
27.58
27.8
27.55
27.59
1,571,269
