





08/04/2017
43.07
43.11
42.61
42.74
1,937,416
08/03/2017
43.34
43.34
42.74
42.91
2,420,867
08/02/2017
43.65
43.79
43.04
43.41
1,539,125
08/01/2017
43.72
43.83
43.16
43.55
2,709,883
07/31/2017
43.67
43.82
43.11
43.42
2,473,339
07/28/2017
43.66
43.86
43.09
43.49
2,691,837
07/27/2017
44.32
44.97
43.65
44.01
4,254,821
07/26/2017
44.87
44.87
44.025
44.36
3,385,307
07/25/2017
44.58
44.94
44.21
44.76
3,699,221
07/24/2017
44.4
45.23
44.4
44.86
3,068,985
07/21/2017
44.56
45.24
44.18
44.76
4,566,565
07/20/2017
44.18
44.69
44.09
44.6
3,852,240
07/19/2017
43.88
44.5299
43.83
44.16
3,698,070
07/18/2017
43.25
43.88
43.18
43.77
3,116,655
07/17/2017
43.2
43.76
43
43.62
5,416,468
07/14/2017
42.04
43.9
42
43.64
8,559,175
07/13/2017
40.17
41.5
40.04
41.38
4,017,879
07/12/2017
39.45
40.19
39.1701
40.17
2,622,573
07/11/2017
38.55
39.11
38.51
39.07
2,240,165
07/10/2017
38.5
38.91
38.35
38.57
2,294,559
07/07/2017
38.44
38.83
38.32
38.64
1,884,306
07/06/2017
39.33
39.39
38.2
38.3
2,587,020
07/05/2017
39.55
40.25
39.475
39.66
2,572,225
07/03/2017
40.44
40.5
39.53
39.57
1,568,751
06/30/2017
40.18
40.38
39.73
40.05
3,951,971
06/29/2017
40.28
40.38
39.55
40.1
3,244,814
06/28/2017
39.8
40.59
39.6
40.41
2,659,526
06/27/2017
40.14
40.35
39.62
39.63
2,779,761
06/26/2017
39.87
40.515
39.87
40.29
3,330,742
06/23/2017
39.13
40.07
39.01
39.87
8,417,822
06/22/2017
38.59
39.36
38.58
39.11
3,109,403
06/21/2017
38.36
38.86
38.3501
38.61
2,470,638
06/20/2017
38.27
38.65
38.25
38.26
2,249,916
06/19/2017
38.17
38.495
38.04
38.42
2,589,455
06/16/2017
37.94
38.11
37.78
37.98
2,744,049
06/15/2017
37.72
38.1
37.43
37.97
2,220,815
06/14/2017
38.94
39.01
37.78
38.1
2,916,888
06/13/2017
38.95
39.37
38.7
38.95
2,887,497
06/12/2017
39.14
39.66
38.65
38.86
4,254,954
06/09/2017
39.87
40.395
39.13
39.52
3,003,787
06/08/2017
39.21
40.12
39.09
40.01
3,577,793
06/07/2017
38.86
39.57
38.71
39.27
2,479,938
06/06/2017
38.7
39.23
38.67
38.7
2,533,154
06/05/2017
39.19
39.7
38.95
38.98
2,651,854
06/02/2017
39.51
39.75
39.24
39.41
3,236,314
06/01/2017
39.85
40.25
39.54
39.61
4,178,074
05/31/2017
40.49
40.88
40.16
40.49
3,418,639
05/30/2017
40.12
40.82
40.09
40.47
3,005,325
05/26/2017
41.19
41.19
40.1
40.24
3,637,559
05/25/2017
39.96
41.2943
39.46
40.96
6,445,563
05/24/2017
39.74
39.8717
39.06
39.56
7,016,496
05/23/2017
40.18
40.215
39.275
39.49
3,257,705
05/22/2017
39.63
40.1
39.5957
39.98
4,239,195
05/19/2017
40.42
40.54
39.49
39.53
3,045,369
05/18/2017
40.12
40.84
39.69
40.15
3,854,698
05/17/2017
41.25
41.265
40.3
40.34
2,403,567
05/16/2017
41.64
41.8
41.38
41.62
3,830,172
05/15/2017
40.01
41.51
40.01
41.5
3,477,615
05/12/2017
39.98
40.05
39.74
39.74
1,299,665
05/11/2017
40.34
40.43
39.791
40.06
2,026,658
05/10/2017
40.22
40.55
40.04
40.43
2,759,677
05/09/2017
40.22
40.605
40.01
40.13
2,218,645
05/08/2017
40.09
40.22
39.9
40.13
2,053,265
05/05/2017
39.83
40.17
39.65
40.16
2,211,525
05/04/2017
40.11
40.33
39.69
39.77
1,868,301
05/03/2017
39.88
40.1
39.73
40.04
1,157,523
05/02/2017
40.18
40.315
39.99
40.13
1,715,491
05/01/2017
40.01
40.27
39.51
40.16
1,819,706
04/28/2017
39.82
39.94
39.43
39.85
2,176,694
04/27/2017
39.73
39.86
39.33
39.76
2,314,245
04/26/2017
39.78
39.9
39.42
39.63
2,257,505
04/25/2017
40.18
40.19
39.945
39.97
1,842,557
04/24/2017
40.09
40.3
39.92
39.94
2,286,797
04/21/2017
40.33
40.35
39.48
39.49
1,859,418
04/20/2017
39.93
40.4
39.8
40.31
2,488,670
04/19/2017
39.85
40.31
39.655
39.75
2,283,619
04/18/2017
39.62
39.88
39.411
39.73
1,512,981
04/17/2017
39.63
39.85
39.43
39.79
2,157,886
04/13/2017
39.65
40.08
39.47
39.49
2,768,794
04/12/2017
40.69
40.72
39.61
39.65
3,138,332
04/11/2017
40.41
40.66
40.07
40.54
3,109,563
04/10/2017
40.89
41
40.36
40.41
2,287,319
04/07/2017
40.97
41.085
40.735
40.8
3,102,779
04/06/2017
41.14
41.27
40.69
41.05
4,348,062
04/05/2017
41.33
42.34
40.83
40.9
5,029,362
04/04/2017
41.42
41.71
41.055
41.19
3,234,269
04/03/2017
41.87
42.07
41.075
41.65
3,464,747
03/31/2017
41.85
42.0493
41.435
41.85
4,608,207
03/30/2017
41.53
42.03
41.4
41.9
3,119,600
03/29/2017
40.9
41.605
40.825
41.59
3,069,244
03/28/2017
40.8
41.36
40.7199
41.15
2,309,053
03/27/2017
40.52
41.11
40.3001
40.9
2,538,881
03/24/2017
41.25
41.6
40.7
40.88
2,686,549
03/23/2017
40.96
41.29
40.79
40.9
3,417,342
03/22/2017
40.97
41.07
40.63
40.98
2,597,434
03/21/2017
42.01
42.09
40.84
40.91
2,917,926
03/20/2017
42.2
42.31
41.93
41.95
2,328,954
03/17/2017
42.25
42.43
42.06
42.06
4,226,847
03/16/2017
42.23
42.44
42.02
42.2
3,181,235
03/15/2017
42.31
42.44
41.89
42.22
2,210,410
03/14/2017
41.99
42.16
41.745
42.03
2,593,749
03/13/2017
42.27
42.39
41.93
41.99
3,139,779
03/10/2017
42.03
42.4
41.89
42.15
2,301,324
03/09/2017
41.96
42.245
41.75
41.98
2,007,440
03/08/2017
42.65
42.83
42.12
42.15
3,888,548
03/07/2017
42.43
43.08
42.35
42.66
3,476,786
03/06/2017
42.58
42.695
42.25
42.57
2,283,175
03/03/2017
42.33
42.83
42.24
42.8
2,572,248
03/02/2017
43.13
43.14
42.245
42.26
4,063,158
03/01/2017
42.02
43.14
41.83
43.01
4,715,125
02/28/2017
41.37
41.96
41.29
41.83
4,647,402
02/27/2017
40.87
41.38
40.77
41.27
3,203,180
02/24/2017
40.66
41.05
40.47
40.95
3,146,068
02/23/2017
40.8
41.11
40.45
40.94
3,177,002
02/22/2017
40.4
40.77
40.32
40.7
2,839,641
02/21/2017
40.16
40.68
40.1109
40.52
3,000,602
02/17/2017
40.3
40.98
40.01
40.17
3,930,630
02/16/2017
40.8
42.18
40.36
40.56
8,172,490
02/15/2017
39.36
39.5
38.85
38.93
4,825,835
02/14/2017
39.9
39.9
39.36
39.52
2,929,221
02/13/2017
39.61
39.84
39.49
39.58
2,844,536
02/10/2017
39.43
39.72
38.97
39.45
2,835,483
02/09/2017
38.9
39.6
38.77
39.31
3,378,449
02/08/2017
38.71
39
38.43
38.96
2,152,665
02/07/2017
38.5
38.87
38.435
38.83
2,459,059
02/06/2017
38.18
38.632
38.13
38.36
2,583,719
02/03/2017
38.32
38.51
38.1
38.28
1,459,313
02/02/2017
37.89
38.36
37.58
38.24
1,565,284
02/01/2017
38.55
38.7
37.895
38.05
1,892,012
01/31/2017
37.85
38.42
37.48
38.32
2,377,821
01/30/2017
38.5
38.97
37.87
38.07
3,517,443
01/27/2017
37.71
37.865
37.3
37.76
1,914,534
01/26/2017
38.02
38.13
37.25
37.6
2,144,022
01/25/2017
37.93
38.5
37.77
37.95
3,174,396
01/24/2017
36.3
37.655
36.2447
37.52
3,172,319
01/23/2017
36.3
36.49
35.77
36.17
2,762,479
01/20/2017
35.89
36.5
35.84
36.37
2,358,949
01/19/2017
35.89
36.19
35.61
35.83
2,625,925
01/18/2017
35.7
36
35.41
35.99
1,313,153
01/17/2017
35.73
35.97
35.46
35.56
1,329,667
01/13/2017
35.81
36.11
35.79
35.93
1,251,218
01/12/2017
35.52
35.88
35.08
35.81
2,069,782
01/11/2017
35.25
35.88
35.25
35.65
3,006,831
01/10/2017
35.28
35.72
35.16
35.25
3,026,010
01/09/2017
35.32
35.47
35.13
35.23
2,140,763
01/06/2017
35.36
35.71
35.16
35.23
1,711,753
01/05/2017
35.66
35.83
35.18
35.36
1,875,539
01/04/2017
35.37
35.95
35.19
35.65
2,481,351
01/03/2017
35.44
36.19
35.09
35.57
3,218,844
12/30/2016
35.84
35.96
35.14
35.27
2,088,709
12/29/2016
35.71
36.12
35.5
35.68
1,506,541
12/28/2016
36.68
36.81
35.8
35.83
1,416,496
12/27/2016
36.29
36.745
36.25
36.61
1,070,813
12/23/2016
36.17
36.53
36.09
36.32
1,091,724
12/22/2016
36.56
36.88
36
36.22
3,237,144
12/21/2016
36.81
37.25
36.39
36.4
1,762,506
12/20/2016
36.91
37.11
36.62
36.83
2,281,299
12/19/2016
36.46
36.765
36.27
36.74
2,565,691
12/16/2016
36.99
37.31
36.27
36.45
13,844,280
12/15/2016
36.21
37.12
36.14
36.99
4,242,191
12/14/2016
35.78
36.74
35.78
36.19
4,510,271
12/13/2016
36.11
36.62
35.93
36
3,750,429
12/12/2016
36.2
36.46
35.53
35.85
2,744,429
12/09/2016
36.45
36.745
36.155
36.41
2,888,863
12/08/2016
36.49
36.81
36.14
36.3
2,807,617
12/07/2016
34.72
36.5
34.72
36.48
3,983,675
12/06/2016
35.58
36.1
35.45
35.97
3,558,957
12/05/2016
36.22
36.31
35.245
35.46
4,820,019
12/02/2016
35.36
36.09
35.3501
35.96
3,094,111
12/01/2016
36.16
36.86
35.345
35.44
4,528,264
11/30/2016
36.56
36.89
36.44
36.56
3,372,168
11/29/2016
36.43
36.86
36.22
36.51
2,766,832
11/28/2016
36.43
36.76
36.2
36.43
2,281,191
11/25/2016
36.32
36.63
36.11
36.61
1,533,737
11/23/2016
36.68
36.8
36.29
36.35
3,341,326
11/22/2016
37.29
37.43
36.575
36.72
3,866,932
11/21/2016
37
37.43
36.66
37.12
3,640,433
11/18/2016
36.82
37.355
36.72
37
4,559,347
11/17/2016
38.45
39
36.74
36.9
14,091,740
11/16/2016
34.75
34.99
34.38
34.73
4,718,508
11/15/2016
34.84
35.31
34.53
34.87
4,339,724
11/14/2016
33.86
35.095
33.83
34.93
4,389,201
11/11/2016
33.47
33.92
33.26
33.86
4,047,072
11/10/2016
33.23
33.97
32.77
33.46
4,225,198
11/09/2016
31.69
33.65
31.23
33.19
5,581,317
11/08/2016
32.14
32.59
31.76
32.49
3,202,562
11/07/2016
31.19
32.13
30.93
32.11
5,081,432
11/04/2016
31.33
31.51
30.36
30.45
8,309,901
11/03/2016
32.5
32.63
32.34
32.45
4,040,352
11/02/2016
33.14
33.52
32.385
32.42
3,328,471
11/01/2016
33.94
33.98
32.43
33.09
4,988,713
10/31/2016
33.74
34.18
33.62
33.94
3,279,064
10/28/2016
33.88
34.15
33.63
33.76
2,159,136
10/27/2016
34.25
34.57
33.74
33.8
2,505,089
10/26/2016
33.76
34.19
33.72
34
2,191,526
10/25/2016
33.87
34.04
33.7068
34
2,803,383
10/24/2016
33.92
34.15
33.84
34.04
1,845,834
10/21/2016
33.66
34.0663
33.3699
33.92
1,980,202
10/20/2016
33.71
34.07
33.44
33.87
1,854,765
10/19/2016
33.55
34.19
33.271
33.68
4,479,752
10/18/2016
33.74
33.86
33.41
33.65
1,471,407
10/17/2016
33.68
33.8
33.4
33.42
3,022,543
10/14/2016
34.05
34.22
33.405
33.53
2,681,419
10/13/2016
33.54
34.04
33.29
33.87
3,253,444
10/12/2016
34.2
34.25
33.74
33.86
2,900,412
10/11/2016
34.76
34.81
33.84
34.08
3,095,550
10/10/2016
34.91
35.085
34.68
34.69
2,202,844
10/07/2016
34.85
34.94
34.58
34.75
2,897,364
10/06/2016
34.92
35.08
34.64
34.79
2,532,275
10/05/2016
34.94
35.3444
34.85
34.94
2,334,120
10/04/2016
35.36
35.64
34.78
34.85
2,952,601
10/03/2016
35.58
35.63
34.99
35.36
3,342,395
09/30/2016
35.16
35.94
34.92
35.82
4,510,028
09/29/2016
35.13
35.4
34.5208
34.73
3,680,731
09/28/2016
35.45
35.59
34.87
35.15
2,855,658
09/27/2016
35.15
35.935
35.05
35.34
2,476,833
09/26/2016
34.87
35.8
34.85
35.18
3,486,427
09/23/2016
35.9
36.05
35.35
35.66
2,481,797
09/22/2016
35.88
36.1
35.6418
35.96
1,797,051
09/21/2016
35.37
36.05
35.265
35.705
3,763,114
09/20/2016
35.86
36.09
34.97
34.98
2,621,522
09/19/2016
35.07
36.07
34.95
35.64
3,395,901
09/16/2016
34.92
35.09
34.61
34.81
5,182,676
09/15/2016
34.54
35.39
34.54
35.05
2,942,806
09/14/2016
34.64
34.965
34.32
34.58
2,137,148
09/13/2016
35.1
35.26
34.57
34.74
3,160,480
09/12/2016
33.96
35.19
33.88
35.13
3,540,670
09/09/2016
34.7
34.97
34.16
34.27
3,481,575
09/08/2016
35.42
35.47
34.985
35.06
2,581,881
09/07/2016
35.1
35.68
35.03
35.46
3,066,099
09/06/2016
34.75
35.07
34.7
35.07
2,512,019
09/02/2016
35.16
35.2
34.75
34.9
2,053,574
09/01/2016
34.74
34.99
34.43
34.93
2,336,913
08/31/2016
34.81
34.99
34.33
34.59
3,446,478
08/30/2016
35.14
35.23
34.72
34.91
2,055,593
08/29/2016
35.1
35.39
35.03
35.13
2,043,849
08/26/2016
35.1
35.49
34.74
34.99
3,427,341
08/25/2016
34.68
35.35
34.54
35.04
3,383,882
08/24/2016
35.16
35.47
34.71
34.82
3,859,631
08/23/2016
34.88
35.26
34.77
34.99
3,880,511
08/22/2016
34.7
34.9799
34.38
34.71
5,048,102
08/19/2016
33.57
34.75
33.36
34.71
8,175,949
08/18/2016
31.06
33.9
31.01
33.88
16,236,070
08/17/2016
28.32
29
28.32
28.85
4,160,616
08/16/2016
28.71
29
28.47
28.95
2,956,705
08/15/2016
28.43
28.87
28.43
28.8
2,811,356
08/12/2016
28.02
28.46
27.99
28.45
2,832,635
08/11/2016
27.87
28.45
27.8
28.11
2,343,618
08/10/2016
27.7
27.78
27.49
27.62
2,465,377
08/09/2016
27.49
27.69
27.26
27.68
2,640,564
08/08/2016
27.18
27.45
27.17
27.45
1,829,854
08/05/2016
26.57
27.13
26.47
27.12
1,774,539
08/04/2016
26.3
26.48
26.22
26.45
1,025,292
08/03/2016
25.96
26.28
25.91
26.22
1,119,519
08/02/2016
26.65
26.76
25.92
26.05
2,103,953
08/01/2016
26.3
26.78
25.82
26.65
3,088,493
07/29/2016
26.33
26.49
25.88
26.35
2,755,388
07/28/2016
26.36
26.495
26.24
26.37
1,443,914
07/27/2016
26.77
26.95
26.23
26.38
2,464,557
07/26/2016
26.44
26.66
26.33
26.6
2,129,494
07/25/2016
26.5
26.58
26.2
26.36
2,108,267
07/22/2016
26.09
26.49
25.77
26.47
2,688,539
07/21/2016
25.82
26.1
25.68
25.99
1,708,889
07/20/2016
25.56
25.94
25.39
25.9
1,431,988
07/19/2016
25.38
25.84
24.94
25.54
2,777,519
07/18/2016
25.08
25.55
25.04
25.55
1,505,681
07/15/2016
25.42
25.46
25.13
25.27
1,739,091
07/14/2016
25.67
25.73
25.18
25.29
3,154,806
07/13/2016
25.23
25.68
25.02
25.51
2,516,196
07/12/2016
25.01
25.32
24.84
25.16
3,275,010
07/11/2016
24.7
24.88
24.42
24.42
1,764,772
07/08/2016
24.16
24.585
24.065
24.54
2,521,283
07/07/2016
23.75
24.17
23.655
23.94
1,943,081
07/06/2016
23.38
23.63
23.08
23.61
2,388,473
07/05/2016
24.14
24.2
23.39
23.48
2,221,000
07/01/2016
24.54
24.86
24.165
24.29
2,830,278
06/30/2016
24.4
24.62
24.04
24.59
3,496,141
06/29/2016
23.52
24.6
23.49
24.47
5,781,331
06/28/2016
23.12
23.46
22.99
23.18
3,418,593
06/27/2016
24.48
24.5
22.89
22.96
4,685,946
06/24/2016
24.5
25.29
24.5
24.72
8,296,809
06/23/2016
25.47
26.03
25.26
26.02
2,376,938
06/22/2016
25.27
25.575
25.16
25.19
2,354,879
06/21/2016
25.33
25.41
25.19
25.32
2,983,775
06/20/2016
25.17
25.48
25.05
25.31
2,835,958
06/17/2016
24.5
24.97
24.25
24.86
4,524,244
06/16/2016
24.21
24.58
24.14
24.47
2,466,783
06/15/2016
24.25
24.71
24.13
24.43
4,322,644
06/14/2016
24.26
24.5701
24.035
24.21
3,960,884
06/13/2016
24.49
24.81
24.34
24.36
3,283,862
06/10/2016
24.67
24.84
24.39
24.49
2,258,501
06/09/2016
25.06
25.13
24.73
24.9
2,168,643
06/08/2016
25.14
25.325
25.04
25.14
2,699,895
06/07/2016
25
25.2
24.93
25.04
2,437,975
06/06/2016
25.03
25.15
24.9
25.01
2,618,273
06/03/2016
24.99
25.04
24.57
24.94
2,755,564
06/02/2016
24.83
25.37
24.4101
24.99
3,169,182
06/01/2016
24.44
25.23
24.04
25.07
4,810,313
05/31/2016
25.28
25.69
25.15
25.53
4,654,259
05/27/2016
25.07
25.644
24.94
25.31
4,568,309
05/26/2016
23.61
25.115
23.5
24.9
8,045,847
05/25/2016
25.31
26.31
25.31
25.52
5,658,218
05/24/2016
24.79
25.32
24.79
25.21
4,205,608
05/23/2016
24.21
24.7276
24.18
24.69
2,992,890
05/20/2016
23.43
24.27
23.43
24.22
2,761,412
05/19/2016
23.62
23.78
23.2532
23.4
2,058,912
05/18/2016
23.62
23.945
23.507
23.83
2,378,381
05/17/2016
23.35
23.885
23.26
23.59
2,576,541
05/16/2016
23
23.5
22.87
23.39
1,860,668
05/13/2016
22.88
23.335
22.75
23.04
2,632,488
05/12/2016
23.47
23.54
22.8301
22.99
2,753,148
05/11/2016
23.46
23.6
23.23
23.33
2,393,671
05/10/2016
23.16
23.47
23.01
23.47
2,204,903
05/09/2016
23.19
23.205
22.92
23.01
2,127,570
05/06/2016
22.7
23.235
22.5
23.15
2,723,589
05/05/2016
22.98
23.1
22.77
22.82
3,251,687
05/04/2016
22.87
23.03
22.75
22.9
2,731,854
05/03/2016
23.16
23.16
22.76
23
2,831,605
05/02/2016
23.69
23.79
23.2
23.3
2,395,699
04/29/2016
24.17
24.17
23.38
23.64
3,862,308
04/28/2016
24.65
24.69
24.28
24.31
2,582,742
04/27/2016
24.46
24.75
24.36
24.73
2,303,084
04/26/2016
24.54
24.76
24.46
24.53
2,719,393
04/25/2016
24.11
24.6
24.1
24.52
2,706,004
04/22/2016
24.14
24.69
24.0881
24.24
2,346,071
04/21/2016
24.17
24.3
24.09
24.11
2,849,492
04/20/2016
24.3
24.38
23.44
24.12
5,518,621
04/19/2016
24.93
25.118
24.39
24.44
3,233,244
04/18/2016
24.55
24.83
24.32
24.78
4,765,763
04/15/2016
25.64
25.64
25.06
25.12
3,158,462
04/14/2016
26.29
26.29
25.22
25.64
3,447,677
04/13/2016
26.32
26.7
26.24
26.7
2,180,640
04/12/2016
26.13
26.3
25.7
26.13
2,002,161
04/11/2016
25.91
26.57
25.635
26.12
2,064,226
04/08/2016
25.97
26.4
25.71
25.81
2,046,193
04/07/2016
26.35
26.53
25.54
25.72
3,185,868
04/06/2016
26.5
26.6
25.925
26.56
3,225,842
04/05/2016
26.5
26.83
26.22
26.63
2,792,041
04/04/2016
26.89
26.89
26.53
26.62
1,777,619
04/01/2016
26.99
27.19
26.59
26.97
2,813,426
03/31/2016
26.71
27.3
26.66
27.29
3,149,221
03/30/2016
27.36
27.5
26.39
26.66
3,164,108
03/29/2016
26.35
27.299
26.1
27.26
2,625,653
03/28/2016
26.39
26.75
26.35
26.48
1,563,827
03/24/2016
26.26
26.44
25.66
26.34
1,844,967
03/23/2016
27.19
27.2
26.27
26.38
2,044,179
03/22/2016
26.57
27.27
26.52
27.15
2,397,493
03/21/2016
26.58
27
26.52
26.79
3,301,666
03/18/2016
26.78
27.51
26.52
27.24
4,171,861
03/17/2016
26.38
26.76
26.27
26.66
2,107,477
03/16/2016
25.68
26.37
25.46
26.29
2,137,393
03/15/2016
26.49
26.54
25.66
25.83
3,134,117
03/14/2016
26.78
27.08
26.37
26.61
3,491,451
03/11/2016
26.62
27.07
26.185
27.06
4,003,846
03/10/2016
25.77
26.59
25.77
26.33
3,333,321
03/09/2016
26.15
26.57
26.09
26.17
4,162,892
03/08/2016
26.59
26.73
25.875
25.95
3,069,210
03/07/2016
25.82
27.25
25.56
26.87
5,916,284
03/04/2016
26.14
26.37
25.72
26
4,322,520
03/03/2016
25.76
26.17
25.43
26.07
3,092,383
03/02/2016
25.48
25.85
25.18
25.69
2,732,105
03/01/2016
25.04
25.79
24.89
25.54
3,006,454
02/29/2016
25.04
25.14
24.8
24.84
4,220,644
02/26/2016
24.88
25.56
24.38
25.12
3,668,680
02/25/2016
24.97
24.97
24.44
24.63
4,072,051
02/24/2016
24.14
25.045
23.88
24.99
4,542,530
02/23/2016
24.76
24.89
24.29
24.32
4,653,828
02/22/2016
24.87
25.46
24.87
24.97
4,688,811
02/19/2016
23.91
24.795
23.7
24.64
7,297,908
02/18/2016
22.97
24.33
22.9
23.93
9,829,209
02/17/2016
23.21
23.66
23.16
23.55
5,849,666
02/16/2016
22.08
23.14
21.88
23.09
5,391,780
02/12/2016
21.18
22.055
20.89
21.89
5,065,381
02/11/2016
21.96
22.04
21.22
21.73
5,544,508
02/10/2016
22.26
22.87
22.1
22.38
4,240,734
02/09/2016
22.07
22.64
21.995
22.04
3,523,308
02/08/2016
22.33
22.585
22.03
22.35
4,213,827
02/05/2016
22.57
23.08
22.44
22.64
4,058,157
02/04/2016
21.76
23.15
21.47
22.58
3,617,802
02/03/2016
22.14
22.355
21.315
22.2
3,973,599
02/02/2016
21.69
21.963
21.505
21.56
3,855,504
02/01/2016
21.69
21.9
21.38
21.86
3,819,950
01/29/2016
21.66
22.38
21.39
21.93
5,123,661
01/28/2016
21.52
21.62
21.25
21.48
4,165,985
01/27/2016
21.93
22.24
21.235
21.31
3,732,674
01/26/2016
21.26
22.07
21.25
22.03
5,272,355
01/25/2016
21.56
21.575
21.18
21.22
3,262,547
01/22/2016
21.79
22.14
21.34
21.51
3,072,498
01/21/2016
21.47
21.805
21.11
21.35
3,500,634
01/20/2016
21.17
21.56
20.66
21.35
3,788,265
01/19/2016
22.56
22.58
21.285
21.45
5,330,671
01/15/2016
22.33
22.51
21.46
22.25
6,811,255
01/14/2016
22.65
23.425
22.64
23.215
5,989,090
01/13/2016
22.76
23.3098
22.38
22.52
6,177,928
01/12/2016
23.2
23.3
22.295
22.6
4,090,056
01/11/2016
23.2
23.21
22.47
22.98
4,001,286
01/08/2016
23.46
23.565
22.93
23
4,284,434
01/07/2016
24.15
24.46
23.15
23.37
6,395,821
01/06/2016
24.8
25.1
24.61
24.69
3,793,538
01/05/2016
26.09
26.18
25.36
25.4
4,239,184
01/04/2016
26.16
26.24
25.81
26.02
4,495,551
12/31/2015
26.82
26.87
26.53
26.53
3,371,049
12/30/2015
26.78
27.0125
26.78
26.87
3,003,591
12/29/2015
26.64
26.97
26.504
26.88
3,207,178
12/28/2015
26.49
26.77
26.17
26.57
3,527,340
12/24/2015
26.66
27.16
26.46
26.52
2,460,075
12/23/2015
26.32
26.91
26.28
26.52
5,504,739
12/22/2015
25.66
26.8
25.21
26.23
10,490,990
12/21/2015
27.84
27.84
27.44
27.6
3,198,316
12/18/2015
28.09
28.27
27.41
27.6
7,790,284
12/17/2015
29.06
29.062
28.075
28.3
3,897,615
12/16/2015
28.58
29.28
28.53
28.94
3,657,345
12/15/2015
28.92
29.01
28.521
28.57
6,822,416
12/14/2015
29.37
29.37
28.3
28.67
4,698,086
12/11/2015
29.54
29.71
28.94
29.06
3,367,517
12/10/2015
30.12
30.5
29.85
30.19
3,178,111
12/09/2015
31.02
31.18
30.015
30.12
3,218,832
12/08/2015
31.25
31.39
31.01
31.08
3,618,543
12/07/2015
31.3
31.64
31.2
31.53
5,269,718
12/04/2015
30.89
31.31
30.62
31.28
3,214,448
12/03/2015
31.02
31.03
30.38
30.86
4,044,849
12/02/2015
30.85
31.13
30.7
30.93
2,525,991
12/01/2015
30.29
31
30.2201
30.97
2,473,827
11/30/2015
30.73
30.98
30.61
30.66
2,849,388
11/27/2015
30.77
30.9
30.59
30.69
949,217
11/25/2015
30.99
31.01
30.71
30.76
1,864,667
11/24/2015
30.81
31.095
30.69
30.93
2,044,261
11/23/2015
31.11
31.59
30.93
31.01
2,370,616
11/20/2015
31.12
31.245
30.5
31.05
3,363,812
11/19/2015
31.35
31.48
30.12
30.97
7,206,379
11/18/2015
31.2
31.47
30.76
31.04
5,728,338
11/17/2015
31.48
31.935
31.14
31.3
3,816,351
11/16/2015
31.28
31.65
31.18
31.49
2,793,703
11/13/2015
31.38
31.8731
30.83
31.31
3,980,219
11/12/2015
31.69
32.44
31.69
31.84
4,147,369
11/11/2015
33.48
33.51
32.31
32.43
3,901,551
11/10/2015
34.01
34.03
33.21
33.33
2,433,110
11/09/2015
34.31
34.38
33.96
34.14
2,221,600
11/06/2015
33.96
34.44
33.88
34.4
2,314,444
11/05/2015
33.95
34.6
33.93
34.2
3,309,830
11/04/2015
34.49
34.53
33.77
33.82
2,834,387
11/03/2015
34.28
34.73
34.18
34.49
2,015,098
11/02/2015
33.93
34.39
33.86
34.38
2,187,547
10/30/2015
33.97
34.09
33.3901
34
1,900,746
10/29/2015
33.73
34.065
33.61
33.76
1,732,013
10/28/2015
33.56
34.08
33.375
34.06
2,682,236
10/27/2015
32.97
33.54
32.86
33.36
3,926,424
10/26/2015
33.92
34.025
33.11
33.15
3,371,933
10/23/2015
34.5
34.81
34.22
34.67
2,917,693
10/22/2015
33.56
34.4
33.34
34.38
2,748,345
10/21/2015
33.78
33.845
33.32
33.4
2,948,204
10/20/2015
33.53
33.84
33.5
33.72
2,017,760
10/19/2015
33.74
33.92
33.6011
33.68
1,626,077
10/16/2015
33.79
33.83
33.48
33.82
2,326,515
10/15/2015
33.63
33.78
33.37
33.78
3,037,347
10/14/2015
33.46
33.95
33.42
33.88
3,204,987
10/13/2015
33.1
33.87
32.9011
33.43
3,464,579
10/12/2015
33.57
33.66
32.68
33.37
4,380,378
10/09/2015
32.3
33.195
32.3
33.16
4,768,220
10/08/2015
31.62
32.28
31.46
32.27
3,788,789
10/07/2015
31.34
31.769
31.07
31.53
3,385,480
10/06/2015
30.84
31.58
30.84
31.33
2,896,387
10/05/2015
30.18
30.9501
30.121
30.89
2,336,394
10/02/2015
28.89
29.93
28.8501
29.93
2,737,790
10/01/2015
29.65
29.75
28.87
29.24
3,108,458
09/30/2015
29.2
29.73
28.75
29.6
4,669,206
09/29/2015
29.25
29.725
28.81
28.95
3,255,942
09/28/2015
29.36
29.66
29.09
29.1
3,037,653
09/25/2015
29.58
29.7
29.37
29.57
4,860,401
09/24/2015
29.5
29.89
29.11
29.49
3,338,707
09/23/2015
30.14
30.18
29.54
29.7
2,587,971
09/22/2015
30.29
30.39
29.74
30.07
5,679,292
09/21/2015
31.43
31.72
31.145
31.22
2,690,994
09/18/2015
31.81
32.12
31.175
31.36
7,854,178
09/17/2015
32.34
32.73
32.16
32.21
2,740,808
09/16/2015
32.02
32.48
31.91
32.36
2,060,406
09/15/2015
31.38
32.215
31.22
32.19
3,790,402
09/14/2015
31.62
31.62
31.045
31.14
2,103,699
09/11/2015
31.18
31.59
31.05
31.58
1,930,060
09/10/2015
31.07
31.64
30.95
31.36
2,416,820
09/09/2015
31.73
31.945
31.07
31.12
2,495,287
09/08/2015
30.9
31.545
30.78
31.49
3,501,384
09/04/2015
30.75
30.95
30.5201
30.57
3,484,043
09/03/2015
31.27
31.69
31.115
31.19
3,113,046
09/02/2015
31.42
31.45
30.8901
31.27
2,849,411
09/01/2015
31.07
31.28
30.8
30.955
4,465,103
08/31/2015
31.52
32.04
31.41
31.96
4,863,372
08/28/2015
31.34
31.835
31.31
31.62
3,294,926
08/27/2015
30.85
31.44
30.73
31.39
4,360,546
08/26/2015
29.64
30.64
29.46
30.58
5,507,728
08/25/2015
30.51
30.51
29.05
29.07
6,642,946
08/24/2015
28.96
30.84
28.88
29.87
8,996,419
08/21/2015
30.44
31.19
30.21
30.21
7,085,161
08/20/2015
31.98
32.29
30.48
30.78
14,091,080
08/19/2015
30.2
30.27
29.535
29.78
6,233,740
08/18/2015
30.4
30.73
29.915
30.28
3,342,072
08/17/2015
30.25
30.56
30
30.54
3,448,043
08/14/2015
30.45
30.8
30.45
30.75
2,415,660
08/13/2015
30.94
31.06
30.54
30.62
2,008,826
08/12/2015
30.55
30.99
30.28
30.99
2,917,988
08/11/2015
31.35
31.36
30.56
30.71
1,957,417
08/10/2015
30.75
31.68
30.75
31.5
2,831,974
08/07/2015
30.59
30.89
30.47
30.52
1,911,138
08/06/2015
30.96
30.9999
30.519
30.69
2,813,474
08/05/2015
30.86
31.24
30.55
30.87
3,243,964
08/04/2015
30.64
30.76
30.44
30.58
2,118,916
08/03/2015
31.17
31.45
30.5701
30.69
1,828,828
07/31/2015
31.62
31.62
31.1
31.15
2,641,858
07/30/2015
30.9
31.64
30.84
31.57
2,484,428
07/29/2015
30.89
31.17
30.81
30.96
3,508,784
07/28/2015
31
31.11
30.77
30.95
4,003,841
07/27/2015
30.87
31.03
30.62
30.8
3,924,549
07/24/2015
31.46
31.62
31.03
31.1
3,067,417
07/23/2015
31.23
32.18
31.11
31.4
4,703,205
07/22/2015
30.68
31.25
30.4201
31.15
3,544,321
07/21/2015
30.84
30.92
30.25
30.89
3,281,668
07/20/2015
31.19
31.29
30.87
30.94
4,063,190
07/17/2015
31.17
31.21
30.97
31.14
3,505,098
07/16/2015
31.14
31.37
31.06
31.22
3,851,202
07/15/2015
31.21
31.3985
30.93
31.14
4,241,064
07/14/2015
30.97
31.1
30.72
30.89
2,913,229
07/13/2015
30.69
30.97
30.5
30.91
2,656,449
07/10/2015
30.74
30.92
30.4
30.6
2,364,857
07/09/2015
30.73
30.99
30.26
30.35
4,698,458
07/08/2015
31.62
31.62
30.51
30.6
4,466,018
07/07/2015
31.44
31.63
30.91
31.6
3,726,165
07/06/2015
31.22
31.49
31.1
31.3
2,857,067
07/02/2015
31.5
31.72
31.375
31.495
2,803,150
07/01/2015
32.28
32.28
31.46
31.59
2,782,030
06/30/2015
31.88
31.99
31.42
31.56
3,358,093
06/29/2015
32.04
32.37
31.63
31.675
4,804,619
06/26/2015
32.62
32.84
32.24
32.36
4,692,397
06/25/2015
33.2
33.2854
32.455
32.645
6,070,184
06/24/2015
34.47
34.506
33.085
33.18
5,315,601
06/23/2015
34.16
34.72
34.16
34.55
3,909,235
06/22/2015
34
34.48
33.94
34.39
3,570,841
06/19/2015
33.82
34
33.68
33.93
6,715,556
06/18/2015
33.81
34.07
33.715
33.765
3,324,541
06/17/2015
33.65
33.925
33.56
33.78
3,019,993
06/16/2015
33.45
33.73
33.3
33.55
2,460,124
06/15/2015
33.35
33.61
32.97
33.55
3,627,776
06/12/2015
33.48
33.61
33.27
33.48
2,830,285
06/11/2015
33.54
33.96
33.4
33.68
3,124,767
06/10/2015
33.92
33.92
33.18
33.54
5,439,208
06/09/2015
33.29
33.39
32.97
33.1
3,983,166
06/08/2015
33.95
33.98
32.92
33.16
4,179,384
06/05/2015
33.87
34
33.52
33.94
5,039,985
06/04/2015
33.01
33.87
32.94
33.865
5,443,100
06/03/2015
33.4
33.83
33.21
33.245
3,286,907
06/02/2015
33.04
33.58
32.98
33.335
5,554,385
06/01/2015
33.27
33.4
32.87
33.155
4,318,957
05/29/2015
33.26
33.42
32.97
33.4
7,223,708
05/28/2015
33.01
33.35
32.83
33.26
3,661,289
05/27/2015
32.67
33.1
32.58
33.02
4,781,502
05/26/2015
32.97
33.14
32.33
32.56
5,684,233
05/22/2015
31.65
33.26
31.46
33.14
12,062,100
05/21/2015
31.05
32.129
30.85
31.77
25,739,880
05/20/2015
35.4
35.68
35.17
35.33
4,625,180
05/19/2015
34.69
35.54
34.57
35.35
4,520,525
05/18/2015
35.37
35.48
34.74
34.8
6,203,336
05/15/2015
36
36.1
35.39
35.4
3,879,047
05/14/2015
35.63
36.055
35.51
35.96
3,470,948
05/13/2015
34.9
35.375
34.75
35.3
4,991,461
05/12/2015
34.75
35.05
34.62
34.86
3,604,093
05/11/2015
35.28
35.44
34.78
34.955
5,266,305
05/08/2015
35.69
35.88
35.35
35.645
2,589,534
05/07/2015
35.43
35.77
35.23
35.57
1,863,231
05/06/2015
35.9
36.03
35.325
35.39
2,910,035
05/05/2015
36.54
36.66
35.85
35.91
2,126,262
05/04/2015
36.7
36.98
36.62
36.71
1,489,263
05/01/2015
36.45
36.79
36.33
36.69
1,271,591
04/30/2015
36.54
36.9557
36.17
36.25
2,558,368
04/29/2015
36.37
37.07
36.28
36.8
3,079,560
04/28/2015
36.43
36.67
36.13
36.6
1,486,069
04/27/2015
36.12
36.585
35.96
36.37
2,725,679
04/24/2015
36.36
36.36
35.92
36.12
2,276,153
04/23/2015
36.01
36.42
35.98
36.29
1,701,398
04/22/2015
36.01
36.295
35.96
36.14
1,881,491
04/21/2015
36.19
36.21
35.74
36
3,194,874
04/20/2015
36.24
36.43
35.8
35.99
2,855,635
04/17/2015
36.09
36.55
35.65
35.97
4,618,339
04/16/2015
36.57
36.66
36.22
36.36
3,150,491
04/15/2015
35.95
36.75
35.74
36.73
3,795,300
04/14/2015
35.32
35.98
35.23
35.87
4,476,919
04/13/2015
35.47
35.68
35.38
35.41
2,480,964
04/10/2015
35.71
35.78
35.19
35.47
4,165,685
04/09/2015
35.69
35.92
35.45
35.74
3,285,671
04/08/2015
35.75
35.92
35.43
35.82
3,282,902
04/07/2015
36.07
36.16
35.77
35.805
3,231,627
04/06/2015
35.36
36.14
35.21
36.03
2,686,874
04/02/2015
35.32
35.93
35.14
35.625
4,376,085
04/01/2015
35.4
35.43
34.94
35.27
2,787,781
03/31/2015
35.34
35.7
35.06
35.46
2,945,028
03/30/2015
35.22
35.44
35.01
35.38
3,443,522
03/27/2015
35.64
35.64
34.975
35.1
4,975,924
03/26/2015
35.43
35.68
35.26
35.55
5,171,059
03/25/2015
35.79
36.09
35.61
35.745
4,567,267
03/24/2015
36.74
36.79
35.83
35.85
6,218,676
03/23/2015
36.52
36.84
36.42
36.635
3,895,709
03/20/2015
36.9
37.5
36.7
37.32
3,993,298
03/19/2015
37.28
37.42
36.64
36.7
3,773,787
03/18/2015
36.78
37.5599
36.53
37.3
3,277,144
03/17/2015
37.11
37.4
36.74
36.78
2,189,758
03/16/2015
36.97
37.17
36.69
37.16
2,109,504
03/13/2015
37.21
37.44
36.46
36.815
3,875,259
03/12/2015
37.71
38.86
37.22
37.405
4,017,602
03/11/2015
37.87
38.11
37.585
37.815
2,390,544
03/10/2015
38.15
38.26
37.93
37.94
4,051,813
03/09/2015
38.21
38.49
38.05
38.44
3,176,150
03/06/2015
38.4
38.76
38.1
38.2
2,471,887
03/05/2015
37.82
38.6
37.72
38.545
2,793,961
03/04/2015
37.94
38.14
37.55
37.8
3,993,925
03/03/2015
38.36
38.56
37.91
38.03
2,883,837
03/02/2015
38.29
38.93
38.25
38.58
2,182,035
02/27/2015
38.72
38.93
38.39
38.65
2,851,830
02/26/2015
38.65
39.14
38.491
38.65
2,912,952
02/25/2015
38.66
38.78
38.52
38.62
2,136,761
02/24/2015
38.59
38.74
38.11
38.57
3,157,172
02/23/2015
38.19
38.51
37.8001
38.51
2,575,504
02/20/2015
37.9
38.32
37.63
38.2
4,000,926
02/19/2015
37.78
38.06
37.72
37.845
2,765,573
02/18/2015
37.88
38.23
37.64
37.8
3,111,365
02/17/2015
38.06
38.19
37.18
37.79
4,573,256
02/13/2015
37.12
38.41
36.99
38.22
5,255,008
02/12/2015
36.23
37.28
35.88
36.895
14,347,330
02/11/2015
39.22
39.9
39.12
39.79
3,244,094
02/10/2015
39.16
39.46
38.59
39.435
1,953,038
02/09/2015
38.86
39.09
38.7
38.85
1,606,299
02/06/2015
38.91
39.37
38.45
38.87
1,949,529
02/05/2015
38.99
39.14
38.5
38.79
2,028,247
02/04/2015
39.06
39.34
38.7801
38.92
2,634,445
02/03/2015
38.38
39.29
38.23
39.26
2,279,103
02/02/2015
37.8
38.35
37.46
38.29
2,208,338
01/30/2015
37.8
38.36
37.54
37.8
3,105,405
01/29/2015
37.83
38.47
37.69
38.06
3,773,758
01/28/2015
38.45
38.77
37.895
38.005
3,044,812
01/27/2015
38.31
38.77
37.95
38.07
2,203,653
01/26/2015
39.16
39.19
38.41
38.9
2,353,216
01/23/2015
39.7
39.74
39.23
39.48
1,990,737
01/22/2015
38.33
39.68
38.3
39.66
2,378,596
01/21/2015
38.3
38.71
38.14
38.51
1,911,838
01/20/2015
38.89
39.095
38.25
38.53
1,860,569
01/16/2015
38.42
38.78
38.28
38.75
1,944,265
01/15/2015
38.9
38.9
38.23
38.455
3,159,078
01/14/2015
38.94
39.14
38.52
38.89
2,960,072
01/13/2015
39.38
40.42
38.86
39.315
4,002,761
01/12/2015
40.77
40.86
39.64
39.87
2,332,756
01/09/2015
40.45
40.89
40.09
40.645
1,543,577
01/08/2015
39.92
40.89
39.88
40.55
1,959,947
01/07/2015
39.78
39.87
39.43
39.73
1,716,439
01/06/2015
40.05
40.33
39.52
39.685
3,367,733
01/05/2015
41.2
41.37
39.905
40.05
2,802,177
01/02/2015
41.68
41.789
41.02
41.46
2,059,263
12/31/2014
41.56
41.81
41.12
41.45
2,385,366
12/30/2014
41.99
42.21
41.48
41.56
1,548,657
12/29/2014
42.41
42.53
41.98
41.99
1,574,295
12/26/2014
42.91
42.91
42.51
42.55
863,833
12/24/2014
42.99
43.1
42.73
42.81
664,508
12/23/2014
43.01
43.3171
42.83
42.835
1,625,462
12/22/2014
42.94
43.05
42.06
42.94
1,371,943
12/19/2014
42.44
43.46
42.31
42.94
5,755,265
12/18/2014
41.48
42.77
41.01
42.72
3,754,239
12/17/2014
40.36
40.98
40.23
40.85
2,966,478
12/16/2014
40.65
41.14
40.18
40.65
3,470,304
12/15/2014
40.84
41.29
40.33
40.7
3,189,393
12/12/2014
41.68
41.7557
40.66
40.695
2,713,640
12/11/2014
41.97
42.591
41.89
42.19
2,112,676
12/10/2014
42.51
42.845
41.78
41.89
2,754,084
12/09/2014
42.58
42.93
42.29
42.72
1,948,555
12/08/2014
42.99
43.28
42.445
42.62
1,926,099
12/05/2014
43.3
43.58
43.08
43.405
2,584,048
12/04/2014
43.02
43.3
42.81
43.29
2,106,453
12/03/2014
42.1
43.17
42
43.14
2,426,431
12/02/2014
41.69
42.25
41.51
42.02
1,957,655
12/01/2014
42.06
42.27
41.75
41.98
3,419,938
11/28/2014
42.81
42.9
42.42
42.55
1,130,003
11/26/2014
43.02
43.12
42.6
42.7
2,197,910
11/25/2014
42.63
43.1699
42.4575
43.08
2,514,045
11/24/2014
42.41
42.66
42.22
42.63
1,738,004
11/21/2014
42.6
42.6
42.28
42.31
2,867,229
11/20/2014
41.67
42.23
41.61
42.2
2,592,516
11/19/2014
41.94
41.97
41.49
41.81
3,696,829
11/18/2014
42.2
42.2
41.8401
41.89
2,139,656
11/17/2014
42.1
42.32
41.73
42.23
2,327,867
11/14/2014
41.18
42.57
41.09
42.27
4,439,544
11/13/2014
40.53
41.91
40.38
41.085
9,249,111
11/12/2014
42.46
42.48
42
42.31
4,302,597
11/11/2014
42.22
42.44
41.98
42.27
2,200,682
11/10/2014
42.28
42.47
41.895
42.15
3,256,594
11/07/2014
42.88
43.24
42.2
42.3
3,620,811
11/06/2014
43.2
43.67
42.95
43.17
2,082,987
11/05/2014
43.15
43.24
42.57
43.2
1,906,908
11/04/2014
42.89
43.43
42.83
43.02
1,504,838
11/03/2014
42.8
43.45
42.61
43.07
2,224,151
10/31/2014
42.74
42.86
42.44
42.8
2,772,975
10/30/2014
41.22
42.21
41.22
42.11
1,831,102
10/29/2014
41.55
42.09
41.35
41.38
2,780,600
10/28/2014
40.93
41.5
40.795
41.5
2,351,378
10/27/2014
40.58
40.95
40.35
40.55
1,668,759
10/24/2014
40.46
40.74
39.92
40.72
1,981,378
10/23/2014
40.11
40.68
39.78
40.3
2,377,931
10/22/2014
39.32
40.25
39.27
39.66
3,225,939
10/21/2014
38.71
39.35
38.63
39.27
2,492,491
10/20/2014
38.25
38.6
37.44
38.54
4,809,747
10/17/2014
38.67
39.37
38.62
38.82
2,955,692
10/16/2014
37.98
39.32
37.76
38.4
3,313,631
10/15/2014
37.95
38.95
37.735
38.81
4,422,499
10/14/2014
38.43
38.85
38.21
38.53
3,990,367
10/13/2014
38.79
39.09
38.21
38.22
2,649,095
10/10/2014
39.43
39.89
38.9
38.91
3,089,747
10/09/2014
40.18
40.52
39.54
39.57
2,402,007
10/08/2014
39.82
40.31
39.45
40.24
3,225,245
10/07/2014
40.66
40.87
39.71
39.845
4,328,401
10/06/2014
41.56
41.68
40.98
40.99
2,494,230
10/03/2014
41.49
41.86
41.29
41.57
1,589,102
10/02/2014
41.31
41.55
40.7
41.38
1,974,829
10/01/2014
42.62
42.68
41.27
41.33
4,384,776
09/30/2014
42.6
43.09
42.57
42.96
3,608,612
09/29/2014
41.92
42.53
41.8841
42.44
2,796,392
09/26/2014
42.51
42.51
41.88
42.17
3,401,447
09/25/2014
43.24
43.32
42.16
42.17
3,159,504
09/24/2014
43.09
43.48
42.98
43.375
2,563,512
09/23/2014
43.39
43.39
42.96
43.07
2,893,212
09/22/2014
42.99
43.25
42.86
43
3,025,110
09/19/2014
43.6
43.75
42.85
43
5,898,811
09/18/2014
43.18
43.65
43.07
43.4
2,131,263
09/17/2014
42.85
43.25
42.81
43.045
1,916,322
09/16/2014
42.84
43.1
42.61
42.97
2,759,064
09/15/2014
42.51
43.12
42.51
42.865
3,954,130
09/12/2014
42.26
42.51
42.18
42.5
2,116,142
09/11/2014
42.05
42.48
42
42.465
1,385,042
09/10/2014
42.2
42.5
42.005
42.15
2,304,687
09/09/2014
42.25
42.42
41.93
42.04
2,416,172
09/08/2014
42.06
42.2
41.91
42.16
2,843,530
09/05/2014
41.95
42.23
41.81
42.21
2,380,004
09/04/2014
42.1
42.45
41.91
41.91
3,338,705
09/03/2014
42.08
42.29
41.99
42.095
2,215,870
09/02/2014
42.1
42.325
41.93
42.04
2,673,288
08/29/2014
42.06
42.165
41.675
42.16
2,336,844
08/28/2014
41.48
42.07
41.42
41.99
2,946,067
08/27/2014
41.58
41.6931
41.3
41.56
1,850,617
08/26/2014
41.15
41.69
41.1
41.42
2,628,025
08/25/2014
41.25
41.586
41.03
41.19
2,199,091
08/22/2014
40.98
41.15
40.9
41
2,558,376
08/21/2014
40.91
41.15
40.735
40.92
1,804,992
08/20/2014
40.87
41.137
40.74
40.965
2,317,639
08/19/2014
41.08
41.25
40.775
40.83
3,268,279
08/18/2014
41.36
41.62
40.99
41.11
3,323,566
08/15/2014
41.37
41.675
40.88
41.36
5,253,178
08/14/2014
40
41.48
39.5
41.35
11,062,670
08/13/2014
39.31
39.49
39.05
39.3
3,713,782
08/12/2014
39.21
39.43
38.97
39.29
3,234,379
08/11/2014
39.21
39.45
38.81
39.32
3,045,763
08/08/2014
38.37
39.06
38.37
39
2,995,094
08/07/2014
39.11
39.36
38.255
38.44
3,220,512
08/06/2014
38.47
38.99
38.39
38.8
2,448,492
08/05/2014
38.65
39.33
38.47
38.66
3,318,396
08/04/2014
38.47
38.92
38.3201
38.76
3,360,718
08/01/2014
38.76
38.8
38.18
38.54
3,197,103
07/31/2014
38.17
39.06
38.17
38.84
4,899,114
07/30/2014
38.76
39.3
38.69
39.12
3,623,745
07/29/2014
38.57
38.78
38.43
38.58
3,429,106
07/28/2014
37.9
38.58
37.8
38.55
3,695,497
07/25/2014
38.07
38.18
37.97
38.13
2,348,964
07/24/2014
37.89
38.205
37.8
38.12
2,640,024
07/23/2014
37.62
37.99
37.39
37.93
3,857,482
07/22/2014
37.34
37.82
37.16
37.76
2,947,670
07/21/2014
36.88
37.24
36.8
37.09
2,407,209
07/18/2014
36.83
36.94
36.57
36.92
3,135,218
07/17/2014
36.55
37.07
36.36
36.7
3,910,437
07/16/2014
36.68
37
36.54
36.88
4,226,167
07/15/2014
36.35
36.84
36.35
36.68
2,806,640
07/14/2014
37.25
37.29
36.225
36.38
3,495,952
07/11/2014
36.67
37.13
36.6
37.13
2,782,602
07/10/2014
36.19
37.01
36.03
36.64
3,200,936
07/09/2014
37.02
37.1299
36.385
36.49
2,928,955
07/08/2014
37.06
37.21
36.46
36.73
4,717,220
07/07/2014
37.8
37.83
37.02
37.22
4,281,049
07/03/2014
37.17
37.91
37.0505
37.83
3,325,177
07/02/2014
36.66
37.11
36.55
37.11
2,685,147
07/01/2014
36.65
36.71
36.34
36.61
4,563,658
06/30/2014
36.49
37.19
36.36
36.52
7,268,338
06/27/2014
35.68
35.82
35.35
35.48
6,107,516
06/26/2014
35.92
36.04
35.59
35.78
2,360,035
06/25/2014
36.05
36.17
35.52
36
3,232,367
06/24/2014
35.84
36.97
35.46
36.09
5,179,182
06/23/2014
35.95
36.1
35.33
35.85
2,596,836
06/20/2014
36.5
36.5
35.59
35.79
3,532,845
06/19/2014
36.4
36.59
35.86
36.23
2,949,678
06/18/2014
35.85
36.58
35.66
36.47
4,019,538
06/17/2014
35.64
35.83
35.48
35.71
2,306,241
06/16/2014
35.51
36.04
35.46
35.68
2,176,963
06/13/2014
35.59
35.92
35.37
35.66
2,551,247
06/12/2014
35.74
35.77
35.47
35.53
2,574,394
06/11/2014
35.88
35.99
35.62
35.94
1,941,972
06/10/2014
35.86
35.88
35.545
35.86
2,578,716
06/09/2014
35.81
36.096
35.43
35.74
4,678,785
06/06/2014
36.39
36.4
35.77
35.83
3,941,869
06/05/2014
36.22
36.35
35.97
36.12
4,118,238
06/04/2014
36.42
36.5
36.09
36.26
3,091,193
06/03/2014
37.31
37.41
36.34
36.59
4,817,161
06/02/2014
36.19
37.69
36.19
37.51
5,457,853
05/30/2014
37.01
37.11
36.68
37.01
4,353,707
05/29/2014
37
37.17
36.645
37.05
3,562,181
05/28/2014
36.58
36.98
36.2701
36.84
5,288,536
05/27/2014
35.86
36.635
35.729
36.63
4,492,114
05/23/2014
36.34
36.44
35.16
35.76
8,483,394
05/22/2014
34.83
36.67
34.82
36.16
10,435,910
05/21/2014
34.13
34.63
34.02
34.49
4,634,975
05/20/2014
34.07
34.25
33.66
33.95
4,338,750
05/19/2014
33.63
34.38
33.63
34.29
4,561,617
05/16/2014
34.61
34.86
33.41
33.715
7,406,105
05/15/2014
34.53
34.78
33.99
34.701
5,306,427
05/14/2014
34.57
35
34.4
34.57
3,840,610
05/13/2014
33.81
34.88
33.63
34.8
5,941,924
05/12/2014
33.72
34.05
33.385
33.59
4,886,830
05/09/2014
33.87
34.24
33.58
34.19
3,104,515
05/08/2014
33.67
34.21
33.49
33.84
3,978,085
05/07/2014
34.37
34.6
33.34
33.7
7,316,509
05/06/2014
35.67
35.67
34.869
34.98
3,536,366
05/05/2014
35.53
35.87
35.26
35.84
1,912,892
05/02/2014
35.68
35.895
35.26
35.54
2,138,296
05/01/2014
35.69
36.28
35.32
35.54
2,965,043
04/30/2014
35.28
35.72
35.1
35.61
2,583,950
04/29/2014
35.38
35.63
35.21
35.42
2,663,288
04/28/2014
35.17
35.4
34.21
35.16
3,622,502
04/25/2014
35.59
35.59
34.95
35
2,260,751
04/24/2014
36.28
36.48
35.585
35.62
6,516,009
04/23/2014
35.87
36.07
35.45
35.87
3,546,152
04/22/2014
35.91
36.28
35.91
36.045
4,649,640
04/21/2014
35.87
36.19
35.8
35.94
2,950,481
04/17/2014
36.1
36.24
35.53
35.87
3,863,804
04/16/2014
36.81
36.89
35.74
36.24
4,000,359
04/15/2014
37
37.31
36.58
36.995
4,027,598
04/14/2014
36.28
36.82
36.08
36.79
3,584,044
04/11/2014
36.2
36.5
35.88
35.97
3,637,789
04/10/2014
37.43
37.95
36.415
36.44
4,353,204
04/09/2014
37.02
37.7
36.89
37.66
3,795,790
04/08/2014
36.26
37.05
36.14
37
3,734,921
04/07/2014
37.4
37.62
36.29
36.3
5,006,663
04/04/2014
37.91
38.299
37.32
37.53
8,188,801
04/03/2014
37.61
37.81
37.35
37.52
2,833,562
04/02/2014
37.22
37.71
37.1
37.64
3,025,990
04/01/2014
36.92
37.2
36.58
37.115
3,094,007
03/31/2014
36.75
37.1099
36.23
36.9
4,297,011
03/28/2014
36.33
36.81
36.1
36.18
5,168,824
03/27/2014
36.73
36.99
36.26
36.26
10,473,600
03/26/2014
37.32
37.6
36.69
36.69
6,264,866
03/25/2014
36.7
37.17
36.63
37.09
4,438,277
03/24/2014
36.63
36.98
36.0411
36.58
8,000,573
03/21/2014
37.47
37.99
37.14
37.8
7,786,296
03/20/2014
37.06
37.54
36.98
37.095
9,153,006
03/19/2014
37.48
37.63
37.005
37.09
4,464,897
03/18/2014
37.36
37.63
37.19
37.46
4,973,496
03/17/2014
36.93
37.5
36.6201
37.3
9,344,568
03/14/2014
37.16
37.81
36.525
36.57
8,979,840
03/13/2014
37.28
37.62
36.62
37.16
10,204,030
03/12/2014
37.35
37.89
36.99
37.85
6,744,988
03/11/2014
38
38.015
37.4
37.44
6,814,395
03/10/2014
37.94
38.03
37.6
37.81
6,784,195
03/07/2014
39.22
39.22
37.53
37.9
11,456,050
03/06/2014
39.99
40.08
38.55
39.03
7,862,928
03/05/2014
40.24
40.32
39.66
39.81
4,946,030
03/04/2014
40.88
41.03
40
40.18
4,335,851
03/03/2014
40.1
40.65
39.85
40.5
3,690,346
02/28/2014
40.65
40.89
40.17
40.41
2,850,775
02/27/2014
40.17
40.7
40.06
40.62
3,018,641
02/26/2014
40.355
40.43
39.73
40.28
3,863,461
02/25/2014
40.16
40.31
39.65
39.85
3,228,301
02/24/2014
39.89
40.265
39.73
40.085
3,237,000
02/21/2014
40.03
40.17
39.65
39.89
4,414,826
02/20/2014
40.52
40.67
39.8
40.18
5,200,309
02/19/2014
40.47
40.897
40.46
40.53
3,191,914
02/18/2014
40.68
40.9
40.575
40.62
3,773,302
02/14/2014
41.05
41.34
40.68
40.72
5,222,601
02/13/2014
40.39
41.25
39.85
41.1
11,232,800
02/12/2014
43.66
44.28
42.46
42.59
9,282,264
02/11/2014
43.5
43.93
43.11
43.69
6,736,159
02/10/2014
42.72
43.56
42.59
43.27
4,454,662
02/07/2014
41.94
42.99
41.5501
42.82
3,794,698
02/06/2014
41.57
42.09
41.45
41.71
4,736,968
02/05/2014
41.65
41.95
40.69
41.57
4,507,794
02/04/2014
42.23
42.48
41.41
42.1
2,692,812
02/03/2014
43.32
43.635
41.7
41.94
5,791,335
01/31/2014
42.61
42.84
41.92
42.34
3,323,485
01/30/2014
43.24
43.28
42.63
43.14
2,223,307
01/29/2014
43.38
43.61
42.7
42.76
3,969,020
01/28/2014
43.88
43.99
43.39
43.74
4,572,961
01/27/2014
44.09
44.44
43.67
43.71
2,941,102
01/24/2014
45.72
45.72
43.92
43.96
5,440,563
01/23/2014
44.92
45.96
44.92
45.85
4,338,073
01/22/2014
44.96
45.7
44.8
45.45
6,430,520
01/21/2014
44.68
45.52
44.51
44.89
5,726,346
01/17/2014
43.04
44.72
42.79
44.49
6,670,748
01/16/2014
43.23
43.84
43.18
43.28
5,181,792
01/15/2014
40.63
43.51
40.33
43.51
11,069,860
01/14/2014
39.68
40.38
39.6
40.19
4,945,530
01/13/2014
40.27
40.49
39.61
39.7
3,915,639
01/10/2014
40.71
40.8
40.27
40.37
2,041,507
01/09/2014
40.98
41.14
40.51
40.65
3,477,305
01/08/2014
40.88
41.06
40.69
41.05
2,939,974
01/07/2014
40.2
40.83
40.0863
40.815
2,745,253
01/06/2014
40.52
40.61
40.06
40.15
2,703,165
01/03/2014
40.38
40.62
40.22
40.33
1,475,620
01/02/2014
41.01
41.01
40.415
40.42
2,427,140
12/31/2013
41.16
41.44
41
41.14
1,547,964
12/30/2013
40.73
41.085
40.71
40.98
1,918,532
12/27/2013
40.33
40.81
40.32
40.7
1,943,615
12/26/2013
40.22
40.66
40.22
40.31
1,862,533
12/24/2013
40.32
40.54
40.28
40.38
1,799,866
12/23/2013
40.61
40.68
40.23
40.38
3,208,894
12/20/2013
40.71
40.93
40.41
40.49
4,969,695
12/19/2013
40
40.65
39.95
40.64
2,866,623
12/18/2013
40.02
40.055
39
40.04
3,567,141
12/17/2013
39.84
40.115
39.58
39.95
3,202,156
12/16/2013
40
40.19
39.79
40.03
2,930,387
12/13/2013
39.81
39.925
39.2956
39.77
3,780,487
12/12/2013
39.99
40.11
39.34
39.6
5,612,386
12/11/2013
41.39
41.46
39.99
40.06
3,861,343
12/10/2013
41.3
41.8
41.14
41.46
3,455,358
12/09/2013
41.39
41.84
41.24
41.26
3,260,111
12/06/2013
41.95
41.95
41.43
41.57
2,883,198
12/05/2013
40.57
41.46
40.57
41.45
5,517,728
12/04/2013
39.7314
40.89
39.7314
40.67
4,046,900
12/03/2013
40.77
41.159
40.6
40.74
2,345,759
12/02/2013
40.5
41.24
40.5
41
3,235,320
11/29/2013
41.12
41.34
40.9
41.25
1,731,076
11/27/2013
40.9
41.27
40.79
41.24
1,931,532
11/26/2013
40.9
41.03
40.78
40.89
2,867,433
11/25/2013
40.78
40.92
40.55
40.77
1,791,633
11/22/2013
40.4
40.68
40.08
40.64
3,599,941
11/21/2013
39.95
40.67
39.95
40.39
2,970,948
11/20/2013
40.61
40.79
40.32
40.36
2,162,058
11/19/2013
40.5
40.91
40.3
40.59
2,851,581
11/18/2013
40.77
41.58
40.5
40.57
4,254,935
11/15/2013
41.12
41.5
40.65
41.42
5,476,371
11/14/2013
41.13
42.685
40.72
41.07
10,528,520
11/13/2013
40.21
41.3
39.75
41.29
6,957,347
11/12/2013
39.94
40.44
39.7
40.2
5,935,502
11/11/2013
39.75
39.97
39.53
39.87
2,856,872
11/08/2013
39.63
39.93
39.32
39.91
4,985,194
11/07/2013
38.46
39.62
38.45
39.45
7,631,858
11/06/2013
38.55
38.89
38.34
38.77
4,011,542
11/05/2013
38.55
38.75
38.5
38.51
3,781,013
11/04/2013
38.48
39.03
38.48
38.75
4,356,737
11/01/2013
38.98
39.28
38.83
39.135
4,165,572
10/31/2013
38.74
39.25
38.68
38.81
6,122,628
10/30/2013
39.94
39.98
38.85
38.93
5,010,880
10/29/2013
39.95
40.215
39.66
39.765
4,635,178
10/28/2013
39.49
39.93
39.03
39.69
4,926,953
10/25/2013
39.57
39.6
39.23
39.39
3,713,204
10/24/2013
39.22
39.44
39.07
39.29
2,930,092
10/23/2013
40.45
40.45
38.93
39.06
8,840,998
10/22/2013
40.99
41.15
40.45
40.71
7,289,075
10/21/2013
41.41
41.715
41.38
41.65
3,279,382
10/18/2013
40.71
41.54
40.5
41.37
4,780,076
10/17/2013
40
40.7
39.79
40.64
5,787,159
10/16/2013
40.81
40.88
40.25
40.44
6,683,238
10/15/2013
41.26
41.44
40.34
40.7
12,023,180
10/14/2013
41.27
41.94
41.18
41.73
4,145,560
10/11/2013
41.46
41.66
41.13
41.57
5,854,948
10/10/2013
41.5
41.79
41.4
41.6
4,726,932
10/09/2013
41.64
41.76
41.215
41.41
5,269,865
10/08/2013
42.11
42.25
41.51
41.65
4,784,512
10/07/2013
42.04
42.215
41.74
41.92
5,508,722
10/04/2013
42.1
42.37
42.1
42.27
4,490,728
10/03/2013
42.71
42.86
42
42.1
6,358,485
10/02/2013
42.82
43.145
42.51
42.84
3,656,873
10/01/2013
42.67
43.125
42.48
43.05
3,880,326
09/30/2013
42.06
42.79
42.06
42.62
4,606,732
09/27/2013
42.88
43.04
42.47
42.58
4,011,077
09/26/2013
42.99
43.38
42.84
43.13
4,970,729
09/25/2013
42.98
43.205
42.61
42.73
6,168,939
09/24/2013
42.47
43.45
42.45
42.88
6,567,323
09/23/2013
42.97
43.615
42.97
43.26
3,934,794
09/20/2013
44.12
44.12
43.17
43.2
8,750,596
09/19/2013
44.1
44.65
44.04
44.32
3,659,148
09/18/2013
43.85
44.25
43.68
43.99
3,464,332
09/17/2013
43.48
43.98
43.46
43.82
3,129,678
09/16/2013
43.99
44.01
43.24
43.55
4,752,173
09/13/2013
43.79
43.83
43.33
43.77
4,092,068
09/12/2013
43.3
43.82
43.25
43.65
4,545,831
09/11/2013
43.02
43.69
43.02
43.43
4,457,284
09/10/2013
42.86
43.31
42.85
43.09
4,123,331
09/09/2013
42.88
42.98
42.37
42.76
5,901,837
09/06/2013
42.15
42.365
41.67
42.24
8,196,707
09/05/2013
41.96
42.32
41.85
42.11
3,360,923
09/04/2013
42
42.43
41.7
42.07
5,427,940
09/03/2013
41.62
42.13
41.62
41.82
5,744,593
08/30/2013
41.6
41.82
41.385
41.54
2,748,189
08/29/2013
41.31
41.8
41.3
41.6
3,238,894
08/28/2013
41.51
41.69
41.28
41.43
3,218,080
08/27/2013
41.35
41.68
41.29
41.471
5,792,754
08/26/2013
40.8
42.23
40.8
41.85
4,884,190
08/23/2013
42
42.06
41.62
41.95
3,728,336
08/22/2013
41.66
41.94
41.47
41.82
3,370,022
08/21/2013
41.37
41.93
41.31
41.54
4,250,616
08/20/2013
41.84
41.8799
41.47
41.75
6,072,172
08/19/2013
41.88
42.41
41.85
41.89
4,687,122
08/16/2013
42.05
42.41
41.98
42.2
5,902,095
08/15/2013
40.39
42.15
40.2
42.03
13,996,470
08/14/2013
42.42
42.49
41.98
42.33
9,140,035
08/13/2013
42.52
42.76
42.041
42.29
7,211,042
08/12/2013
43.05
43.05
42.5
42.53
6,012,123
08/09/2013
42.54
43.125
42.365
42.52
7,842,361
08/08/2013
42
42.53
42
42.45
11,208,790
08/07/2013
41.58
41.98
41.47
41.7
5,417,579
08/06/2013
41.72
41.9
41.23
41.5
3,466,856
08/05/2013
41.21
41.77
41.2
41.68
4,382,845
08/02/2013
41.55
41.59
41.15
41.24
3,275,151
08/01/2013
41.22
41.71
41.21
41.48
3,559,949
07/31/2013
41.3
41.585
41.08
41.12
4,572,899
07/30/2013
41.11
41.33
40.88
41.07
4,258,122
07/29/2013
41.3
41.3
40.7
40.86
3,981,803
07/26/2013
41.15
41.4225
40.88
41.35
3,109,532
07/25/2013
41.24
41.67
41.19
41.54
4,596,005
07/24/2013
41.2
42.11
41.01
41.27
7,273,831
07/23/2013
41.2
41.59
40.845
40.91
5,716,024
07/22/2013
41.55
41.55
40.8
41.28
6,220,699
07/19/2013
41.14
41.47
40.96
41.33
6,871,359
07/18/2013
40.8
41.39
40.44
40.98
6,849,008
07/17/2013
40.08
40.72
40
40.52
6,027,617
07/16/2013
40.02
40.2
39.84
40.07
4,431,242
07/15/2013
40.06
40.48
39.85
40.1
9,424,437
07/12/2013
39.18
39.41
39.17
39.3
4,426,779
07/11/2013
39.13
39.28
38.845
39.03
3,553,188
07/10/2013
38.68
38.9655
38.47
38.75
3,686,303
07/09/2013
38.69
38.83
38.355
38.67
3,425,450
07/08/2013
38.98
38.99
38.48
38.53
5,083,507
07/05/2013
38.39
38.96
38.33
38.77
2,119,792
07/03/2013
38.17
38.59
38.09
38.31
1,929,206
07/02/2013
37.95
38.47
37.82
38.29
4,741,805
07/01/2013
37.74
38.34
37.72
37.84
3,729,227
06/28/2013
37.68
38.12
37.5
37.78
6,723,774
06/27/2013
38
38.27
37.88
37.96
3,139,538
06/26/2013
37.78
38.07
37.555
37.83
3,703,537
06/25/2013
37.62
37.75
37.07
37.45
5,311,701
06/24/2013
37.65
37.87
37.29
37.39
6,916,311
06/21/2013
38.39
38.495
37.53
37.97
9,190,925
06/20/2013
38.45
38.85
38.02
38.31
5,380,623
06/19/2013
39.35
39.475
38.77
38.98
5,457,504
06/18/2013
38.73
39.51
38.695
39.39
7,046,446
06/17/2013
38.13
38.915
38.1
38.61
5,754,430
06/14/2013
38.46
38.56
37.89
37.905
3,953,831
06/13/2013
38.23
38.54
37.7
38.45
5,715,209
06/12/2013
38.65
38.8
38.21
38.34
7,442,104
06/11/2013
37.68
38.57
37.66
38.17
6,162,031
06/10/2013
37.94
38.22
37.7
38.14
6,266,058
06/07/2013
37.68
38.16
37.55
37.97
5,136,155
06/06/2013
37.58
37.6399
37.08
37.61
6,830,888
06/05/2013
37.27
37.78
37.0201
37.31
8,407,576
06/04/2013
37.37
37.745
37.1
37.29
3,385,866
06/03/2013
37.51
37.77
37.02
37.64
6,683,173
05/31/2013
37.83
38.105
37.52
37.53
5,029,661
05/30/2013
37.87
38.12
37.57
38.01
5,409,897
05/29/2013
37.56
38
37.29
37.72
8,477,475
05/28/2013
36.75
38.25
36.75
37.71
16,258,450
05/24/2013
36.76
36.84
36.28
36.45
8,857,286
05/23/2013
37.5
37.5
36.85
36.89
11,276,930
05/22/2013
38.88
38.94
36.875
37.28
36,125,860
05/21/2013
37.15
37.1699
36.22
36.63
23,269,670
05/20/2013
37.37
37.57
37.05
37.19
12,979,280
05/17/2013
38.93
39.08
37.8
37.84
18,517,770
05/16/2013
36.55
39.15
36.46
38.46
25,039,970
05/15/2013
35.61
36.5
35.5
36.225
6,716,615
05/14/2013
36.07
36.31
35.51
35.78
8,922,254
05/13/2013
36.17
36.98
35.6
36.09
10,732,420
05/10/2013
35.84
36.24
35.58
36.15
7,012,195
05/09/2013
35.82
36.07
35.51
35.73
6,499,236
05/08/2013
35.54
36.26
35.37
35.82
7,364,724
05/07/2013
35.5
35.75
35.19
35.56
6,011,841
05/06/2013
34.87
35.83
34.761
35.49
7,075,349
05/03/2013
34.29
35.07
34.24
34.9
17,404,850
05/02/2013
34.2
34.3
33.61
33.87
8,258,642
05/01/2013
34.81
34.858
33.65
34.15
10,225,170
04/30/2013
34.25
34.91
34.09
34.89
7,600,573
04/29/2013
35
35.12
34.51
34.53
5,291,276
04/26/2013
34.83
35.1
34.59
34.87
5,778,242
04/25/2013
35.1
35.59
34.73
34.81
6,834,019
04/24/2013
34.81
35.25
34.73
34.86
6,845,397
04/23/2013
34.45
35.38
34.15
34.95
8,360,880
04/22/2013
33.27
34.17
33.12
34.12
6,999,188
04/19/2013
33.17
33.43
32.75
32.99
9,945,523
04/18/2013
34.86
34.96
33.68
33.78
5,893,078
04/17/2013
35.5
35.52
34.6111
34.72
6,196,642
04/16/2013
34.82
35.97
34.64
35.81
8,142,043
04/15/2013
35.25
35.83
34.62
34.73
8,646,186
04/12/2013
33.48
36.16
33.23
35.455
20,925,720
04/11/2013
33.59
33.61
33.11
33.47
8,647,590
04/10/2013
33.69
34.215
33.511
33.62
11,516,880
04/09/2013
34.1
34.54
34.005
34.17
8,866,077
04/08/2013
33.91
34.05
33.77
33.93
5,871,731
04/05/2013
34.13
34.145
33.19
34
10,886,470
04/04/2013
34.32
34.61
34.11
34.57
4,060,412
04/03/2013
34.61
34.9
34.36
34.44
5,836,219
04/02/2013
34.34
34.95
34.11
34.7
8,198,502
04/01/2013
34.07
34.4
33.7
34.06
4,953,945
03/28/2013
33.59
34.215
33.3288
34.16
7,172,902
03/27/2013
33.02
33.95
32.975
33.7
3,964,329
03/26/2013
33.46
33.5401
33.045
33.31
3,213,300
03/25/2013
33.55
33.73
33.095
33.19
4,830,422
03/22/2013
33.78
33.91
33.44
33.54
6,871,520
03/21/2013
33.86
33.965
33.4201
33.77
4,854,288
03/20/2013
34.2
34.43
33.98
34.15
4,914,421
03/19/2013
34.13
34.249
33.52
33.95
5,887,483
03/18/2013
34.28
34.3
33.8565
34.11
6,574,524
03/15/2013
34.34
34.83
34.27
34.56
5,607,415
03/14/2013
34.18
34.56
34.18
34.51
4,566,700
03/13/2013
34.09
34.27
33.66
34.19
3,900,332
03/12/2013
34.29
34.43
33.705
34
5,155,452
03/11/2013
34.05
34.69
34.015
34.68
4,995,959
03/08/2013
34.5
34.67
34.07
34.21
4,961,228
03/07/2013
34.53
34.945
33.96
34.28
4,677,862
03/06/2013
34.35
34.77
34.18
34.55
3,583,195
03/05/2013
33.76
34.55
33.73
34.14
4,101,555
03/04/2013
33.94
33.95
33.29
33.59
4,540,889
03/01/2013
33.81
34.24
33.3
33.95
6,253,087
02/28/2013
34.33
34.5
33.82
33.84
4,348,481
02/27/2013
33.89
34.6499
33.61
34.43
4,173,644
02/26/2013
33.75
34.16
33.51
33.79
5,498,890
02/25/2013
34.56
35
33.57
33.58
7,452,658
02/22/2013
34.72
34.92
34.16
34.38
6,796,846
02/21/2013
35.38
35.79
34.13
34.54
7,483,140
02/20/2013
36.56
36.57
35.455
35.54
5,152,071
02/19/2013
36.5
36.61
36.25
36.48
4,709,237
02/15/2013
35.69
36.61
35.56
36.55
8,517,501
02/14/2013
34.99
35.92
34
35.86
10,459,680
02/13/2013
35.41
36.19
34.7
35.82
10,250,960
02/12/2013
36
36.1
35.255
35.41
5,144,614
02/11/2013
35.85
35.85
35.16
35.36
5,580,184
02/08/2013
35.59
36.18
35.55
35.75
5,143,800
02/07/2013
36
36
35.09
35.565
5,522,751
02/06/2013
35.84
36.31
35.75
36.11
3,061,153
02/05/2013
35.98
36.28
35.46
35.98
6,207,355
02/04/2013
36.1
36.52
35.6499
35.68
3,798,538
02/01/2013
36.44
36.67
36.08
36.25
4,842,802
01/31/2013
36.36
36.78
36
36
4,036,520
01/30/2013
35.77
36.71
35.77
36.54
7,828,559
01/29/2013
35.71
36.95
35.56
35.93
6,125,934
01/28/2013
36.89
37.02
36.35
36.38
6,477,931
01/25/2013
35.64
36.19
35.52
36.15
6,799,424
01/24/2013
35
35.62
34.78
35.47
7,095,369
01/23/2013
35
35
34.14
34.72
4,452,535
01/22/2013
34.28
34.88
34.01
34.785
4,503,942
01/18/2013
34.46
34.46
33.9
34.36
4,400,107
01/17/2013
34.55
34.63
34.12
34.47
5,729,356
01/16/2013
33.59
34.36
33.38
34.23
6,185,769
01/15/2013
33.09
33.55
32.86
33.48
3,256,950
01/14/2013
32.78
33.4
32.47
33.24
4,811,429
01/11/2013
32.42
33.25
32.4
33.06
4,292,313
01/10/2013
32.6
32.7
32.05
32.42
5,213,510
01/09/2013
32.67
32.81
31.98
32.21
6,275,782
01/08/2013
33.1
33.11
31.74
32.5
9,210,699
01/07/2013
33.94
34.23
33.19
33.24
7,114,455
01/04/2013
34.12
34.25
33.6
34.08
3,953,815
01/03/2013
34.22
34.82
33.84
34.17
4,620,640
01/02/2013
34.01
34.5
33.55
34.3
8,740,292
12/31/2012
32.74
33.71
32.68
33.55
4,321,826
12/28/2012
33.25
33.32
32.75
32.82
2,946,974
12/27/2012
33.49
33.55
32.965
33.42
3,254,071
12/26/2012
33.7
34
33.45
33.55
2,417,454
12/24/2012
33.66
33.7999
33.3
33.7
1,234,882
12/21/2012
33.71
33.9
33.23
33.82
6,115,501
12/20/2012
34.26
34.42
33.89
34.07
4,378,164
12/19/2012
34.42
34.815
34.24
34.31
6,152,053
12/18/2012
33.24
34.3
33.21
34.2602
5,398,385
12/17/2012
33.09
33.33
32.735
33.18
3,461,185
12/14/2012
32.97
33.3
32.84
32.99
4,176,038
12/13/2012
33.19
33.5101
32.78
33.04
7,675,476
12/12/2012
33.91
34
33.2
33.25
5,126,272
12/11/2012
33.71
34.15
33.48
33.85
5,593,296
12/10/2012
33.31
33.95
33.29
33.57
5,622,040
12/07/2012
33
33.46
32.84
33.425
5,589,761
12/06/2012
32.62
32.935
32.62
32.92
5,207,319
12/05/2012
31.93
32.98
31.93
32.8099
6,001,310
12/04/2012
32.11
32.38
32.04
32.05
6,630,558
12/03/2012
31.82
32.23
31.71
32.1396
5,463,936
11/30/2012
31.86
31.95
31.41
31.71
6,016,148
11/29/2012
31.37
32.26
31.32
31.88
8,452,184
11/28/2012
30.99
31.465
30.72
31.36
6,287,970
11/27/2012
31.25
31.66
31.06
31.31
5,157,562
11/26/2012
31.12
31.39
30.72
31.36
5,230,725
11/23/2012
30.71
31.17
30.52
31.15
2,150,984
11/21/2012
30.72
30.78
30.34
30.45
4,393,745
11/20/2012
30.75
30.89
30.45
30.61
4,253,660
11/19/2012
30.51
30.91
30.02
30.89
6,270,338
11/16/2012
30.25
30.36
29.47
30.2594
9,024,321
11/15/2012
30.22
30.8
29.7
30.2
22,806,750
11/14/2012
27.25
27.5
26.87
27.1221
16,266,680
11/13/2012
26.5
26.76
26.26
26.33
7,665,590
11/12/2012
27.4
27.66
26.75
26.815
4,241,433
11/09/2012
27.27
27.67
27.2
27.34
3,935,956
11/08/2012
27.75
28.06
27.31
27.3111
4,153,163
11/07/2012
27.85
27.95
27.3
27.73
6,326,665
11/06/2012
28
28.21
27.93
28.14
7,491,008
11/05/2012
27.63
28.1
27.63
27.9787
3,817,998
11/02/2012
28.67
28.71
27.7
27.74
5,709,744
11/01/2012
27.24
28.29
27.06
28.095
8,097,869
10/31/2012
27.99
27.99
26.83
26.91
9,872,816
10/26/2012
28.03
28.41
27.62
27.88
4,662,648
10/25/2012
28.43
28.53
28.03
28.13
5,284,518
10/24/2012
28.25
28.84
28
28.18
8,192,501
10/23/2012
28.55
29.27
28.5167
28.765
12,701,810
10/22/2012
30.01
30.0601
29.73
29.9
3,554,251
10/19/2012
30.3
30.39
29.89
29.95
8,779,235
10/18/2012
29.97
30.43
29.82
30.27
7,891,326
10/17/2012
29.585
29.96
29.06
29.9
7,069,478
10/16/2012
29.34
29.89
29.26
29.77
6,251,744
10/15/2012
28.99
29.24
28.81
29.19
4,092,584
10/12/2012
28.96
29.38
28.87
28.93
4,051,459
10/11/2012
29.71
29.8
29.08
29.19
8,003,702
10/10/2012
30.03
30.08
29.22
29.31
9,407,614
10/09/2012
31.14
31.22
30.15
30.21
5,467,348
10/08/2012
30.38
30.84
30.24
30.52
3,738,494
10/05/2012
30.82
30.95
30.14
30.59
12,900,020
10/04/2012
31.43
31.43
30.8
31.04
8,603,102
10/03/2012
32.6
32.62
31.13
31.37
10,341,100
10/02/2012
33.07
33.11
32.17
32.45
6,274,591
10/01/2012
33.76
34.035
32.75
32.94
6,128,595
09/28/2012
33.13
33.29
32.76
32.88
7,435,813
09/27/2012
33.06
33.43
33
33.23
7,802,853
09/26/2012
34.3
34.43
32.88
32.975
11,143,760
09/25/2012
35.62
35.78
34.395
34.42
5,410,121
09/24/2012
36.02
36.16
35.18
35.4
5,090,878
09/21/2012
35.76
36.305
35.57
36.26
8,310,675
09/20/2012
35.48
35.7
35.24
35.51
3,946,189
09/19/2012
35.43
35.91
35.43
35.74
4,175,825
09/18/2012
35.44
35.59
35.1
35.46
4,926,683
09/17/2012
35.74
35.88
35.17
35.41
2,905,164
09/14/2012
35.51
36.41
35.47
35.81
6,490,960
09/13/2012
34.96
35.45
34.62
35.28
6,649,732
09/12/2012
34.3
35.44
34.26
35.2
6,457,118
09/11/2012
35.08
35.47
35.05
35.18
4,794,372
09/10/2012
35.66
35.92
35.03
35.08
3,904,094
09/07/2012
35.46
35.98
35.17
35.8
5,244,143
09/06/2012
34.76
35.59
34.4
35.56
6,589,721
09/05/2012
34.61
34.86
34.25
34.55
3,834,295
09/04/2012
34.37
34.84
34.01
34.62
4,983,498
08/31/2012
34.49
34.86
34.016
34.52
4,627,692
08/30/2012
34.65
34.65
33.91
34.13
4,649,777
08/29/2012
33.95
35.05
33.84
34.93
6,774,818
08/28/2012
34.84
35.12
34.44
34.68
4,578,511
08/27/2012
34.72
35.13
34.39
34.91
7,001,801
08/24/2012
33.72
34.92
33.7
34.78
10,370,640
08/23/2012
33.32
33.74
33.05
33.4
4,936,484
08/22/2012
32.98
33.46
32.825
33.39
4,487,808
08/21/2012
33.05
33.35
32.94
33.14
4,543,285
08/20/2012
33.34
33.43
32.93
33.08
5,584,072
08/17/2012
32.97
33.61
32.53
33.46
8,300,897
08/16/2012
33.04
33.37
31.22
32.97
19,873,370
08/15/2012
31.55
32.37
31.55
31.748
12,614,120
08/14/2012
31.97
32.06
31.31
31.42
5,163,689
08/13/2012
32.86
32.86
31.5
31.81
6,861,384
08/10/2012
32.14
32.7845
31.85
32.58
4,984,529
08/09/2012
32.38
32.92
32.01
32.13
8,695,028
08/08/2012
33.25
33.33
32.76
32.98
5,563,013
08/07/2012
32.63
34.19
32.38
33.45
8,399,381
08/06/2012
32.63
32.65
32.01
32.06
4,757,095
