





08/04/2017
81.63
81.96
81.25
81.43
2,325,552
08/03/2017
81.3
81.73
80.965
81.36
2,748,469
08/02/2017
82.01
82.01
80.64
81.31
3,179,564
08/01/2017
81.6
81.84
81.02
81.71
3,347,039
07/31/2017
80.83
81.66
80.78
81.38
5,940,053
07/28/2017
80.42
81.04
80.05
80.71
5,228,009
07/27/2017
82.125
82.53
80.09
80.97
7,152,213
07/26/2017
83
84.24
81.96
82.53
6,960,105
07/25/2017
81.05
81.93
80.58
81.39
6,410,458
07/24/2017
81.86
81.8673
80.6
80.92
4,350,531
07/21/2017
81.46
82
81
81.7
4,597,561
07/20/2017
82.2
82.81
81.8621
82.69
3,759,201
07/19/2017
82.49
82.7
81.86
82.16
3,124,059
07/18/2017
81.5
82.205
81.15
82.16
2,773,503
07/17/2017
81.82
82
81.48
81.66
2,971,712
07/14/2017
80.95
82.11
80.8481
82
3,654,684
07/13/2017
80.41
80.98
80.265
80.54
3,372,273
07/12/2017
79.46
80.54
79.46
80.52
3,863,416
07/11/2017
78.78
79.145
78.28
79.04
2,729,194
07/10/2017
78.43
79.09
77.925
78.78
3,593,442
07/07/2017
77.31
78.66
77.31
78.48
5,218,174
07/06/2017
76.19
77.69
76.19
76.86
5,047,044
07/05/2017
76.63
77.51
76.24
76.91
6,680,733
07/03/2017
77.45
77.635
76.4
76.41
3,494,169
06/30/2017
77.69
77.69
76.61
76.93
4,692,450
06/29/2017
77.5
77.93
75.9199
76.9
6,644,059
06/28/2017
77.61
78.21
76.95
78.06
6,362,089
06/27/2017
78
78.27
76.94
76.95
5,796,978
06/26/2017
80.04
80.09
78.24
78.31
4,913,133
06/23/2017
79.06
80.02
78.64
79.58
4,050,683
06/22/2017
79.95
80.05
78.95
79.05
3,327,555
06/21/2017
79.7
79.92
79.23
79.67
4,318,627
06/20/2017
81.16
81.23
79.54
79.57
3,831,266
06/19/2017
80.37
81.45
80.28
81.42
3,537,005
06/16/2017
79.85
80.23
79.02
79.7
6,220,068
06/15/2017
79.35
80.4
79.22
80.08
3,056,118
06/14/2017
81.26
81.49
79.44
80.16
3,944,177
06/13/2017
81.41
81.8
80.6
80.99
4,324,486
06/12/2017
79.82
81.32
79.6678
81.05
6,746,230
06/09/2017
84.23
84.65
79.94
80.9
6,810,754
06/08/2017
83.2
84.36
82.62
84.34
4,394,643
06/07/2017
82.8
83.43
82.29
82.89
3,763,034
06/06/2017
81.65
82.875
81.51
82.22
3,275,160
06/05/2017
81.66
82.38
81.66
81.885
2,584,316
06/02/2017
81.96
81.97
80.86
81.63
4,725,875
06/01/2017
82.61
82.8642
81.215
81.49
4,312,314
05/31/2017
82.2
83.24
82.18
82.49
6,478,650
05/30/2017
81
82.2
81
81.97
3,258,121
05/26/2017
80.86
81.18
80.32
81.12
2,812,210
05/25/2017
80.49
80.99
79.98
80.79
3,226,356
05/24/2017
80.3
80.3
79.74
80.05
3,671,524
05/23/2017
80.5
80.55
79.45
79.69
3,674,998
05/22/2017
80.48
80.93
80.05
80.37
3,672,132
05/19/2017
79.39
81.04
79.3
80.3
7,501,340
05/18/2017
78.92
79.69
78.42
79.23
4,930,833
05/17/2017
81.54
82.06
78.61
78.68
6,401,510
05/16/2017
81.88
82.32
81.45
82.27
3,906,523
05/15/2017
80.65
81.62
80.455
81.55
3,427,266
05/12/2017
80.77
80.77
80.28
80.69
2,648,943
05/11/2017
80.2
80.68
79.65
80.4
3,168,525
05/10/2017
79.98
80.67
79.77
80.49
5,179,447
05/09/2017
79.38
79.83
79.27
79.45
4,359,232
05/08/2017
79.7
79.82
79.3601
79.46
2,776,638
05/05/2017
79.45
79.637
79.135
79.63
3,653,894
05/04/2017
79.98
80.03
79.075
79.3
3,241,324
05/03/2017
79.2
79.93
79
79.77
4,664,996
05/02/2017
79.16
79.41
78.79
79.25
6,232,779
05/01/2017
79.25
79.5
78.4
79.29
5,062,398
04/28/2017
81.04
81.04
78.65
79.18
10,522,000
04/27/2017
80.75
81.27
80.36
80.8
5,762,488
04/26/2017
82.17
82.92
80.79
81.11
6,761,926
04/25/2017
81.3
82.43
81.115
82.36
7,564,777
04/24/2017
81.02
81.51
80.85
81.08
5,072,807
04/21/2017
79.58
80.41
79.24
79.81
6,314,032
04/20/2017
79.72
80.89
79.51
80.76
3,583,830
04/19/2017
79.96
80.66
79.28
79.37
4,673,843
04/18/2017
78.51
79.84
78.35
79.61
4,528,870
04/17/2017
78.3
78.75
78.12
78.72
4,462,363
04/13/2017
78.47
79.33
77.83
77.84
4,658,269
04/12/2017
79.48
79.68
78.2
78.48
6,335,001
04/11/2017
79.88
79.88
78.201
79.41
5,320,929
04/10/2017
80.42
80.755
79.92
80.13
3,314,713
04/07/2017
80.3
80.92
80.08
80.53
2,686,868
04/06/2017
79.98
80.37
79.402
80.1
4,178,250
04/05/2017
80.6
81.18
79.98
80.08
3,547,918
04/04/2017
80.11
80.67
80.11
80.6
2,761,932
04/03/2017
80.87
81.5
79.79
80.36
4,563,884
03/31/2017
80.79
81.15
80.54
80.56
3,761,404
03/30/2017
80.23
81.08
80.23
81.04
3,372,512
03/29/2017
80.35
80.66
80.26
80.49
2,811,614
03/28/2017
80.3
80.99
80.22
80.61
3,578,125
03/27/2017
79.95
80.82
79.71
80.53
3,260,892
03/24/2017
81.92
82.05
80.43
80.59
4,100,261
03/23/2017
80.69
81.04
80.23
80.67
3,335,242
03/22/2017
80.09
80.79
79.58
80.69
4,305,640
03/21/2017
81.93
82.0838
79.67
79.75
6,221,524
03/20/2017
81.99
82.27
81.54
81.59
4,344,190
03/17/2017
82.24
82.44
81.44
82.2
9,232,028
03/16/2017
81.99
82.18
81.38
81.71
4,190,791
03/15/2017
81.42
81.95
80.96
81.82
3,664,770
03/14/2017
80.95
81.205
80.62
81.09
4,271,542
03/13/2017
80.32
81.09
80.18
81.02
5,848,129
03/10/2017
79.72
80.63
79.3
80.33
5,118,413
03/09/2017
79.49
79.785
78.8
79.13
4,255,437
03/08/2017
79.44
79.94
79.16
79.34
5,386,547
03/07/2017
78.35
80.37
78.21
79.12
10,556,760
03/06/2017
77.69
78.455
77.4
78.31
4,066,406
03/03/2017
78.2
78.2
77.46
77.86
3,994,816
03/02/2017
78.36
78.76
77.945
78.08
7,605,753
03/01/2017
77.13
78.18
76.68
78.15
5,332,497
02/28/2017
77.06
77.17
76.46
76.62
4,770,485
02/27/2017
77.31
77.34
76.76
77.19
3,055,830
02/24/2017
76.94
77.24
76.4
77.24
3,516,618
02/23/2017
77.23
77.38
76.69
77.14
4,921,722
02/22/2017
77.2
77.28
76.8
77.23
4,057,056
02/21/2017
76.79
77.13
76.59
77.08
5,104,743
02/17/2017
76.11
76.44
75.66
76.44
3,955,307
02/16/2017
75.8
76.32
75.52
76.25
4,882,048
02/15/2017
75.65
75.81
74.93
75.67
5,731,485
02/14/2017
75.46
75.64
75.3
75.64
4,000,042
02/13/2017
75.53
75.74
75.39
75.52
5,466,107
02/10/2017
75.62
75.66
74.52
75.16
6,289,576
02/09/2017
76.3
76.35
75.27
75.3
6,950,190
02/08/2017
76.49
76.55
75.92
75.95
5,864,687
02/07/2017
76.37
76.745
76.04
76.18
4,500,867
02/06/2017
76.38
76.475
75.85
76.22
4,632,921
02/03/2017
76.29
76.555
76.03
76.5
4,546,524
02/02/2017
75.61
76.1
75.34
75.89
4,434,497
02/01/2017
76.06
76.87
75.86
76.27
7,815,290
01/31/2017
77.4
77.54
75.25
75.54
11,127,880
01/30/2017
77.52
78.075
77.35
77.9
8,355,141
01/27/2017
79.06
79.45
77.74
78.03
9,737,291
01/26/2017
78.02
79.47
78.01
79.26
8,991,211
01/25/2017
77.72
78.72
77.19
78.58
8,113,490
01/24/2017
76.19
77.32
75.91
77.08
8,497,860
01/23/2017
74.8
75.74
74.64
75.73
6,894,071
01/20/2017
74.16
74.89
74.16
74.75
6,164,082
01/19/2017
74.22
74.81
73.87
73.88
4,462,212
01/18/2017
74.73
74.84
74.25
74.38
5,525,864
01/17/2017
74.67
74.95
74.29
74.49
4,413,082
01/13/2017
74.83
75.3
74.73
75
3,372,528
01/12/2017
75
75.14
74.09
74.85
4,408,233
01/11/2017
74.64
75.2
74.46
75.2
4,302,238
01/10/2017
74.62
74.83
74.06
74.6
3,712,482
01/09/2017
74.51
75.22
74.165
74.34
4,782,975
01/06/2017
72.88
74.28
72.47
74.15
5,244,498
01/05/2017
73.29
73.7
72.89
72.92
4,301,121
01/04/2017
73.65
73.97
73.2534
73.49
4,507,033
01/03/2017
73.53
74.31
73.05
73.58
4,847,909
12/30/2016
74.43
74.46
72.77
72.97
4,311,635
12/29/2016
73.84
74.4024
73.8
74.15
3,292,472
12/28/2016
74.96
75.05
73.98
74.05
2,644,327
12/27/2016
74.42
75.15
74.16
74.87
2,017,215
12/23/2016
74.11
74.39
74
74.38
1,690,787
12/22/2016
74.25
74.3165
73.75
74.2
3,470,787
12/21/2016
74.22
74.72
74.14
74.17
4,272,192
12/20/2016
73.93
74.19
73.6
74.04
3,181,463
12/19/2016
73.11
74.08
72.96
73.57
3,817,928
12/16/2016
73.36
73.75
72.68
72.89
6,467,247
12/15/2016
72.73
73.59
72.45
73.45
5,060,673
12/14/2016
73.55
73.7
72.4
72.5
6,458,958
12/13/2016
71.95
73.6
71.77
73.2
6,850,425
12/12/2016
71.89
71.93
71.1933
71.73
3,334,270
12/09/2016
72.35
72.65
71.56
71.99
6,095,939
12/08/2016
72.32
72.5836
71.88
72.13
5,473,578
12/07/2016
71.5
72.43
71.12
72.2
6,031,112
12/06/2016
71.11
71.39
70.61
71.37
7,000,987
12/05/2016
71.34
71.53
70.38
70.51
6,389,448
12/02/2016
69.99
71.16
69.92
70.72
5,910,604
12/01/2016
73.88
73.91
69.96
70.41
9,625,755
11/30/2016
74.67
74.69
73.93
73.93
6,760,712
11/29/2016
74.66
75.25
74.23
74.4
6,347,035
11/28/2016
74.29
74.89
74.04
74.53
4,506,726
11/25/2016
73.87
74.61
73.73
74.43
1,978,800
11/23/2016
74.38
74.55
73.92
74.06
3,995,498
11/22/2016
74.09
74.64
74.0301
74.4
6,813,701
11/21/2016
72.75
73.73
72.7
73.68
5,447,043
11/18/2016
71.84
73.15
71.75
72.6
5,479,545
11/17/2016
71.17
72.28
70.63
72.08
3,763,235
11/16/2016
71.01
71.3
70.56
71.2
4,838,983
11/15/2016
70.2
71.36
70.05
71.03
4,729,206
11/14/2016
70.14
70.3542
69.64
70.02
6,484,103
11/11/2016
69.02
70.06
69
69.85
4,970,491
11/10/2016
70
70.72
68.13
69.14
7,190,558
11/09/2016
67.8
69.95
67.6
69.79
5,698,213
11/08/2016
69.01
69.97
68.9501
69.83
5,402,659
11/07/2016
68.83
69.48
68.29
69.01
5,751,044
11/04/2016
66.88
68
66.7968
67.6
6,055,686
11/03/2016
68.7
68.72
67.53
67.9
6,718,974
11/02/2016
69.57
69.95
68.72
68.84
6,498,071
11/01/2016
71.13
71.13
68.92
69.44
7,359,036
10/31/2016
71.31
71.44
70.8
70.85
5,407,074
10/28/2016
70.96
71.69
70.52
70.8
6,355,444
10/27/2016
71.4
72.18
70.41
70.73
9,625,293
10/26/2016
71
71.94
70.77
71.71
8,108,623
10/25/2016
71.57
71.85
71.08
71.2
4,610,596
10/24/2016
70.26
71.74
70.2309
71.68
5,883,967
10/21/2016
69.41
70.04
68.8
69.97
7,010,944
10/20/2016
69.42
70.05
68.77
69.75
3,845,284
10/19/2016
68.89
69.6069
68.6
69.49
5,526,893
10/18/2016
69.86
69.9289
69.17
69.25
3,580,576
10/17/2016
68.5
68.99
68.37
68.42
2,620,850
10/14/2016
68.27
69.22
68.21
68.49
4,315,211
10/13/2016
67.91
67.96
67.06
67.77
3,887,669
10/12/2016
68.83
68.83
67.99
68.46
3,554,011
10/11/2016
69.93
69.97
68.06
68.76
5,182,405
10/10/2016
71.08
71.33
69.9
69.93
4,876,677
10/07/2016
71
71.06
70.45
70.87
3,673,632
10/06/2016
70.44
71
70.032
70.96
4,054,419
10/05/2016
69.85
70.84
69.01
70.6
4,773,807
10/04/2016
69.66
69.91
69.1
69.59
4,089,515
10/03/2016
70.08
70.26
69.47
69.66
3,615,642
09/30/2016
69.95
70.58
69.84
70.18
5,065,545
09/29/2016
69.63
70.28
69.22
69.84
4,334,119
09/28/2016
69.4
69.78
69.22
69.74
3,236,974
09/27/2016
68.39
69.47
68.08
69.45
4,539,625
09/26/2016
68.55
68.77
68.13
68.42
3,475,623
09/23/2016
70
70
68.98
68.98
3,068,530
09/22/2016
70.01
70.13
69.465
69.76
3,563,209
09/21/2016
69.41
69.71
68.83
69.56
4,196,960
09/20/2016
69.77
69.9
69.01
69.18
3,014,763
09/19/2016
69.83
70.29
69.29
69.54
4,096,768
09/16/2016
69.97
69.97
68.4799
69.36
6,500,352
09/15/2016
67.8
69.36
67.6
69.22
6,257,931
09/14/2016
67.46
68.07
67.22
67.79
4,034,388
09/13/2016
68.01
68.55
67.27
67.45
5,466,433
09/12/2016
66.31
68.02
66.3
67.94
6,021,191
09/09/2016
68.19
68.42
66.67
66.67
6,951,402
09/08/2016
69.24
69.41
68.7
68.99
4,146,285
09/07/2016
69.75
70
69.26
69.49
4,214,091
09/06/2016
69.93
70.03
69.26
69.79
3,870,271
09/02/2016
70.02
70.1
69.26
69.68
4,584,024
09/01/2016
68.78
69.79
68.3
69.7
4,525,298
08/31/2016
69.36
69.61
69.23
69.54
3,870,221
08/30/2016
70
70.2
69.09
69.31
4,374,141
08/29/2016
69.9
70.37
69.85
69.98
3,669,145
08/26/2016
69.99
70.345
69.4
69.75
4,160,926
08/25/2016
69.9
70.06
69.7
69.82
3,044,871
08/24/2016
70.11
70.22
69.71
69.9
3,749,507
08/23/2016
70.42
70.54
69.93
69.98
4,779,204
08/22/2016
70.35
70.61
69.84
70
4,361,066
08/19/2016
70.12
70.54
69.94
70.27
3,481,961
08/18/2016
69.98
70.1696
69.79
70.13
3,811,670
08/17/2016
69.92
70.02
69.535
69.82
5,914,511
08/16/2016
70.09
70.33
69.82
69.82
3,675,525
08/15/2016
70.19
70.7
69.93
70.33
4,148,701
08/12/2016
70
70.22
69.78
69.84
3,444,978
08/11/2016
70
70.2
69.77
70
3,003,555
08/10/2016
70.23
70.31
69.81
69.89
5,007,158
08/09/2016
70.42
70.85
70.17
70.25
3,434,443
08/08/2016
70.03
70.32
69.99
70.14
4,865,939
08/05/2016
70
70.21
69.71
70.15
4,542,535
08/04/2016
69.5
69.71
68.54
69.61
4,373,690
08/03/2016
68.84
69.09
68.51
68.88
4,222,296
08/02/2016
69.69
69.88
68.44
68.85
6,391,252
08/01/2016
69.83
70.2599
69.52
69.88
5,982,956
07/29/2016
70.32
70.465
69.63
69.75
7,963,050
07/28/2016
70.63
70.81
69.83
70.23
9,142,823
07/27/2016
70.98
71.57
70.16
71.27
13,973,380
07/26/2016
70.65
72.5801
69.93
71.42
22,020,640
07/25/2016
65.5
66.22
65.315
66.22
9,849,200
07/22/2016
65.13
65.67
64.74
65.49
5,555,904
07/21/2016
65.39
65.5
64.8
64.91
5,391,603
07/20/2016
65.32
65.68
64.995
65.45
4,744,093
07/19/2016
64.89
65.26
64.76
64.94
3,065,932
07/18/2016
64.85
65.52
64.85
65.19
3,444,450
07/15/2016
65.26
65.26
64.54
64.85
5,950,607
07/14/2016
65
65.22
64.73
64.81
3,999,923
07/13/2016
64.54
64.8
64.345
64.54
4,067,914
07/12/2016
63.77
64.41
63.73
64.38
5,399,113
07/11/2016
63.5
63.88
63.26
63.4
4,533,872
07/08/2016
62.29
63.28
62.05
63.27
5,345,295
07/07/2016
61.07
61.94
61.04
61.77
6,876,833
07/06/2016
60.99
61.3499
60.46
61.06
6,064,059
07/05/2016
61.59
61.84
60.99
61.25
5,531,581
07/01/2016
62.33
62.44
61.89
62.11
4,934,457
06/30/2016
61.51
62.65
61.16
62.65
6,632,008
06/29/2016
60.7
61.31
60.4
61.25
6,690,272
06/28/2016
59.41
60.3
59.1
60.27
5,162,972
06/27/2016
59.87
60
58.61
59.07
7,465,970
06/24/2016
60.51
61.9
60.36
60.54
8,470,489
06/23/2016
62.65
63.31
62.37
63.3
3,614,624
06/22/2016
62.33
62.525
61.93
62.06
4,112,680
06/21/2016
62.15
62.35
61.7901
62.04
3,373,388
06/20/2016
62.43
62.59
61.96
62.01
4,017,610
06/17/2016
62.08
62.13
60.9
61.62
6,101,004
06/16/2016
61.39
62.13
61.09
62.06
3,622,713
06/15/2016
62.27
62.28
61.42
61.69
4,936,948
06/14/2016
61.53
62.105
61.205
61.9
5,164,569
06/13/2016
61.8
62.31
61.41
61.53
6,687,121
06/10/2016
61.41
62.18
61.32
61.91
7,484,709
06/09/2016
62.29
62.29
61.51
62.14
5,285,649
06/08/2016
61.6
62.29
61.59
62.08
4,749,662
06/07/2016
61.5
61.765
61.4
61.56
5,021,190
06/06/2016
60.68
61.47
60.55
61.29
8,251,847
06/03/2016
61.17
61.17
60.145
60.53
2,743,843
06/02/2016
60.84
60.9262
60.43
60.76
3,583,195
06/01/2016
60.51
61.235
60.21
61.07
4,011,097
05/31/2016
61.02
61.21
60.29
60.6
6,195,837
05/27/2016
60.82
61.08
60.65
61.02
3,807,061
05/26/2016
60.35
60.82
60.15
60.77
3,367,030
05/25/2016
60.15
60.51
59.965
60.44
5,789,579
05/24/2016
58.99
60.18
58.98
60.09
4,544,654
05/23/2016
58.81
59.28
58.6
58.73
3,690,897
05/20/2016
57.49
58.83
57.47
58.53
6,326,966
05/19/2016
57.54
57.88
56.79
57.23
4,319,635
05/18/2016
57.23
58.505
57.18
58.01
4,661,400
05/17/2016
57.74
58.15
57.17
57.43
4,706,835
05/16/2016
57.46
58.51
57.27
58.02
4,240,929
05/13/2016
57.08
57.6
56.98
57.12
4,044,817
05/12/2016
57.79
58
56.58
57.16
5,183,116
05/11/2016
57.62
58.17
57.45
57.63
4,485,555
05/10/2016
57.12
57.66
56.79
57.63
4,540,163
05/09/2016
57.17
57.53
56.88
56.91
3,760,965
05/06/2016
56.24
57.3
56.19
57.2
8,054,491
05/05/2016
56.53
57.09
56.34
56.64
4,077,984
05/04/2016
56.95
57.1972
56.33
56.43
5,081,823
05/03/2016
57.22
57.59
57
57.2
5,689,291
05/02/2016
57.3
57.96
56.95
57.85
6,457,499
04/29/2016
57.71
58.2
56.83
57.04
10,706,440
04/28/2016
60
60.6
58.4928
58.69
9,417,250
04/27/2016
59.03
60
58.755
59.92
7,122,815
04/26/2016
59.15
59.93
59.07
59.4
3,913,273
04/25/2016
58.71
59.13
58.62
59.02
4,658,172
04/22/2016
58.81
59.6
58.44
58.68
5,359,856
04/21/2016
58.89
59.13
58.55
58.86
3,374,567
04/20/2016
58.59
59.47
58.11
59.05
4,664,484
04/19/2016
58.87
59.31
57.77
58.42
6,246,747
04/18/2016
58.64
59.07
58.62
58.95
4,430,470
04/15/2016
59.47
59.47
58.76
58.93
4,678,549
04/14/2016
58.77
59.27
58.13
59.22
4,920,079
04/13/2016
58.72
59.26
58.42
59.17
5,053,271
04/12/2016
57.82
58.67
57.43
58.44
4,443,803
04/11/2016
57.9
58.635
57.79
57.82
3,663,602
04/08/2016
57.57
58.08
57.57
57.89
3,211,034
04/07/2016
57.84
58.08
56.98
57.15
4,228,490
04/06/2016
57.59
58.37
57.25
58.36
3,653,381
04/05/2016
57.55
58.28
57.38
57.71
4,455,869
04/04/2016
57.79
58
57.56
57.72
3,413,420
04/01/2016
57.49
58
57.13
57.94
4,542,602
03/31/2016
58.12
58.21
57.37
57.42
5,410,275
03/30/2016
57.73
58.78
57.58
58.37
5,020,076
03/29/2016
56.46
57.51
56.08
57.41
3,978,803
03/28/2016
57.05
57.15
56.34
56.52
2,229,588
03/24/2016
56.49
56.73
56.19
56.7
2,279,565
03/23/2016
56.97
56.9901
56.55
56.6
3,220,882
03/22/2016
56.74
57.2
56.52
56.9
3,514,923
03/21/2016
56.9
57.06
56.38
57.02
3,085,478
03/18/2016
56.79
57.25
56.52
57.09
7,904,297
03/17/2016
55.93
56.81
55.918
56.6
4,507,588
03/16/2016
55.7
56.28
55.35
56.14
3,449,349
03/15/2016
55.42
55.74
55.07
55.73
3,377,300
03/14/2016
55.8
56
55.26
55.61
3,477,186
03/11/2016
55.93
56.21
55.75
56.06
5,031,580
03/10/2016
55.45
55.64
54.615
55.49
4,838,420
03/09/2016
54.7
55.14
54.54
54.75
3,641,667
03/08/2016
54.99
55.15
54.42
54.53
4,480,557
03/07/2016
54.54
55.54
54.49
55.49
3,756,554
03/04/2016
55
55.27
54.4
54.89
4,248,113
03/03/2016
54.59
54.93
54.07
54.87
4,045,872
03/02/2016
54.34
54.634
53.98
54.42
4,165,609
03/01/2016
53.47
54.22
53
54.22
4,958,799
02/29/2016
53.4
53.825
52.97
53.02
4,449,653
02/26/2016
53.49
53.5
53.11
53.3
3,533,107
02/25/2016
52.81
53.11
51.86
53.11
3,917,539
02/24/2016
51.83
52.58
51.31
52.46
5,341,457
02/23/2016
53.03
53.365
52.12
52.24
3,888,511
02/22/2016
53.29
53.58
53.05
53.3
4,350,918
02/19/2016
52.83
52.94
52.41
52.76
6,286,998
02/18/2016
53.64
53.82
53
53.06
6,003,942
02/17/2016
52.96
53.72
52.73
53.69
6,244,710
02/16/2016
51.14
52.77
51.14
52.54
6,523,043
02/12/2016
51.06
51.4
49.99
51.14
8,060,614
02/11/2016
49.85
50.775
49.74
50.38
6,121,353
02/10/2016
51.33
51.698
50.59
50.75
7,329,616
02/09/2016
50.53
51.63
50.09
50.68
7,307,275
02/08/2016
49.26
51.23
49.1
50.9
15,765,480
02/05/2016
51.2
51.41
49.505
49.88
7,929,447
02/04/2016
50.46
51.62
50.01
51.26
9,795,807
02/03/2016
50.15
50.71
49.1
50.25
11,309,650
02/02/2016
52.12
52.5
50.64
50.64
9,459,173
02/01/2016
52.3
53.27
52.3
52.83
6,336,663
01/29/2016
51.32
52.94
50.99
52.93
10,468,060
01/28/2016
50.68
52
50.39
51.13
10,033,430
01/27/2016
50.41
51.565
49.97
50.67
9,780,099
01/26/2016
50.38
51.06
50.03
50.7
7,709,551
01/25/2016
50.35
51.005
50
50.08
7,651,306
01/22/2016
50.84
51.23
50.14
50.3
6,335,553
01/21/2016
49.66
50.855
49.0099
49.83
10,094,620
01/20/2016
47.91
49.28
47.395
49.01
13,430,590
01/19/2016
48.62
48.93
47.8075
48.22
9,044,669
01/15/2016
47.89
48.69
46.73
48.03
15,871,630
01/14/2016
49.98
50.67
49.5342
50.03
10,439,850
01/13/2016
51.52
51.81
49.8
49.82
6,882,246
01/12/2016
51.73
51.84
50.825
51.53
5,075,810
01/11/2016
50.83
51.5
50.48
51.21
7,000,577
01/08/2016
51.52
51.98
50.24
50.36
9,619,993
01/07/2016
52.39
52.945
51.37
51.7
10,526,120
01/06/2016
52.95
53.89
52.72
53.42
8,514,296
01/05/2016
54.27
54.47
53.55
53.77
6,131,951
01/04/2016
53.55
54.34
53.37
54.34
7,901,386
12/31/2015
56.05
56.3
54.81
54.81
6,448,969
12/30/2015
57.02
57.18
56.09
56.16
3,010,237
12/29/2015
56.75
57.44
56.42
57.02
2,753,103
12/28/2015
56.41
56.67
55.77
56.42
2,930,132
12/24/2015
56.97
56.97
56.53
56.75
1,681,209
12/23/2015
56.06
56.71
55.17
56.7
5,786,032
12/22/2015
56.19
56.42
55.21
55.61
4,412,768
12/21/2015
55.35
55.83
54.93
55.82
4,305,623
12/18/2015
56.04
56.49
54.8
54.94
11,974,910
12/17/2015
58.19
58.2325
56.5
56.53
6,943,874
12/16/2015
58.26
58.26
56.9
58.07
5,919,505
12/15/2015
57.3
57.94
56.85
57.55
7,588,414
12/14/2015
56.45
56.72
55.83
56.22
5,097,363
12/11/2015
56.14
56.755
56.1
56.21
5,251,258
12/10/2015
56.98
57.47
56.63
56.93
4,317,830
12/09/2015
57.5
57.67
56.29
56.76
4,562,005
12/08/2015
57.76
57.91
57.02
57.67
3,670,068
12/07/2015
58.8
58.83
58.11
58.35
3,934,546
12/04/2015
57.52
58.96
57.49
58.88
6,414,224
12/03/2015
57.97
58.2197
57.12
57.69
9,691,433
12/02/2015
58.2
58.33
57.44
57.55
5,151,356
12/01/2015
57.47
58.85
57.42
58.31
5,016,896
11/30/2015
57.62
58.34
57.5
58.12
5,712,680
11/27/2015
57.28
57.77
57.01
57.55
1,509,539
11/25/2015
57.85
57.86
57.23
57.27
3,152,581
11/24/2015
57.3
57.95
56.86
57.85
4,655,311
11/23/2015
58.2
58.25
57.31
57.35
4,296,794
11/20/2015
58.35
58.35
57.81
58.12
4,252,492
11/19/2015
58.1
58.29
57.5
57.95
4,070,416
11/18/2015
57.21
58.01
56.88
57.96
4,023,945
11/17/2015
56.9
57.48
56.75
57.07
4,265,783
11/16/2015
56.02
56.89
56
56.875
5,995,136
11/13/2015
56.67
57.12
56.01
56.13
5,741,626
11/12/2015
57.14
57.365
56.66
56.67
4,894,631
11/11/2015
57.47
58.51
57.04
57.6
6,293,112
11/10/2015
56.49
57.22
56.38
57.03
5,058,660
11/09/2015
57.23
57.65
56.855
57.21
4,478,217
11/06/2015
57.25
57.845
56.7
57.63
6,386,954
11/05/2015
57
57.74
56.83
57.4
5,769,318
11/04/2015
57.21
57.4097
56.8
56.95
5,096,013
11/03/2015
56.99
57.43
56.81
57.15
4,268,382
11/02/2015
56.9
57.19
56.71
56.99
5,492,552
10/30/2015
56.99
57
56.4
56.72
7,503,371
10/29/2015
57.74
57.83
56.31
56.57
10,093,520
10/28/2015
58.52
58.78
57.19
58.67
14,464,570
10/27/2015
58.39
59.325
58.22
58.42
8,420,526
10/26/2015
58.9
59.23
58.4
58.81
7,635,541
10/23/2015
58.15
59.67
57.57
58.98
14,490,040
10/22/2015
56.1
58.12
55.74
58.09
21,228,790
10/21/2015
52.58
53.18
51.805
51.9
8,646,592
10/20/2015
52.45
52.6
52.18
52.43
5,666,904
10/19/2015
52.56
52.93
52.24
52.64
5,701,717
10/16/2015
52.29
52.66
52
52.57
5,685,298
10/15/2015
52.95
53.1
52.31
52.43
7,153,330
10/14/2015
51.11
53.15
51.03
52.65
10,558,490
10/13/2015
50.99
51.42
50.81
50.91
7,161,399
10/12/2015
50.73
51.42
50.56
51.34
4,075,340
10/09/2015
51.35
51.76
50.64
50.87
5,720,140
10/08/2015
50.68
51.54
50.36
51.52
6,431,515
10/07/2015
51
51.6
50.31
51.04
7,065,346
10/06/2015
50.13
50.64
49.23
50.46
5,796,388
10/05/2015
49.13
50.41
49
50.13
6,811,413
10/02/2015
47.78
48.79
47.12
48.77
8,229,732
10/01/2015
49.84
49.87
47.89
48.44
9,983,153
09/30/2015
48.09
49.55
47.92
49.52
9,120,366
09/29/2015
47.16
47.61
46.79
47.53
7,413,614
09/28/2015
47.05
47.4401
46.88
46.95
10,649,800
09/25/2015
47.02
47.55
46.8
47.17
8,924,202
09/24/2015
46.17
46.92
45.33
46.75
8,534,957
09/23/2015
46.61
46.8
46.265
46.58
4,335,349
09/22/2015
46.68
46.9899
46.28
46.61
6,114,690
09/21/2015
47.87
48.08
47.05
47.45
6,104,898
09/18/2015
47.75
48.635
47.1
47.8
17,188,830
09/17/2015
48.63
49.03
48.09
48.15
5,645,094
09/16/2015
48.33
48.765
47.8
48.7
4,624,450
09/15/2015
48
48.74
47.66
48.3
7,104,322
09/14/2015
47.87
47.995
47.55
47.83
4,750,848
09/11/2015
47.2
47.63
46.815
47.57
6,567,297
09/10/2015
47.36
47.96
46.8975
47.41
8,536,002
09/09/2015
49.02
49.63
47.47
47.61
8,250,074
09/08/2015
47.63
48.76
47.54
48.69
7,986,512
09/04/2015
46.69
47.19
46.41
46.53
6,603,426
09/03/2015
47.67
48.02
47.28
47.46
5,289,050
09/02/2015
47.24
47.35
46.41
47.35
6,012,528
09/01/2015
46.4
47.57
46.01
46.34
13,132,910
08/31/2015
47.75
48.435
47.31
47.84
10,145,880
08/28/2015
46.84
48
46.5
47.99
8,242,694
08/27/2015
45.78
47.15
45.5
47.06
9,821,219
08/26/2015
44.83
45.47
43.75
45.41
19,068,760
08/25/2015
46.02
46.32
43.49
43.52
14,450,110
08/24/2015
45.02
47.04
43.75
44.89
15,467,310
08/21/2015
46.96
47.63
45.96
45.96
17,944,440
08/20/2015
48.65
48.78
47.37
47.43
10,203,790
08/19/2015
50.13
50.15
49.045
49.2
6,904,963
08/18/2015
50.46
50.77
49.67
49.91
6,976,878
08/17/2015
50.45
51.03
50.18
50.9
3,364,014
08/14/2015
50.5
50.835
50.06
50.64
4,536,686
08/13/2015
51.16
51.31
50.525
50.63
4,007,456
08/12/2015
50.19
51.355
49.8
51.11
7,533,529
08/11/2015
51.54
51.55
50.34
50.64
8,013,024
08/10/2015
52.24
52.45
51.05
52.08
10,496,560
08/07/2015
49.83
50.38
49.66
50.32
5,324,697
08/06/2015
50.76
50.91
49.84
50.25
6,055,880
08/05/2015
50.11
51.12
50.07
50.855
7,238,799
08/04/2015
50.18
50.37
49.375
49.84
5,739,524
08/03/2015
50.08
50.235
49.7
50.09
5,318,008
07/31/2015
50.38
50.38
49.81
49.98
7,466,903
07/30/2015
49.59
50.43
49.5
50.24
5,629,359
07/29/2015
49.72
50.195
49.18
49.96
6,855,270
07/28/2015
49.15
50.57
48.85
50.08
7,636,588
07/27/2015
48.88
49.36
48.47
49.03
9,394,172
07/24/2015
50.48
50.56
48.88
49.03
10,959,010
07/23/2015
49.84
51.26
49.5875
50.51
13,269,400
07/22/2015
48.3
49.64
48
49.3
15,355,020
07/21/2015
50.03
51.08
49.9
50.23
10,602,030
07/20/2015
51.06
51.06
49.83
50.09
8,876,803
07/17/2015
49.27
49.45
48.77
49.36
7,021,335
07/16/2015
49.48
49.65
48.78
49.36
7,401,203
07/15/2015
49.23
49.8
49.15
49.49
5,458,140
07/14/2015
49.39
50
49.31
49.76
6,500,064
07/13/2015
49.2
49.55
49
49.33
4,937,637
07/10/2015
48.93
49.27
48.595
49.01
8,446,905
07/09/2015
50.05
50.4
48.09
48.11
22,610,810
07/08/2015
50.62
50.69
49.46
49.53
11,806,390
07/07/2015
51.31
51.46
49.98
51.21
8,205,776
07/06/2015
51.45
52.014
51.06
51.39
4,251,218
07/02/2015
52.19
52.24
51.77
51.97
3,642,415
07/01/2015
52.15
52.31
51.76
51.91
9,820,429
06/30/2015
51.98
51.99
51.3
51.51
5,260,553
06/29/2015
52.56
52.66
51.47
51.52
6,563,590
06/26/2015
53.39
53.795
52.43
52.9
7,838,205
06/25/2015
54.23
54.42
53.74
53.795
3,759,410
06/24/2015
54.65
54.81
53.93
53.99
4,203,495
06/23/2015
55.31
55.6
54.71
54.83
5,055,826
06/22/2015
54.62
55.52
54.62
55.5
9,503,324
06/19/2015
54.25
54.59
53.54
54.51
9,948,313
06/18/2015
53.48
54.37
53.34
54.22
5,908,199
06/17/2015
53.31
53.53
52.87
53.29
3,261,546
06/16/2015
52.91
53.2
52.66
53.09
2,702,215
06/15/2015
52.45
53.11
52.32
53.045
4,895,330
06/12/2015
53.35
53.51
52.99
53.01
4,174,063
06/11/2015
54.17
54.2599
53.57
53.64
4,711,228
06/10/2015
53.14
54.39
52.92
54.19
6,930,586
06/09/2015
52.84
53.29
52.44
52.915
4,412,361
06/08/2015
53.67
53.72
52.705
52.82
4,795,365
06/05/2015
53.98
54.26
53.58
53.785
3,650,414
06/04/2015
54.66
54.88
53.83
53.98
6,640,652
06/03/2015
55.46
55.58
54.82
54.885
3,658,970
06/02/2015
55.42
55.6
54.88
55.25
4,606,764
06/01/2015
55.7
56.34
55.42
55.71
4,575,411
05/29/2015
56.02
56.34
55.57
55.92
5,928,716
05/28/2015
55.955
56.4
55.72
55.91
6,851,228
05/27/2015
54.71
56.23
54.59
55.97
7,278,215
05/26/2015
55.25
55.25
54.2
54.56
5,311,997
05/22/2015
55.23
55.6
55.23
55.365
5,419,800
05/21/2015
55.51
56
55.26
55.5
4,260,836
05/20/2015
55.81
56.27
55.56
55.63
4,178,916
05/19/2015
55.89
56.13
55.565
55.78
4,848,455
05/18/2015
55.51
55.9
55.2809
55.79
3,860,862
05/15/2015
55.9
56
55.27
55.61
4,165,318
05/14/2015
55.12
55.86
55
55.605
4,109,116
05/13/2015
54.16
54.96
54.13
54.69
4,332,385
05/12/2015
54.2
54.5873
53.745
54.165
4,315,521
05/11/2015
54.62
54.75
54.31
54.44
4,204,433
05/08/2015
54.5
55.17
54.34
54.7
4,814,457
05/07/2015
53.97
54.4
53.82
54.06
5,846,085
05/06/2015
54.13
54.55
53.34
53.7
7,737,305
05/05/2015
54.97
55.03
53.8536
54.01
7,970,065
05/04/2015
55.3
55.61
55.01
55.295
4,061,568
05/01/2015
54.71
55.43
54.42
55.31
5,726,716
04/30/2015
54.91
55.15
53.92
54.21
6,756,944
04/29/2015
54.67
55.32
54.37
55.02
5,276,236
04/28/2015
55.31
55.52
54.64
55.09
6,730,080
04/27/2015
55.32
56.3
55.09
55.56
8,397,286
04/24/2015
54.68
54.83
54.13
54.73
10,533,630
04/23/2015
54.3
54.93
53.93
54.72
22,983,250
04/22/2015
58.54
58.86
57.97
58.73
4,423,140
04/21/2015
58.87
58.87
58.03
58.16
2,853,293
04/20/2015
57.6
58.53
57.6
58.17
3,219,201
04/17/2015
57.84
58.2
57.2
57.33
5,231,157
04/16/2015
58.14
58.575
58.08
58.41
4,049,567
04/15/2015
57.11
58.69
56.99
58.5
6,654,631
04/14/2015
57.15
57.41
56.58
56.75
3,875,078
04/13/2015
57.82
57.99
57.19
57.205
3,004,448
04/10/2015
57.83
57.85
57.54
57.7
3,410,154
04/09/2015
56.72
57.84
56.53
57.78
4,362,186
04/08/2015
56.8
57.29
56.56
56.97
4,142,189
04/07/2015
56.69
57.43
56.57
56.94
3,259,624
04/06/2015
56.19
57.15
55.86
56.81
3,120,491
04/02/2015
56.68
57.2
56.42
56.72
3,545,900
04/01/2015
57.05
57.23
56.23
56.535
5,322,936
03/31/2015
57.74
57.91
57.08
57.185
4,905,219
03/30/2015
57.1
58.12
56.84
58
5,336,098
03/27/2015
55.77
57.175
55.56
56.76
5,143,752
03/26/2015
55.09
56.25
54.62
55.8
6,830,785
03/25/2015
58.41
58.6
55.73
55.73
11,203,980
03/24/2015
58.79
59.02
58.41
58.44
3,659,702
03/23/2015
59.18
59.26
58.63
58.66
3,786,253
03/20/2015
58.9
59.53
58.73
59.28
9,146,089
03/19/2015
58.35
58.73
58.09
58.525
3,405,901
03/18/2015
58.17
58.69
56.93
58.3
6,238,989
03/17/2015
58.19
58.23
57.48
57.97
3,261,227
03/16/2015
57.49
58.44
57.375
58.33
5,162,120
03/13/2015
57.39
57.5
56.61
57.115
4,805,409
03/12/2015
56.5
57.34
56.35
57.22
3,707,891
03/11/2015
57.43
57.77
57.12
57.17
3,151,471
03/10/2015
57.85
58.17
57.07
57.1
5,721,902
03/09/2015
57.76
58.625
57.61
58.42
4,033,997
03/06/2015
58.2
58.31
57.45
57.64
4,476,864
03/05/2015
58.3
58.79
58.02
58.34
3,685,814
03/04/2015
58.52
58.67
57.86
58.32
4,473,901
03/03/2015
59.8
59.81
58.5
58.57
6,088,194
03/02/2015
59.07
59.99
58.96
59.94
4,572,544
02/27/2015
59.49
59.49
58.72
58.8
6,494,852
02/26/2015
59.27
59.49
58.91
59.42
5,273,426
02/25/2015
58.92
59.29
58.75
59.1
3,920,652
02/24/2015
58.09
59.01
58
58.96
4,426,198
02/23/2015
58.46
58.49
57.9101
58.27
3,053,362
02/20/2015
58.04
58.54
57.59
58.52
3,630,299
02/19/2015
57.89
58.19
57.74
58.04
2,422,256
02/18/2015
57.8
58.14
57.6
57.94
3,276,348
02/17/2015
57.67
58.46
57.55
58.2
7,962,538
02/13/2015
57.6
57.98
57.21
57.965
5,330,856
02/12/2015
56.49
57.5
56.3
57.44
7,063,911
02/11/2015
55.64
56.23
55.5
56
4,955,919
02/10/2015
54.75
55.865
54.57
55.82
5,654,434
02/09/2015
54.31
54.76
54.03
54.27
5,146,442
02/06/2015
55.29
55.45
54.27
54.36
7,715,910
02/05/2015
54.64
55.34
54.48
55.31
5,059,986
02/04/2015
54.01
54.9
54.01
54.615
7,963,038
02/03/2015
53.71
54.48
53.61
54.44
6,017,439
02/02/2015
53.5
53.76
52.4099
53.49
8,385,502
01/30/2015
53.98
54.6
53.35
53.45
12,515,290
01/29/2015
53.72
54.86
53.41
54.67
5,043,705
01/28/2015
54.75
55.251
53.85
53.935
7,393,500
01/27/2015
54.53
55.46
54.21
54.83
8,532,688
01/26/2015
54.7
55.3
54.359
55.05
6,125,335
01/23/2015
54.96
55.29
54.54
55.06
4,856,477
01/22/2015
54.32
54.98
53.34
54.97
5,484,241
01/21/2015
53.3
54.47
53.2
54.28
5,368,974
01/20/2015
53.49
54.145
53.19
53.805
7,213,420
01/16/2015
52.48
53.42
52.12
53.285
4,988,703
01/15/2015
52.91
53.24
52.2
52.385
5,796,291
01/14/2015
52.55
53.31
52.24
52.71
5,191,399
01/13/2015
53.57
54.28
52.46
52.79
5,013,889
01/12/2015
53.74
53.75
52.9
53.12
4,266,424
01/09/2015
53.48
53.98
53.09
53.6
3,913,678
01/08/2015
53.13
53.95
53.01
53.57
6,295,206
01/07/2015
52.01
52.87
51.79
52.71
4,576,916
01/06/2015
52.89
53.02
51.72
51.78
5,468,293
01/05/2015
53.19
53.49
52.6
52.645
5,574,294
01/02/2015
53.56
54.08
53.011
53.48
4,025,175
12/31/2014
54.2
54.25
53.44
53.465
4,068,470
12/30/2014
54.37
54.37
53.91
53.93
2,626,882
12/29/2014
54.7
54.81
54.38
54.455
2,381,024
12/26/2014
54.91
55.02
54.7001
54.745
1,839,128
12/24/2014
54.99
55.09
54.84
54.86
1,442,861
12/23/2014
54.96
55.34
54.725
54.78
3,436,936
12/22/2014
54.49
54.95
54.33
54.82
4,285,270
12/19/2014
54.95
54.95
54.02
54.23
10,568,760
12/18/2014
54.51
54.53
54
54.47
8,113,260
12/17/2014
52.45
53.665
51.96
53.5
8,881,438
12/16/2014
53
53.76
52.42
52.47
7,170,830
12/15/2014
53.64
53.99
52.775
53.065
7,469,426
12/12/2014
53.94
54.595
52.945
53.11
8,428,044
12/11/2014
54.29
54.855
54.15
54.485
6,516,017
12/10/2014
54.92
55.2
54.03
54.095
5,837,070
12/09/2014
54.54
55.41
54.31
55.01
8,379,211
12/08/2014
55.14
55.995
54.81
55.08
5,914,110
12/05/2014
55.65
55.72
55.24
55.58
3,923,452
12/04/2014
55.3
55.78
55.16
55.41
4,123,252
12/03/2014
54.86
55.68
54.55
55.62
5,441,128
12/02/2014
54.33
54.65
54.03
54.56
4,051,117
12/01/2014
54.27
54.47
53.62
54.25
5,828,149
11/28/2014
54.55
54.74
54.26
54.42
3,628,647
11/26/2014
52.53
54.35
52.51
54.33
7,216,728
11/25/2014
52.85
53.04
52.315
52.44
5,322,887
11/24/2014
53
53.12
52.445
52.85
3,441,571
11/21/2014
52.64
52.98
52.04
52.56
5,255,576
11/20/2014
51.75
52.26
51.5
52.23
4,758,356
11/19/2014
51.8
51.96
51.35
51.94
6,590,356
11/18/2014
51.55
52.08
51.35
51.84
4,627,144
11/17/2014
51.55
51.62
51.08
51.55
3,218,799
11/14/2014
50.88
51.65
50.88
51.63
3,514,851
11/13/2014
51.15
51.69
50.9299
51.18
4,411,235
11/12/2014
51.32
51.45
50.75
51.28
4,093,026
11/11/2014
51.8
51.8
51.13
51.315
4,263,357
11/10/2014
50.9
51.63
50.85
51.56
4,433,107
11/07/2014
51.1
51.165
50.58
50.9
4,927,477
11/06/2014
51.05
51.35
50.561
50.905
6,300,673
11/05/2014
50.48
51.18
50.27
51.13
5,302,564
11/04/2014
49.97
50.455
49.75
50.4
6,279,629
11/03/2014
49.65
50.3
49.55
50.08
6,853,842
10/31/2014
49.15
50.21
48.75
49.66
14,551,110
10/30/2014
48.14
48.32
46.875
47.53
11,332,610
10/29/2014
48.13
48.56
47.99
48.33
8,050,890
10/28/2014
48.1
48.5
47.84
48.5
6,225,024
10/27/2014
47.64
48.06
47.13
47.95
7,492,354
10/24/2014
47.13
47.63
46.77
47.57
5,606,926
10/23/2014
47.18
47.43
46.84
47
6,848,920
10/22/2014
47.41
47.68
46.59
46.62
11,651,150
10/21/2014
45.54
46.84
45.0801
46.77
15,036,650
10/20/2014
43.49
44.5
43.19
44.41
9,408,402
10/17/2014
43.95
44.62
43.58
43.67
12,929,030
10/16/2014
42.04
43.9
42.04
43.59
11,282,890
10/15/2014
41.74
43.13
41.7
42.76
14,396,050
10/14/2014
42.61
43.05
42.12
42.31
9,357,385
10/13/2014
42.57
43.15
41.47
41.93
15,196,190
10/10/2014
44.3
44.3
41.57
42.74
33,158,380
10/09/2014
46.71
47.04
45.98
46.02
8,883,928
10/08/2014
46.17
47.11
45.7
46.94
8,036,327
10/07/2014
46.37
46.52
45.9
46.01
8,099,746
10/06/2014
46.97
47.25
46.31
46.625
4,733,540
10/03/2014
47
47.395
46.62
46.82
5,889,917
10/02/2014
46.77
47.07
46.1273
46.84
5,639,440
10/01/2014
47.51
47.72
46.82
46.88
7,854,559
09/30/2014
48.2
48.53
47.545
47.69
6,431,728
09/29/2014
48.01
48.465
47.91
48.26
3,160,794
09/26/2014
48.18
48.465
48.04
48.33
3,601,719
09/25/2014
48.74
48.84
48.06
48.14
5,112,256
09/24/2014
48.66
48.946
48.56
48.81
5,125,556
09/23/2014
48.32
48.96
48.32
48.655
5,645,070
09/22/2014
48.69
48.75
48.26
48.66
5,756,455
09/19/2014
49
49.37
48.65
48.75
12,490,670
09/18/2014
48.47
49.04
48.34
48.98
3,778,501
09/17/2014
47.97
48.63
47.91
48.37
3,662,033
09/16/2014
47.35
48.08
47.1
47.92
5,438,292
09/15/2014
47.11
47.95
47.11
47.59
3,181,866
09/12/2014
47.93
48.18
47.46
47.83
4,838,306
09/11/2014
47.8
48.22
47.7
48.15
3,165,874
09/10/2014
48.42
48.42
47.825
47.99
5,435,911
09/09/2014
48.39
48.52
48.2
48.28
3,153,738
09/08/2014
48.39
48.77
48.32
48.49
3,945,935
09/05/2014
48.31
48.59
48.21
48.58
3,648,558
09/04/2014
48.5
48.56
48.16
48.25
3,480,181
09/03/2014
48.31
48.37
47.91
48.35
3,884,310
09/02/2014
48.43
48.43
47.65
47.905
3,250,797
08/29/2014
48.31
48.34
47.89
48.18
3,432,990
08/28/2014
47.61
48.16
47.49
48.02
3,427,334
08/27/2014
47.62
47.84
47.23
47.78
4,881,193
08/26/2014
47.46
47.645
47.31
47.49
4,535,230
08/25/2014
48.37
48.5
47.26
47.37
4,836,355
08/22/2014
48.26
48.35
47.96
48.02
3,196,899
08/21/2014
47.94
48.23
47.8
48.17
3,642,305
08/20/2014
47.68
47.99
47.67
47.88
5,228,840
08/19/2014
47.61
47.92
47.45
47.69
3,074,745
08/18/2014
47.55
47.74
47.36
47.56
3,775,799
08/15/2014
47.67
47.73
46.985
47.56
5,854,093
08/14/2014
47.18
47.329
47.01
47.26
2,550,673
08/13/2014
47.2
47.2
46.83
47.08
5,457,832
08/12/2014
46.25
46.74
46.245
46.665
3,788,180
08/11/2014
46.2
46.82
46.2
46.5
3,359,752
08/08/2014
45.9
46.39
45.845
46.33
4,992,326
08/07/2014
46.45
46.5
45.6
45.67
6,689,413
08/06/2014
45.88
46.44
45.78
46.17
4,940,886
08/05/2014
46.46
46.46
45.92
45.99
7,867,456
08/04/2014
46.2
46.505
46.05
46.39
5,327,074
08/01/2014
46.27
46.63
46.115
46.24
7,199,265
07/31/2014
46.84
46.94
46.02
46.25
8,564,888
07/30/2014
47
47.38
46.76
47.23
5,408,091
07/29/2014
47.19
47.48
46.77
46.77
6,070,212
07/28/2014
46.85
47.44
46.38
47.35
11,240,900
07/25/2014
47.73
47.73
46.77
46.82
9,472,069
07/24/2014
48.5
48.61
47.78
47.86
9,387,143
07/23/2014
49.22
49.24
48.15
48.195
12,255,390
07/22/2014
49
49.24
48.44
49.12
8,210,488
07/21/2014
48.08
49.34
48.08
49.17
7,635,445
07/18/2014
48.42
48.97
48.17
48.82
5,178,802
07/17/2014
48.53
48.93
48.055
48.15
5,321,344
07/16/2014
49
49.2
48.81
49.05
4,894,528
07/15/2014
48.98
49.1199
48.42
48.66
5,461,604
07/14/2014
49.44
49.53
48.86
48.92
5,098,642
07/11/2014
48.83
49.29
48.83
49.29
4,231,398
07/10/2014
48.76
49.09
48.282
48.995
4,907,412
07/09/2014
49.06
49.41
48.8299
49.28
4,378,169
07/08/2014
48.52
49.04
48.52
48.85
4,789,762
07/07/2014
48.73
49.085
48.73
48.92
2,895,776
07/03/2014
48.58
48.98
48.5
48.95
1,689,539
07/02/2014
48.33
48.67
48.33
48.51
2,825,514
07/01/2014
48.03
48.73
47.93
48.49
4,714,541
06/30/2014
47.67
47.95
47.48
47.79
3,026,081
06/27/2014
47.72
47.78
47.37
47.76
4,002,549
06/26/2014
48.04
48.05
47.38
47.79
3,533,031
06/25/2014
46.66
48.11
46.55
48.04
3,644,997
06/24/2014
47.89
48.2
47.64
47.71
3,732,837
06/23/2014
47.98
48.17
47.82
48.08
3,002,443
06/20/2014
48.06
48.22
47.555
47.94
8,463,866
06/19/2014
48.08
48.21
47.6152
47.91
5,185,395
06/18/2014
48.28
48.3
47.63
47.87
3,973,118
06/17/2014
47.96
48.315
47.92
48.26
3,845,290
06/16/2014
48.05
48.29
47.8
48.13
4,473,171
06/13/2014
48.28
48.45
47.9107
48.33
4,763,509
06/12/2014
47.89
48.235
47.83
48.14
5,782,612
06/11/2014
47.86
48.24
47.67
48.09
3,333,324
06/10/2014
47.78
47.98
47.65
47.97
2,682,948
06/09/2014
47.54
47.97
47.48
47.88
4,376,710
06/06/2014
47.69
47.77
47.38
47.5
2,965,790
06/05/2014
45.86
47.49
45.65
47.4
4,038,157
06/04/2014
47.19
47.19
46.77
46.85
3,494,431
06/03/2014
46.93
47.19
46.78
46.99
3,950,213
06/02/2014
47
47.2402
46.78
46.99
3,379,655
05/30/2014
46.84
47
46.44
46.98
4,576,080
05/29/2014
46.57
46.66
46.39
46.66
2,975,287
05/28/2014
46.29
46.53
45.9701
46.46
3,976,397
05/27/2014
46.38
46.785
46.24
46.35
4,594,862
05/23/2014
46.08
46.3
45.92
46.25
3,864,514
05/22/2014
45.74
46.26
45.62
46.14
4,279,686
05/21/2014
45.94
45.95
45.35
45.65
3,993,274
05/20/2014
45.42
45.83
45.38
45.71
4,425,753
05/19/2014
45.21
45.83
45.13
45.6
4,692,118
05/16/2014
45.12
45.22
44.75
44.99
6,593,450
05/15/2014
45.53
45.66
44.68
44.89
8,447,509
05/14/2014
45.83
46.284
45.46
45.61
6,236,454
05/13/2014
46.91
47.01
46.1
46.14
8,041,507
05/12/2014
46.13
47.15
45.98
46.95
6,386,905
05/09/2014
46.04
46.18
45.4799
45.84
5,549,772
05/08/2014
45.59
46.6
45.37
46.11
6,113,012
05/07/2014
45.33
45.66
45.08
45.58
4,485,471
05/06/2014
45.63
45.86
45.32
45.38
4,431,228
05/05/2014
45.49
45.86
45.38
45.72
3,970,772
05/02/2014
45.57
45.97
45.25
45.78
6,002,442
05/01/2014
45.91
46
45.15
45.23
9,210,836
04/30/2014
45.96
46.17
45.43
45.45
9,905,623
04/29/2014
45.82
46.22
45.63
46.12
7,777,623
04/28/2014
46.46
46.73
45.2101
45.45
13,419,290
04/25/2014
47.99
48.164
45.94
46.34
12,403,770
04/24/2014
47.78
49.11
47.6301
48.47
13,403,200
04/23/2014
46.55
47
46.42
46.46
5,736,760
04/22/2014
45.88
46.71
45.542
46.59
4,981,378
04/21/2014
46.18
46.24
45.68
46.11
2,978,915
04/17/2014
45.35
46.06
45.08
45.83
6,542,385
04/16/2014
45.7
45.73
44.54
45.21
8,908,138
04/15/2014
45.38
45.99
45.04
45.81
6,504,618
04/14/2014
45.76
45.76
44.92
45.32
5,175,064
04/11/2014
44.77
45.74
44.73
44.98
8,361,488
04/10/2014
47.12
47.29
45.52
45.53
8,470,513
04/09/2014
46.95
47.355
46.56
47.24
4,396,538
04/08/2014
46.36
46.9
46.28
46.77
5,988,927
04/07/2014
46.29
46.9
46.02
46.25
7,277,968
04/04/2014
47.89
48
46.23
46.34
7,418,802
04/03/2014
47.73
47.89
47.5
47.69
2,603,020
04/02/2014
47.58
47.97
47.465
47.62
5,153,930
04/01/2014
47.32
49.77
47.12
47.53
6,467,807
03/31/2014
47.06
47.44
46.86
47.16
4,617,105
03/28/2014
46.23
47.06
46.12
46.64
4,297,417
03/27/2014
46.45
46.615
46
46.08
4,925,031
03/26/2014
46.98
47.25
46.23
46.39
6,807,325
03/25/2014
46.84
46.9
46.1
46.69
6,606,520
03/24/2014
46.8
47
46.2
46.57
6,852,982
03/21/2014
47.43
47.65
46.49
47.15
21,693,300
03/20/2014
45.55
46.97
45.41
46.95
7,694,016
03/19/2014
45.51
46.01
45.27
45.52
5,830,908
03/18/2014
45.21
45.65
45.065
45.4
4,082,128
03/17/2014
44.54
45.52
44.41
45.27
5,886,442
03/14/2014
44.95
45.29
44.29
44.31
10,047,310
03/13/2014
46.5
46.78
44.915
44.99
9,890,429
03/12/2014
45.52
46.6
45.52
46.43
9,523,404
03/11/2014
45.99
46.24
45.295
45.67
4,978,136
03/10/2014
45.91
46
45.53
45.87
3,370,329
03/07/2014
45.88
46.035
45.62
45.85
3,872,438
03/06/2014
45.31
45.75
45.21
45.68
4,803,092
03/05/2014
44.15
45.595
44.15
45.18
5,094,793
03/04/2014
44.83
45.41
44.82
45.26
5,112,185
03/03/2014
44.68
44.94
44.35
44.58
4,679,442
02/28/2014
44.88
45.19
44.58
44.96
5,772,734
02/27/2014
44.53
44.82
44.475
44.78
4,343,463
02/26/2014
44.5
44.94
44.49
44.63
4,532,065
02/25/2014
44.49
44.71
44.07
44.47
5,303,940
02/24/2014
44.22
44.83
44.195
44.45
5,299,305
02/21/2014
44.405
44.43
44.02
44.15
5,669,450
02/20/2014
43.85
44.26
43.795
44.2
5,371,067
02/19/2014
43.83
44.15
43.67
43.93
5,346,634
02/18/2014
43.75
44.07
43.24
44.01
5,826,091
02/14/2014
43.52
43.94
43.4
43.86
4,919,131
02/13/2014
43.05
43.75
43.05
43.74
5,029,095
02/12/2014
43.24
43.44
43.01
43.3
5,041,235
02/11/2014
42.76
43.29
42.31
43.13
7,149,283
02/10/2014
41.97
42.37
41.89
42.36
4,661,945
02/07/2014
41.56
42
41.29
41.95
6,035,342
02/06/2014
41.19
41.435
41
41.23
4,734,540
02/05/2014
40.63
41.13
40.33
40.97
9,254,341
02/04/2014
41.6
41.7
40.85
40.89
10,529,910
02/03/2014
42.42
42.5
41.38
41.5
12,669,360
01/31/2014
41.35
42.65
41.26
42.4
12,821,700
01/30/2014
42.61
42.93
42.43
42.69
6,703,008
01/29/2014
42.32
42.75
42.24
42.4
8,619,603
01/28/2014
42.58
42.93
42.3
42.9
6,356,112
01/27/2014
42.95
43.27
42.5501
42.64
7,360,043
01/24/2014
43.79
44.03
42.88
42.95
10,931,650
01/23/2014
44.12
44.55
43.95
44.09
8,236,434
01/22/2014
43.7
44.82
43.55
44.61
9,821,970
01/21/2014
43.75
43.93
43.37
43.85
7,372,832
01/17/2014
43.2
43.85
43.01
43.45
6,614,186
01/16/2014
43.52
43.6
43.24
43.37
4,086,878
01/15/2014
43.45
43.65
43.1
43.54
6,603,580
01/14/2014
42.5
43.4
42.35
43.34
6,892,728
01/13/2014
42.96
43.1
42.12
42.24
6,759,128
01/10/2014
43.15
43.25
42.74
43.11
5,330,933
01/09/2014
43.28
43.39
42.9
43.06
3,383,782
01/08/2014
42.96
43.32
42.62
43.29
6,289,134
01/07/2014
42.98
43.11
42.64
42.7
5,078,877
01/06/2014
43.25
43.28
42.845
42.93
4,446,263
01/03/2014
43.12
43.46
42.97
43.29
4,693,347
01/02/2014
43.44
43.5
42.88
43.1
6,959,175
12/31/2013
44.04
44.0899
43.785
43.91
2,631,332
12/30/2013
43.5
43.91
43.485
43.9
2,445,666
12/27/2013
43.77
43.83
43.59
43.67
1,938,027
12/26/2013
43.52
43.65
43.45
43.59
1,960,056
12/24/2013
43.31
43.6
43.25
43.43
1,339,874
12/23/2013
43
43.41
42.9
43.36
3,908,551
12/20/2013
42.76
42.995
42.491
42.84
8,599,541
12/19/2013
43.11
43.11
42.279
42.46
4,910,199
12/18/2013
42.51
43.1
42.05
43.1
6,390,681
12/17/2013
42.26
42.61
42.23
42.43
3,570,537
12/16/2013
42.18
42.58
42.05
42.29
4,141,563
12/13/2013
42.65
42.78
41.91
41.95
5,595,970
12/12/2013
42.33
42.75
42.3
42.42
6,970,458
12/11/2013
43.45
43.5
42.78
42.81
4,169,104
12/10/2013
43.49
43.65
43.28
43.41
5,146,150
12/09/2013
43.65
43.67
43.32
43.58
5,121,749
12/06/2013
43.01
43.555
43.01
43.49
4,793,992
12/05/2013
42.48
42.73
42.385
42.66
4,486,691
12/04/2013
42.67
43.07
42.22
42.43
6,592,523
12/03/2013
42.62
42.94
42.39
42.84
6,318,691
12/02/2013
42.95
43
42.72
42.81
4,389,558
11/29/2013
42.63
43.08
42.51
43
3,756,415
11/27/2013
42.1
42.58
41.94
42.52
4,764,288
11/26/2013
42.59
42.85
42.56
42.7
4,180,036
11/25/2013
42.66
42.74
42.42
42.55
6,006,477
11/22/2013
42.43
42.67
42.15
42.64
4,987,204
11/21/2013
42.08
42.49
42.01
42.44
3,826,736
11/20/2013
42.4
42.4
41.81
41.93
4,858,796
11/19/2013
42.48
42.7
42.09
42.15
3,604,960
11/18/2013
42.62
42.7
42.33
42.44
3,985,904
11/15/2013
42.6
42.74
42.29
42.55
4,231,822
11/14/2013
42.23
42.75
42.21
42.63
5,893,814
11/13/2013
41.65
42.41
41.51
42.39
7,085,846
11/12/2013
41.61
41.99
41.61
41.85
4,176,771
11/11/2013
41.94
42
41.64
41.79
4,291,014
11/08/2013
41.84
42.04
41.56
41.98
5,590,102
11/07/2013
42.26
42.3
41.51
41.65
6,335,398
11/06/2013
42.11
42.26
41.9
42.14
4,637,285
11/05/2013
41.75
42.04
41.5
41.9
5,350,410
11/04/2013
42.18
42.24
41.8901
41.99
3,681,570
11/01/2013
42.36
42.37
41.815
42.03
6,033,849
10/31/2013
41.7
42.34
41.65
42.085
9,643,523
10/30/2013
41.66
42.33
41.56
41.72
11,277,930
10/29/2013
41.41
41.77
40.915
41.76
11,073,640
10/28/2013
40.13
41.065
40.09
41.01
11,541,550
10/25/2013
39.95
40.27
39.79
40.23
7,152,096
10/24/2013
39.65
40.275
39.65
39.88
6,663,588
10/23/2013
40
40.11
39.19
39.73
12,010,810
10/22/2013
40.18
40.46
39.785
40.28
12,993,960
10/21/2013
40.55
41.22
40.54
40.99
9,391,307
10/18/2013
40.69
40.76
40.34
40.71
5,724,381
10/17/2013
40.28
40.72
40.09
40.645
4,972,465
10/16/2013
39.99
40.77
39.74
40.749
8,265,333
10/15/2013
40.51
40.6
40.21
40.25
6,409,420
10/14/2013
40.23
40.64
40.14
40.55
6,080,440
10/11/2013
39.82
40.43
39.82
40.38
4,500,146
10/10/2013
39.57
40.245
39.56
40.12
6,383,890
10/09/2013
39.32
39.485
38.925
39.29
6,859,193
10/08/2013
39.9
39.9
39.2
39.24
6,378,292
10/07/2013
39.61
40.215
39.52
39.86
5,790,904
10/04/2013
40.25
40.25
39.83
39.93
6,539,277
10/03/2013
40.06
40.36
39.81
40.221
5,899,215
10/02/2013
40.11
40.465
40.08
40.26
4,255,061
10/01/2013
40.34
40.55
40.23
40.4
3,942,030
09/30/2013
39.88
40.41
39.68
40.29
5,516,278
09/27/2013
40.25
40.33
40
40.16
3,799,270
09/26/2013
40.52
40.54
40.145
40.38
3,275,451
09/25/2013
40.43
40.52
40.21
40.319
4,410,796
09/24/2013
40.45
40.56
40.23
40.315
4,365,966
09/23/2013
40.5
40.62
40.251
40.47
5,780,228
09/20/2013
40.89
40.91
40.51
40.52
7,179,046
09/19/2013
40.91
40.94
40.67
40.795
5,066,776
09/18/2013
40.7
40.9
40.545
40.85
7,654,377
09/17/2013
40.66
40.84
40.39
40.73
4,061,198
09/16/2013
40.5
40.575
40.28
40.45
5,415,927
09/13/2013
40.06
40.3
39.74
40.28
4,272,345
09/12/2013
39.93
40.11
39.66
39.905
5,855,641
09/11/2013
40.05
40.39
39.96
40.03
6,720,003
09/10/2013
39.96
40.36
39.88
40.31
6,424,038
09/09/2013
39.39
39.84
39.25
39.75
3,606,973
09/06/2013
39.6
39.6
38.98
39.18
4,770,411
09/05/2013
39.36
39.58
39.2925
39.482
4,373,778
09/04/2013
38.77
39.47
38.525
39.37
6,224,445
09/03/2013
38.62
39.091
38.48
38.64
4,466,824
08/30/2013
38.64
38.65
38.06
38.2
4,377,337
08/29/2013
38.38
38.82
38.26
38.61
3,192,425
08/28/2013
38.37
38.69
38.1425
38.43
5,114,996
08/27/2013
38.81
38.81
38.12
38.25
9,172,183
08/26/2013
39.16
39.56
39.04
39.19
6,765,227
08/23/2013
38.93
39.14
38.71
39.07
5,162,511
08/22/2013
38.62
38.95
38.35
38.82
4,252,248
08/21/2013
38.3
38.76
38
38.45
9,314,168
08/20/2013
38.58
38.86
38.45
38.75
5,427,972
08/19/2013
38.94
39.03
38.41
38.44
5,365,754
08/16/2013
38.63
39.05
38.44
38.74
5,714,586
08/15/2013
38.67
38.9
38.36
38.65
8,551,240
08/14/2013
39.78
39.79
39.04
39.17
11,735,100
08/13/2013
39.7
39.92
39.45
39.76
4,100,307
08/12/2013
39.48
39.92
39.48
39.71
3,506,630
08/09/2013
39.55
39.94
39.51
39.78
5,768,639
08/08/2013
39.85
39.96
39.42
39.65
3,897,346
08/07/2013
39.55
39.89
39.49
39.65
4,513,251
08/06/2013
39.81
39.99
39.53
39.73
5,140,104
08/05/2013
39.72
39.9
39.66
39.86
4,514,344
08/02/2013
39.63
39.99
39.41
39.94
9,274,754
08/01/2013
39.36
39.9
39.25
39.82
8,618,730
07/31/2013
38.98
39.35
38.78
39.18
8,871,299
07/30/2013
38.73
39.05
38.62
38.76
6,160,008
07/29/2013
38.62
38.99
38.54
38.59
4,970,320
07/26/2013
38.76
39.12
38.75
39.11
6,964,998
07/25/2013
38.91
39.27
38.73
39.25
9,191,414
07/24/2013
38.97
39.21
38.66
38.93
10,252,170
07/23/2013
38.65
39.74
38.58
38.93
21,689,730
07/22/2013
37.55
37.6
37.225
37.42
7,868,934
07/19/2013
37.53
37.6
37.13
37.26
8,136,983
07/18/2013
37.89
38.1
37.56
37.6
6,911,193
07/17/2013
37.93
38.161
37.8
37.9
5,810,898
07/16/2013
37.89
37.95
37.62
37.82
5,192,470
07/15/2013
37.49
37.83
37.41
37.79
6,279,459
07/12/2013
37.2
37.49
37.01
37.49
6,618,869
07/11/2013
36.86
37.31
36.84
37.17
10,298,870
07/10/2013
36.06
36.67
36.06
36.59
7,032,338
07/09/2013
36
36.41
35.96
36.24
6,284,900
07/08/2013
36.13
36.16
35.41
35.69
8,024,115
07/05/2013
35.76
36.02
35.52
36
5,764,584
07/03/2013
34.85
35.775
34.81
35.47
4,081,279
07/02/2013
34.89
35.66
34.83
35.13
7,795,584
07/01/2013
34.95
35.38
34.935
35.045
5,246,645
06/28/2013
34.59
35.075
34.51
34.85
11,343,220
06/27/2013
35.06
35.19
34.85
34.85
6,719,802
06/26/2013
35.28
35.41
34.91
34.96
6,596,844
06/25/2013
34.63
35.16
34.47
35.02
7,825,764
06/24/2013
34.82
34.96
34.095
34.19
9,087,373
06/21/2013
34.79
35.06
34.4
34.95
14,860,270
06/20/2013
35.41
35.5
34.52
34.625
8,734,533
06/19/2013
36.23
36.29
35.61
35.71
5,850,248
06/18/2013
35.89
36.34
35.68
36.12
5,629,763
06/17/2013
35.8
36.245
35.6
35.78
6,750,649
06/14/2013
35.36
35.77
35.24
35.48
6,267,594
06/13/2013
34.85
35.58
34.58
35.48
7,036,303
06/12/2013
35.5
35.53
34.655
34.79
8,378,374
06/11/2013
36
36.02
35.17
35.26
9,795,148
06/10/2013
36.25
36.76
36.12
36.62
7,920,060
06/07/2013
35.98
36.25
35.661
36.18
5,828,175
06/06/2013
35.83
36.07
35.21
35.67
6,104,873
06/05/2013
36.61
36.61
35.81
35.87
6,851,896
06/04/2013
36.42
36.995
36.42
36.64
9,021,412
06/03/2013
35.94
36.19
35.73
36.03
8,377,853
05/31/2013
36.08
36.41
35.88
35.91
8,188,806
05/30/2013
35.92
36.63
35.92
36.47
15,271,650
05/29/2013
36.04
36.29
35.87
36.09
7,806,393
05/28/2013
36.65
36.72
36.125
36.2
5,578,405
05/24/2013
35.74
36.01
35.525
35.99
4,786,860
05/23/2013
35.73
36.16
35.53
35.99
7,566,104
05/22/2013
36.48
36.74
35.811
36.01
10,121,860
05/21/2013
36.7
36.8
36.51
36.6
6,648,748
05/20/2013
36.75
36.835
36.58
36.63
8,727,602
05/17/2013
36.68
36.83
36.57
36.77
10,018,600
05/16/2013
36.79
36.98
36.575
36.6
10,209,260
05/15/2013
36.57
36.88
36.46
36.81
11,921,990
05/14/2013
36.53
36.8
36.48
36.51
7,124,841
05/13/2013
36.92
37.03
36.54
36.54
9,398,617
05/10/2013
37.23
37.23
36.86
37.04
8,742,292
05/09/2013
37
37.355
36.94
37.01
7,752,341
05/08/2013
36.92
37.23
36.91
37.09
6,355,827
05/07/2013
37.11
37.15
36.86
37.04
5,786,093
05/06/2013
37.19
37.25
36.81
37.04
6,140,180
05/03/2013
36.94
37.2
36.87
37.01
11,802,560
05/02/2013
36.58
36.9
36.3
36.7
9,582,007
05/01/2013
36.25
36.8
35.86
36.41
15,211,930
04/30/2013
35.95
36.24
35.755
36.21
7,430,688
04/29/2013
35.98
36.1
35.68
35.97
5,335,429
04/26/2013
35.58
35.89
35.5
35.74
6,990,777
04/25/2013
36.16
36.26
35.93
36.11
11,218,600
04/24/2013
35.53
36.14
35.33
36.01
12,074,140
04/23/2013
35.32
36.23
35.16
35.7
15,246,440
04/22/2013
34.31
35.6
34.06
34.81
10,686,770
04/19/2013
33.83
34.395
33.56
34.25
10,701,050
04/18/2013
34.65
34.81
33.875
33.92
12,616,870
04/17/2013
35
35.03
34.01
34.21
17,043,800
04/16/2013
35.43
35.86
35.16
35.735
9,311,434
04/15/2013
35.58
35.88
35.27
35.27
9,515,413
04/12/2013
35.67
35.88
35.23
35.85
6,753,032
04/11/2013
35.45
35.92
35.37
35.69
10,085,570
04/10/2013
35.35
35.77
35.23
35.755
8,048,108
04/09/2013
35.11
35.395
34.8
35.16
7,745,329
04/08/2013
34.29
35.08
34.26
35.07
8,662,703
04/05/2013
34.11
34.23
33.81
34.2
11,091,930
04/04/2013
34.26
34.63
34.08
34.49
9,406,403
04/03/2013
34.74
34.89
34
34.15
13,613,910
04/02/2013
34.79
35.02
34.57
34.765
8,763,213
04/01/2013
35.26
35.56
34.86
35.01
11,066,860
03/28/2013
35.01
35.5
34.995
35.48
8,651,788
03/27/2013
34.82
35.12
34.555
35.08
8,214,580
03/26/2013
34.74
35.11
34.62
35.095
7,249,152
03/25/2013
34.56
34.88
34.31
34.48
7,552,711
03/22/2013
34.49
34.72
34.33
34.46
7,597,934
03/21/2013
34.78
34.925
34.235
34.29
9,540,115
03/20/2013
34.92
35.15
34.81
35.06
7,555,902
03/19/2013
34.69
34.91
34.29
34.66
11,003,550
03/18/2013
34.21
34.98
34.21
34.62
9,094,558
03/15/2013
35.2
35.4
34.85
35.08
14,808,910
03/14/2013
35.5
35.73
35.32
35.38
8,675,966
03/13/2013
35.2
35.38
35.05
35.29
9,363,005
03/12/2013
35.5
35.72
35.315
35.62
10,862,800
03/11/2013
35.27
35.59
35.11
35.52
8,907,490
03/08/2013
35.3
35.32
34.82
35.29
11,510,450
03/07/2013
35.19
35.25
35.06
35.2
8,422,986
03/06/2013
35.03
35.26
34.95
35.14
8,705,919
03/05/2013
34.68
35.01
34.59
35
12,979,700
03/04/2013
34.44
34.57
34.11
34.56
7,424,740
03/01/2013
34.13
34.57
33.83
34.52
9,336,814
02/28/2013
34.37
34.66
34.24
34.428
13,412,990
02/27/2013
33.8
34.48
33.71
34.29
7,104,557
02/26/2013
33.71
33.98
33.62
33.76
9,811,749
02/25/2013
34.2
34.45
33.705
33.73
13,942,680
02/22/2013
33.15
34.25
33.15
34.18
20,542,530
02/21/2013
32.99
33
32.19
32.48
11,403,510
02/20/2013
33.98
33.985
33.05
33.06
8,968,316
02/19/2013
33.72
34.06
33.43
33.94
6,097,914
02/15/2013
33.83
33.86
33.395
33.585
6,519,025
02/14/2013
33.49
33.84
33.3
33.79
6,394,142
02/13/2013
33.62
33.885
33.54
33.72
5,424,613
02/12/2013
33.59
33.7
33.41
33.56
7,055,415
02/11/2013
34.18
34.19
33.66
33.69
8,274,909
02/08/2013
33.61
34.29
33.555
34.28
13,022,820
02/07/2013
33.48
33.55
32.92
33.42
10,626,240
02/06/2013
33.6
33.69
33.39
33.56
9,102,377
02/05/2013
33.43
33.86
33.21
33.75
8,434,085
02/04/2013
33.5
33.69
33.25
33.27
16,353,330
02/01/2013
33.18
33.75
33.08
33.72
13,853,640
01/31/2013
32.82
33.11
32.66
33.08
13,790,220
01/30/2013
32.63
32.97
32.59
32.82
8,352,608
01/29/2013
32.61
32.83
32.39
32.67
6,181,245
01/28/2013
32.84
33.31
32.81
33.04
7,772,993
01/25/2013
33.15
33.285
32.71
32.8
8,435,175
01/24/2013
33.15
33.61
33.01
33.09
7,827,487
01/23/2013
33.25
33.3
32.8
33.08
9,511,862
01/22/2013
33.35
33.47
33.13
33.46
13,018,650
01/18/2013
33.03
33.54
33.02
33.52
13,294,670
01/17/2013
32.51
33.25
32.45
33.15
9,193,856
01/16/2013
32.18
32.56
32.08
32.51
5,415,248
01/15/2013
32.14
32.3755
31.97
32.28
4,921,246
01/14/2013
32.25
32.64
32.25
32.34
5,516,423
01/11/2013
32.41
32.64
32.33
32.42
5,376,454
01/10/2013
32.11
32.57
32.08
32.43
8,018,612
01/09/2013
31.58
32.01
31.57
32
6,753,942
01/08/2013
31.75
31.995
31.39
31.5528
6,902,787
01/07/2013
31.77
32.19
31.77
31.92
7,391,684
01/04/2013
32
32.18
31.75
31.8219
7,606,567
01/03/2013
32.15
32.28
31.775
31.89
8,832,471
01/02/2013
31.55
32.41
31.49
32.31
13,357,320
12/31/2012
30.48
30.985
30.3
30.89
7,152,574
12/28/2012
30.55
30.89
30.44
30.47
4,822,277
12/27/2012
30.74
30.93
30.44
30.74
6,178,996
12/26/2012
30.91
31.16
30.75
30.805
4,503,687
12/24/2012
30.82
30.95
30.66
30.93
1,981,906
12/21/2012
30.93
31.08
30.4
30.93
13,372,980
12/20/2012
31.25
31.3575
30.97
31.28
6,976,920
12/19/2012
31.35
31.81
31.25
31.25
8,054,727
12/18/2012
31
31.55
30.865
31.34
9,266,103
12/17/2012
30.48
30.99
30.44
30.905
7,373,931
12/14/2012
30.45
31.1
30.36
30.7993
9,093,267
12/13/2012
30.92
31.25
30.44
30.58
7,443,486
12/12/2012
31.07
31.27
30.71
31.06
11,707,000
12/11/2012
29.95
31.14
29.9
31.01
16,770,010
12/10/2012
29.82
29.945
29.71
29.82
7,237,657
12/07/2012
29.88
29.89
29.52
29.85
5,015,208
12/06/2012
29.82
30.06
29.64
29.81
5,625,297
12/05/2012
29.58
29.94
29.48
29.86
5,796,909
12/04/2012
29.64
29.785
29.39
29.605
8,286,255
12/03/2012
29.76
29.85
29.555
29.61
5,747,945
11/30/2012
30.06
30.2
29.44
29.47
11,689,140
11/29/2012
29.8
30.1
29.65
30.05
8,044,810
11/28/2012
29.34
29.83
29.05
29.78
8,315,671
11/27/2012
29.64
29.78
29.4
29.46
6,340,540
11/26/2012
29.52
29.78
29.29
29.625
6,133,441
11/23/2012
29.44
29.84
29.17
29.59
4,249,850
11/21/2012
29.3
29.42
29.06
29.2
5,355,650
11/20/2012
28.76
29.31
28.6
29.31
9,087,374
11/19/2012
28.7
28.94
28.45
28.9
8,284,470
11/16/2012
28.82
28.95
28.05
28.32
12,828,630
11/15/2012
28.75
29.08
28.65
28.79
9,833,876
11/14/2012
29.43
29.64
28.7
28.76
10,024,850
11/13/2012
29.31
29.735
29.29
29.38
9,544,099
11/12/2012
29.56
29.69
29.34
29.505
7,221,273
11/09/2012
29.13
29.9
29
29.51
11,330,700
11/08/2012
29.26
29.5
29.12
29.14
8,314,133
11/07/2012
29.62
29.73
28.97
29.29
10,179,190
11/06/2012
29.49
30.02
29.39
29.94
13,155,360
11/05/2012
28.66
29.51
28.46
29.47
10,014,010
11/02/2012
29.27
29.3
28.48
28.53
9,844,952
11/01/2012
28.3
29.23
28.17
29.21
9,974,881
10/31/2012
28.9
28.9
28.06
28.09
9,625,420
10/26/2012
28.09
28.92
28.055
28.92
9,999,999
10/25/2012
28
28.2
27.87
28.13
9,339,743
10/24/2012
27.91
27.9799
27.42
27.7
8,930,414
10/23/2012
27.34
27.98
27.21
27.84
13,114,490
10/22/2012
27.69
28.24
27.625
27.79
9,556,742
10/19/2012
28.76
28.77
27.74
27.81
11,642,230
10/18/2012
28.46
28.86
28.32
28.76
10,508,150
10/17/2012
28.19
28.74
28.12
28.47
8,143,651
10/16/2012
28.32
28.78
28.25
28.725
8,000,528
10/15/2012
27.79
28.61
27.73
28.22
13,724,870
10/12/2012
27.28
27.53
27.0601
27.28
7,583,176
10/11/2012
27.15
27.53
27
27.3
9,961,959
10/10/2012
27.39
27.44
27.06
27.17
9,056,701
10/09/2012
27.95
27.99
27.27
27.32
9,783,494
10/08/2012
27.94
28.23
27.78
27.99
6,772,340
10/05/2012
28.064
28.53
27.98
28.16
10,466,530
10/04/2012
27.59
27.91
27.43
27.905
5,763,059
10/03/2012
27.35
27.695
27.35
27.47
8,758,412
10/02/2012
27.75
27.8
27.51
27.61
8,712,066
10/01/2012
27.55
27.81
27.47
27.61
9,697,643
09/28/2012
27.72
27.82
27.395
27.555
9,304,458
09/27/2012
27.719
27.95
27.43
27.875
9,235,247
09/26/2012
27.46
27.58
26.94
27.57
16,989,520
09/25/2012
28.8
28.95
27.78
27.83
10,700,640
09/24/2012
28.64
28.73
28.48
28.68
6,474,804
09/21/2012
28.97
29.29
28.96
28.99
10,880,360
09/20/2012
28.49
28.91
28.41
28.85
7,803,613
09/19/2012
28.68
28.78
28.38
28.69
11,371,430
09/18/2012
28.94
28.98
28.58
28.66
9,955,132
09/17/2012
29.63
29.71
28.98
29.1
5,497,876
09/14/2012
29.05
29.7
29.02
29.56
10,377,750
09/13/2012
28.51
29.15
28.33
28.905
13,060,430
09/12/2012
28.47
28.81
28.24
28.59
10,427,690
09/11/2012
28.61
28.85
28.52
28.58
8,316,340
09/10/2012
29.17
29.29
28.64
28.67
7,912,383
09/07/2012
29.3
29.34
29.035
29.18
8,065,255
09/06/2012
28.69
29.57
28.64
29.56
8,710,224
09/05/2012
28.7
28.89
28.47
28.52
5,840,947
09/04/2012
28.92
29.01
28.5
28.785
5,822,972
08/31/2012
29.31
29.38
28.88
29.04
8,703,857
08/30/2012
29.17
29.38
28.93
29.01
6,076,193
08/29/2012
29.31
29.56
29.15
29.4
4,183,108
08/28/2012
29.21
29.56
29.16
29.24
6,408,638
08/27/2012
29.6
29.65
29.26
29.32
6,009,674
08/24/2012
29.21
29.68
29.12
29.56
5,736,919
08/23/2012
29.22
29.5
29.01
29.32
5,787,399
08/22/2012
29.58
29.74
29.17
29.38
6,671,373
08/21/2012
29.64
29.87
29.49
29.64
8,565,540
08/20/2012
29.97
29.99
29.47
29.53
8,885,044
08/17/2012
30.38
30.38
29.82
29.86
10,129,070
08/16/2012
30
30.38
29.82
30.27
9,181,533
08/15/2012
29.54
29.935
29.43
29.9
7,841,833
08/14/2012
29.74
29.85
29.35
29.48
5,899,173
08/13/2012
29.72
29.75
29.15
29.54
7,788,439
08/10/2012
29.52
29.75
29.33
29.75
6,590,616
08/09/2012
29.31
29.79
29.23
29.54
7,858,442
08/08/2012
29.11
29.4
29.06
29.36
7,852,014
08/07/2012
28.32
29.36
28.3
29.23
14,547,250
08/06/2012
28.27
28.68
28.18
28.24
9,780,817
