





08/04/2017
78.77
80.33
78.19
78.77
1,812,004
08/03/2017
75.17
78.66
75
78.28
1,363,118
08/02/2017
77.99
78.5
74.51
76.14
1,613,912
08/01/2017
77.81
78.87
77.05
77.65
1,535,735
07/31/2017
77.32
78.189
76.22
76.95
1,454,132
07/28/2017
74
76.8
72.8
76.35
1,118,766
07/27/2017
77.3
78.98
71.7
74.12
2,906,269
07/26/2017
76.26
77.16
75.7035
76.35
1,341,869
07/25/2017
76.98
77.2
75.2001
76
1,307,477
07/24/2017
74.34
76.89
74.01
76.7
2,015,620
07/21/2017
73.55
75.01
73.46
73.93
940,371
07/20/2017
74.57
74.77
73.08
73.55
1,355,571
07/19/2017
75.1
76.95
74.03
74.2
2,059,311
07/18/2017
72.19
74.51
71.2
74.35
1,442,256
07/17/2017
75.41
75.6
72.17
72.43
1,683,408
07/14/2017
73.28
75
73.28
74.31
1,591,452
07/13/2017
73.36
75.43
72.15
73.11
2,880,580
07/12/2017
69.63
73
69.35
72.56
2,601,943
07/11/2017
68.47
69.9
68.18
68.8
1,499,233
07/10/2017
69.5
70.56
68.3625
68.76
1,282,172
07/07/2017
69.04
69.8
68.77
69.42
961,934
07/06/2017
68
69.36
67.49
68.29
746,126
07/05/2017
69
70.48
68.09
68.62
1,831,600
07/03/2017
67.03
68.63
66.3501
68.33
1,214,659
06/30/2017
66.35
67.87
65.65
66.47
1,383,309
06/29/2017
68.68
70.25
66.42
67.43
2,722,397
06/28/2017
69.36
69.39
66.8
69.36
2,511,370
06/27/2017
71.5
71.605
68.85
69.08
2,296,793
06/26/2017
72.96
73.1788
69.76
71.61
2,836,286
06/23/2017
73.61
73.64
72.14
72.38
2,443,451
06/22/2017
69.42
74.39
68.66
72.25
9,622,755
06/21/2017
74
77.5
73.65
76.96
1,381,607
06/20/2017
74.42
75.06
73.59
74.08
1,254,225
06/19/2017
72.78
74.87
72
74.77
1,760,336
06/16/2017
72.12
72.5
70.7
71.1
1,217,428
06/15/2017
70.14
72.38
68.76
71.94
1,764,122
06/14/2017
74.63
74.88
70.66
71.81
1,656,144
06/13/2017
75.06
76.32
72.69
73.94
1,843,821
06/12/2017
73.22
75.64
71.1
74.74
2,554,016
06/09/2017
77.4
78.88
72.37
74.91
3,336,758
06/08/2017
80.08
80.19
75.14
77.63
5,753,581
06/07/2017
75.68
79.82
75.1
78.82
3,463,737
06/06/2017
75.04
76.88
74.4701
75.48
1,449,306
06/05/2017
74.59
77.31
74.5208
75.29
1,938,919
06/02/2017
74.13
75.61
73.6
74.52
1,159,881
06/01/2017
73.39
74.585
72.2856
74.14
2,037,385
05/31/2017
75.26
75.35
72.561
73.53
3,142,053
05/30/2017
77.57
78.06
73.55
74.51
3,123,539
05/26/2017
77.5
79.2
76.24
77.57
2,910,299
05/25/2017
76.46
78.12
75.35
77.57
1,921,651
05/24/2017
77.11
78.07
74.88
75.35
3,602,891
05/23/2017
80.58
81.29
76.31
76.98
3,741,102
05/22/2017
79.9
81.36
78.5
80.75
2,831,877
05/19/2017
80.08
82.28
77.1594
78.31
5,892,929
05/18/2017
74.04
79.4
71.02
79.04
7,326,680
05/17/2017
77.75
79.7
74.05
74.8
8,237,461
05/16/2017
70.2
79.26
69.54
78.6
13,703,400
05/15/2017
63.75
63.96
61.56
62.9
2,495,093
05/12/2017
62.62
63.1
61.75
62.44
1,426,826
05/11/2017
62.45
63.281
60.5
62.62
2,109,662
05/10/2017
61.11
63.21
60
62.51
1,883,410
05/09/2017
60.05
62.17
60
61.03
2,701,673
05/08/2017
57.24
60
56.75
59.33
3,974,577
05/05/2017
55.66
56.7
54.69
56.67
1,528,082
05/04/2017
54.71
55.74
53.76
55.57
906,211
05/03/2017
55.15
55.3899
53.8
54.7
803,374
05/02/2017
55.25
56.02
54.69
55.34
1,271,975
05/01/2017
56.12
56.32
55.21
55.3
1,253,077
04/28/2017
55.6
56
54.24
55.86
1,081,532
04/27/2017
55.49
57.47
55.21
55.37
2,354,527
04/26/2017
54.05
55.15
53.69
54.99
1,142,358
04/25/2017
53.83
54.74
53.76
54.21
1,995,573
04/24/2017
53.76
54.3
53.42
53.65
1,702,283
04/21/2017
51.74
53.47
51.6
52.87
1,830,317
04/20/2017
50.77
52.26
50.73
51.94
1,783,272
04/19/2017
50.89
50.89
50
50.56
1,114,144
04/18/2017
50.33
50.45
49.77
50.39
766,965
04/17/2017
50.34
50.99
50.01
50.46
509,749
04/13/2017
50.04
50.92
50.04
50.16
625,691
04/12/2017
50.33
50.97
50
50.38
853,343
04/11/2017
50.66
51.08
50
50.58
1,530,229
04/10/2017
50.11
50.82
49.81
50.61
901,079
04/07/2017
49.75
49.97
48.82
49.75
771,847
04/06/2017
50.25
50.25
49.41
49.86
839,531
04/05/2017
51.3
51.3
49.36
49.72
843,902
04/04/2017
52.09
52.09
50.33
50.38
1,103,597
04/03/2017
52.49
52.96
51.78
52.26
697,722
03/31/2017
51.94
52.6332
51.59
52.18
688,384
03/30/2017
53.06
53.61
51.9072
52.47
1,465,414
03/29/2017
52.25
53.72
51.39
53.61
2,576,764
03/28/2017
51
52
50.99
51.61
1,644,085
03/27/2017
48.56
50.98
48.2
50.89
1,163,932
03/24/2017
49.03
50.78
49
49.78
1,220,184
03/23/2017
48.63
49.805
48.57
49.15
869,002
03/22/2017
47.75
49.03
47.52
48.92
968,360
03/21/2017
50.81
51.82
47.6
47.75
2,143,315
03/20/2017
51
51.58
49.8501
50.72
1,028,755
03/17/2017
51.48
52.5
50.8601
51.1
1,031,170
03/16/2017
50.11
52.16
49.71
51.14
1,836,156
03/15/2017
49.17
49.79
48.9
49.7
764,779
03/14/2017
49.81
49.81
48.43
49.13
935,544
03/13/2017
48.07
50.11
47.84
49.84
1,868,751
03/10/2017
48.55
48.67
47.36
47.84
1,317,800
03/09/2017
49.71
49.89
47.45
48.62
2,367,578
03/08/2017
49.79
50.8
49.68
49.95
1,176,738
03/07/2017
49.93
50.13
49.09
49.64
824,348
03/06/2017
51
51.01
49.06
49.67
939,087
03/03/2017
50.5
51.4
49.8901
50.3
1,000,420
03/02/2017
50.78
51.33
50.21
50.5
914,445
03/01/2017
51.57
51.59
50.5
51.17
1,412,892
02/28/2017
51.03
52.17
50.49
50.52
1,272,184
02/27/2017
51.2
52.68
50.5
51.44
2,559,224
02/24/2017
49.88
52.14
49.51
51.09
4,168,108
02/23/2017
55.7
55.7
48.5
48.89
9,296,028
02/22/2017
58.09
58.79
56.56
58.21
1,777,035
02/21/2017
56.15
58.67
56.15
58.09
2,185,465
02/17/2017
55
55.47
53.09
55.31
1,447,386
02/16/2017
54.71
56.3
54.1201
55.26
1,735,035
02/15/2017
55.43
55.49
53.81
54.17
1,045,071
02/14/2017
54.21
55.26
53.8062
54.87
1,170,026
02/13/2017
53.42
55.52
52.85
54.39
1,477,471
02/10/2017
54.01
54.2772
52.888
53.1
904,605
02/09/2017
53
54.5
52.545
53.9
1,658,213
02/08/2017
53.83
54.32
52.11
52.92
1,697,014
02/07/2017
51.07
53.69
51
53.24
2,337,217
02/06/2017
48.83
51.3299
48.62
50.85
1,552,776
02/03/2017
49.14
49.39
48.42
48.55
709,496
02/02/2017
47.66
49.42
47.15
49.11
1,560,528
02/01/2017
48.45
48.5
47.25
47.97
498,080
01/31/2017
47.17
48.5
46.74
48.22
468,261
01/30/2017
48.06
48.06
46.05
47.39
664,571
01/27/2017
47.46
48.34
47.02
48.11
541,326
01/26/2017
48.7
48.725
46.58
47.43
938,874
01/25/2017
48.45
49.083
48.31
48.6
716,020
01/24/2017
47.7
49.43
47.42
48.2
1,973,620
01/23/2017
46.84
47.65
46.56
47.53
583,205
01/20/2017
47.28
47.49
46.67
46.91
815,787
01/19/2017
46.81
47.75
46.75
47.08
835,314
01/18/2017
46.64
47.22
46.22
46.76
846,205
01/17/2017
47.69
47.69
45.4
46.65
1,863,286
01/13/2017
46.3
47.91
45.94
47.69
1,834,539
01/12/2017
45.82
46.24
44.9
46.15
950,846
01/11/2017
45.86
46.27
44.38
45.38
1,072,664
01/10/2017
45.33
46.63
45.33
45.7
1,037,077
01/09/2017
44.88
45.59
44.15
45.13
973,132
01/06/2017
45
45.55
44.17
44.75
1,234,672
01/05/2017
43.5
45.76
43.5
44.94
2,521,201
01/04/2017
41.67
43.26
41.6
43.2
1,506,035
01/03/2017
41.33
42.3
41.04
41.55
1,104,490
12/30/2016
41.39
41.4899
40.31
40.6
898,739
12/29/2016
41.47
41.9
40.9
41.14
561,108
12/28/2016
42.65
42.69
41.25
41.46
636,889
12/27/2016
41.25
42.88
40.93
42.47
1,585,963
12/23/2016
40.5
41.3
40.12
41.25
1,076,136
12/22/2016
42.43
42.43
40.54
40.69
1,335,968
12/21/2016
42.54
42.76
41.89
42.69
839,518
12/20/2016
42.11
42.92
42.05
42.54
1,248,854
12/19/2016
43.03
43.05
41.81
42.11
1,929,954
12/16/2016
43.65
43.8
42.52
43.36
1,613,226
12/15/2016
45.02
45.14
43.3
43.63
2,253,418
12/14/2016
46.2
46.63
45.08
45.47
1,500,557
12/13/2016
46.99
48.03
46.15
46.39
1,665,461
12/12/2016
47.23
47.55
45.26
46.61
2,101,915
12/09/2016
48.63
49.26
47.9
48.45
1,138,577
12/08/2016
46.96
48.824
46.96
48.76
1,517,480
12/07/2016
45.67
47.7
45.67
47.28
2,038,316
12/06/2016
47.79
47.848
45.41
46.2
2,043,135
12/05/2016
46.99
48.28
46.28
47.56
1,530,894
12/02/2016
46.31
48.05
45.6301
46.4
2,937,636
12/01/2016
50.81
50.82
45.75
46.1
4,422,417
11/30/2016
51.75
52.24
50.88
51.31
6,356,411
11/29/2016
52.14
52.49
51.1101
51.73
3,246,930
11/28/2016
49.08
52.01
48.5
51.79
2,999,886
11/25/2016
50.72
50.87
48.05
49.05
1,785,580
11/23/2016
48.38
50.63
47.07
49.95
4,567,826
11/22/2016
45.53
49.92
43.8
48.96
6,670,839
11/21/2016
45.81
47.01
44.58
45.61
3,359,917
11/18/2016
44.59
44.8
43.05
44.28
1,854,326
11/17/2016
44.78
45.54
44.24
44.76
1,527,682
11/16/2016
44.51
45.8
44.07
44.52
1,920,782
11/15/2016
43.33
45.41
42.64
44.81
2,194,756
11/14/2016
45.5
45.585
41.26
41.91
3,294,865
11/11/2016
44.53
45.59
42.8
45.41
3,053,287
11/10/2016
47.91
48.0999
44.14
44.88
4,285,196
11/09/2016
45.1
48.835
45.1
47.91
2,646,423
11/08/2016
49.41
49.4995
46.38
46.67
1,426,340
11/07/2016
46.79
48.71
46.765
48.5
1,780,562
11/04/2016
44.3
46.3
44.27
45.41
1,147,953
11/03/2016
44.35
45.65
44.01
44.88
1,240,646
11/02/2016
46.5
46.93
44.45
44.76
1,808,634
11/01/2016
46.25
47.5
45.96
46.21
2,093,202
10/31/2016
49.21
49.22
45.92
46.01
3,102,561
10/28/2016
49.49
50.27
48.03
48.88
1,511,570
10/27/2016
51.57
51.96
49.44
49.68
1,522,414
10/26/2016
51
51.4
49.77
50.7
1,872,630
10/25/2016
51.85
52.52
51.34
51.44
1,198,442
10/24/2016
51.73
53.59
51.53
51.84
1,632,014
10/21/2016
51.66
52
50.65
51.26
1,285,856
10/20/2016
52.25
52.62
51.01
52.15
1,351,890
10/19/2016
52.83
53.39
52.1
52.79
1,046,183
10/18/2016
53.61
53.79
52.71
52.99
1,450,494
10/17/2016
52.97
53.615
52.5
52.91
1,097,879
10/14/2016
53.64
54.74
52.83
53.08
1,482,241
10/13/2016
52
53.8
50.72
52.79
2,217,416
10/12/2016
53.13
54.77
52.54
53.47
1,745,995
10/11/2016
54.98
55.49
52
52.54
2,792,432
10/10/2016
53.28
55.93
52.04
55.85
1,907,976
10/07/2016
52.72
53.17
51
51.9
1,118,555
10/06/2016
53
54.06
51.5559
52.63
1,651,484
10/05/2016
54.63
54.77
52.68
53.08
1,854,300
10/04/2016
51.11
55.59
50.8063
54.34
2,895,858
10/03/2016
50.64
51.129
49.35
51
1,081,919
09/30/2016
51.84
52.209
49.51
50.14
1,777,216
09/29/2016
51.6
51.71
50.23
51.39
899,648
09/28/2016
51.62
52.29
50.18
51.54
1,415,782
09/27/2016
48.63
51.8988
48.63
51.63
2,558,627
09/26/2016
48.78
49.215
47.64
48.87
971,192
09/23/2016
49.96
50.31
48.76
49.15
875,546
09/22/2016
50.03
50.4
48.91
49.48
1,020,634
09/21/2016
48.12
49.65
48.05
49.51
1,467,265
09/20/2016
48.81
48.98
47.4
47.75
957,063
09/19/2016
49.97
50.05
47.81
48.77
1,550,029
09/16/2016
49.12
49.39
48.33
49.35
1,078,225
09/15/2016
48.72
49.13
47.7
48.97
1,433,423
09/14/2016
45.88
48
45.88
47.87
1,755,144
09/13/2016
47.69
48.56
45.5
46.33
2,181,448
09/12/2016
46.24
48.1899
45.52
48.17
2,862,999
09/09/2016
48.99
49.16
46.781
47.99
2,816,314
09/08/2016
48.71
50.25
48.5
49.22
1,576,885
09/07/2016
51.5
51.53
48.31
49.2
2,082,915
09/06/2016
50.63
51.82
50.1301
51.21
1,675,218
09/02/2016
49.24
50.69
48.5401
49.54
2,334,837
09/01/2016
47.45
49.24
46.16
49.02
1,856,846
08/31/2016
46.99
47.98
45.12
47.77
3,386,221
08/30/2016
49.2
49.9
47.05
47.54
1,960,371
08/29/2016
49.41
52.29
47.69
48.73
3,541,163
08/26/2016
46.58
48.61
46.18
48.38
1,813,639
08/25/2016
44.99
46
44.7
45.91
824,349
08/24/2016
47
47.58
45.22
45.45
1,937,533
08/23/2016
45
46.85
44.95
46.43
1,193,549
08/22/2016
45.24
45.3
44.33
45.02
1,577,489
08/19/2016
44.95
45.5
44.05
44.33
1,228,710
08/18/2016
44.14
45.95
43.21
45.25
1,858,059
08/17/2016
43
43.79
42.2
43.71
1,503,836
08/16/2016
45.58
45.58
43.13
43.19
1,652,681
08/15/2016
43.13
45.939
43.02
45.72
1,342,899
08/12/2016
42.68
42.9
41.89
42.71
1,160,099
08/11/2016
42.78
43.56
42.05
42.68
1,141,794
08/10/2016
41
43.08
39.51
42.94
2,472,865
08/09/2016
38.42
42.18
38
41.81
3,380,087
08/08/2016
36.71
37.3
35.92
37.17
1,954,138
08/05/2016
34.25
35.89
34.08
35.86
1,504,244
08/04/2016
33.16
34
33.16
33.86
586,711
08/03/2016
33.38
33.5
32.4
33
637,079
08/02/2016
34.04
34.86
32.95
33.22
798,014
08/01/2016
32.59
34.15
32.19
34.04
1,386,737
07/29/2016
32.32
32.74
31.25
32.54
947,678
07/28/2016
32.4
32.59
32.13
32.42
415,523
07/27/2016
32.76
32.76
31.89
32.45
735,976
07/26/2016
32.28
33.13
32.0822
32.86
595,804
07/25/2016
33.56
33.7055
31.4656
32.28
1,546,294
07/22/2016
33.09
33.77
32.9
33.3
611,534
07/21/2016
33.34
33.98
32.95
33.08
591,280
07/20/2016
33.53
34.141
32.96
33
761,890
07/19/2016
32.78
34.2136
32.61
33.44
958,561
07/18/2016
32
32.88
31.41
32.88
671,364
07/15/2016
32.45
33.25
31.63
31.99
733,024
07/14/2016
32.02
32.93
31.55
32.58
942,670
07/13/2016
32.44
32.64
31.66
31.92
828,182
07/12/2016
32
34.09
31.93
32.56
1,704,698
07/11/2016
31.35
31.9999
30.9
31.9
1,108,013
07/08/2016
31.78
32
30.62
30.94
1,240,364
07/07/2016
28.77
31.64
28.7
31.57
2,117,593
07/06/2016
28.85
29.1
28.14
28.49
796,254
07/05/2016
28.26
29.68
28.18
28.9
1,702,916
07/01/2016
28.56
28.98
28.1
28.54
656,056
06/30/2016
27.5
28.47
27.5
28.41
1,293,835
06/29/2016
27.4
27.63
27.01
27.43
664,870
06/28/2016
26.9
27.71
26.2
26.88
1,549,171
06/27/2016
26.66
26.74
26.01
26.45
1,125,452
06/24/2016
26.25
27.55
26.05
27
1,482,194
06/23/2016
27.16
27.79
27
27.61
788,119
06/22/2016
27.55
27.9702
26.7
26.86
1,738,694
06/21/2016
28.1
28.71
27.6301
27.82
1,281,861
06/20/2016
27.2
28.188
27.06
28.04
1,460,890
06/17/2016
27.1
27.57
26.6
26.72
1,007,243
06/16/2016
27.43
27.5
26.65
27.01
1,452,260
06/15/2016
28.1
28.9
27.64
27.85
1,183,877
06/14/2016
26.74
28.14
26.73
28.09
1,130,308
06/13/2016
26.9
27.17
26.23
26.72
1,795,887
06/10/2016
27.65
28.1
27
27.08
1,439,105
06/09/2016
28.65
28.65
27.51
27.79
771,364
06/08/2016
28.55
28.96
27.99
28.63
1,002,941
06/07/2016
28.97
29.49
28.317
28.37
1,297,848
06/06/2016
27.7
29.1
27.67
28.98
1,843,839
06/03/2016
26.85
27.65
26.8376
27.54
1,055,147
06/02/2016
26.8
26.95
26.28
26.79
813,781
06/01/2016
26.42
27.6
25.78
26.85
1,865,904
05/31/2016
26.05
26.63
25.75
26.59
1,758,119
05/27/2016
23.87
25.8
23.81
25.61
2,871,362
05/26/2016
24.26
24.45
23.57
23.65
771,913
05/25/2016
23.34
24.3
23.34
24.25
1,594,305
05/24/2016
23.17
23.5
23.07
23.34
891,114
05/23/2016
23.08
23.23
23
23.12
528,283
05/20/2016
23.26
23.5
22.89
23
778,009
05/19/2016
22.88
23.4899
22.7075
23.1
638,796
05/18/2016
22.91
23.36
22.13
23.35
1,438,066
05/17/2016
23.47
23.47
22.98
23.04
1,206,389
05/16/2016
22.75
23.95
22.635
23.55
1,238,266
05/13/2016
22.93
23.3599
22.43
23.3
1,055,573
05/12/2016
24.6
24.7
22.48
22.82
2,287,190
05/11/2016
23.14
23.89
22.7
23.08
1,688,821
05/10/2016
21.95
23.4
21.6
23.18
1,367,569
05/09/2016
22.75
23.199
21.23
21.55
2,103,436
05/06/2016
23.36
23.53
22.2706
22.83
979,909
05/05/2016
23.5
23.94
23.3
23.59
989,712
05/04/2016
22.75
23.65
22.7
23.3
1,700,750
05/03/2016
24.01
24.03
22.55
22.7
1,701,741
05/02/2016
24.46
24.5
24
24.38
773,453
04/29/2016
24.12
24.79
24.06
24.47
793,277
04/28/2016
23.44
24.54
23.31
24.19
872,172
04/27/2016
24
24.45
22.77
23.33
1,556,058
04/26/2016
24.21
24.5
23.87
24.16
1,423,932
04/25/2016
23.71
24.55
23.575
24.19
942,746
04/22/2016
23.83
24.06
23.38
23.71
744,769
04/21/2016
23.22
24.4
23.18
24.07
1,625,110
04/20/2016
21.79
23.28
21.77
23.18
2,082,852
04/19/2016
21.61
21.99
21.33
21.95
697,071
04/18/2016
21.32
21.7375
20.96
21.39
1,047,637
04/15/2016
22.01
22.0986
21
21.33
2,910,947
04/14/2016
21.95
22.08
21.35
21.97
1,508,032
04/13/2016
21.44
22.19
21.44
21.88
1,008,954
04/12/2016
21.28
21.57
20.83
20.98
737,724
04/11/2016
20.88
21.78
20.88
21.2
1,137,499
04/08/2016
20.28
21.28
20.25
20.98
1,323,257
04/07/2016
20.32
20.32
19.716
20.14
1,183,165
04/06/2016
18.1
20.6
18.03
20.32
3,518,205
04/05/2016
18.01
18.29
17.89
18
590,373
04/04/2016
18
18.49
17.9
18.15
310,234
04/01/2016
17.82
18.17
17.73
17.98
334,951
03/31/2016
18.22
18.6
17.9099
17.95
450,965
03/30/2016
18.5
18.7199
18.27
18.34
527,874
03/29/2016
18.31
18.5
17.81
18.43
444,020
03/28/2016
18.1
18.5
18.03
18.42
558,972
03/24/2016
18.15
18.15
17.846
18.01
515,489
03/23/2016
18.82
19
17.8
18.16
587,763
03/22/2016
18.71
19.1
18.5906
18.95
584,720
03/21/2016
18.88
18.95
18.56
18.89
366,497
03/18/2016
18.15
18.91
18.08
18.85
708,529
03/17/2016
17.56
18.25
17.56
18.1
612,305
03/16/2016
17.32
17.77
17.1907
17.67
315,591
03/15/2016
17.49
17.6
17.05
17.44
379,217
03/14/2016
18
18.09
17.61
17.68
584,392
03/11/2016
18
18.18
17.3376
18.08
1,716,940
03/10/2016
16.61
18
16.61
17.72
2,201,995
03/09/2016
16.15
16.8
16.15
16.78
859,312
03/08/2016
16.01
16.4792
15.93
16.01
559,636
03/07/2016
15.79
16.36
15.77
16.01
535,051
03/04/2016
15.96
16.1
15.3
15.77
814,857
03/03/2016
14.71
16.18
14.7001
15.93
1,872,802
03/02/2016
14.9
15.27
14.47
14.55
1,043,193
03/01/2016
14.61
15.14
14.46
14.74
1,261,835
02/29/2016
14.61
14.69
14.1
14.36
787,481
02/26/2016
15.25
15.4558
14.8
15.16
292,472
02/25/2016
14.94
15.1
14.21
15.01
644,654
02/24/2016
15.12
15.54
14.55
15.49
316,174
02/23/2016
15.35
15.83
15.15
15.19
422,946
02/22/2016
15
15.73
14.91
15.48
577,115
02/19/2016
14.35
14.92
14.17
14.9
270,643
02/18/2016
14.44
14.89
14.41
14.47
501,190
02/17/2016
13.75
14.5
13.745
14.33
725,474
02/16/2016
12.5
13.58
12.5
13.55
760,746
02/12/2016
12.52
12.79
12.09
12.09
920,568
02/11/2016
12.66
12.893
12.21
12.3
437,343
02/10/2016
13.01
13.2
12.64
12.68
280,972
02/09/2016
12.79
13.29
12.41
12.73
417,040
02/08/2016
13.5
13.5
12.91
12.94
494,472
02/05/2016
14.6
14.6
13.55
13.79
610,999
02/04/2016
14.5
15.18
14.4
14.71
339,299
02/03/2016
14.79
14.8501
14.11
14.41
448,256
02/02/2016
15.5
15.5
14.17
14.7
1,173,302
02/01/2016
15.07
15.74
14.9
15.61
424,981
01/29/2016
15.35
15.7999
15.08
15.22
530,255
01/28/2016
15.8
15.96
14.7
15
430,327
01/27/2016
15.63
15.93
15.47
15.52
298,122
01/26/2016
16.1
16.22
15.47
15.55
481,494
01/25/2016
16.2
16.5
16.13
16.31
194,016
01/22/2016
16.16
16.644
15.94
16.21
341,147
01/21/2016
15.77
16
15.5
15.84
419,630
01/20/2016
15.61
15.97
15.11
15.63
757,982
01/19/2016
16.35
16.48
15.83
16.02
552,717
01/15/2016
16.26
16.6
15.62
15.88
725,669
01/14/2016
16.54
16.92
16.24
16.79
546,929
01/13/2016
17.05
17.3
16.24
16.46
440,333
01/12/2016
17.01
17.01
16.74
16.99
530,677
01/11/2016
17.4
17.42
16.23
16.65
1,014,558
01/08/2016
17.73
18.12
17.41
17.42
493,752
01/07/2016
18.32
18.41
17
17.05
1,292,925
01/06/2016
19.2
19.33
18.8427
18.94
1,272,837
01/05/2016
18.86
19.41
18.7
19.27
422,273
01/04/2016
18.74
18.88
17.75
18.86
991,561
12/31/2015
19.3
19.65
19
19.5
317,578
12/30/2015
19.89
20
19.47
19.48
289,756
12/29/2015
19.98
20.1
19.57
19.89
283,026
12/28/2015
19.82
20.2
19.6
19.9
356,792
12/24/2015
20.26
20.38
19.93
19.99
577,726
12/23/2015
20.24
20.56
20.2301
20.41
557,165
12/22/2015
19.74
20.45
19.6108
20.18
683,781
12/21/2015
19.11
19.795
19.01
19.7
289,945
12/18/2015
19.8
20.1
19.14
19.32
902,599
12/17/2015
19
19.98
19
19.82
1,933,505
12/16/2015
18.63
18.9
18.5514
18.9
528,315
12/15/2015
18.41
18.665
18.41
18.55
309,974
12/14/2015
18.43
18.83
18.15
18.33
474,026
12/11/2015
18.28
18.4
18.063
18.25
202,657
12/10/2015
18.63
18.65
18.21
18.45
252,085
12/09/2015
18.85
19
18.64
18.7
317,267
12/08/2015
18.63
18.84
18.38
18.78
284,768
12/07/2015
18.76
18.93
18.44
18.84
285,943
12/04/2015
18.5
18.9
18.45
18.71
393,162
12/03/2015
18.8
18.8
18.3
18.46
341,856
12/02/2015
18.78
18.93
18.5498
18.69
597,186
12/01/2015
18.62
18.93
18.51
18.64
777,680
11/30/2015
18.08
18.94
17.92
18.6
771,340
11/27/2015
18.06
18.07
17.653
17.87
230,104
11/25/2015
17.58
18.7
17.58
18.51
1,363,688
11/24/2015
17.63
17.92
17.43
17.84
496,896
11/23/2015
17.9
18
17.32
17.96
492,078
11/20/2015
18
18.15
17.78
17.84
704,491
11/19/2015
18
18.24
17.14
18.02
1,160,367
11/18/2015
17.4
17.77
17.09
17.67
471,780
11/17/2015
17.25
17.33
16.34
17.09
897,698
11/16/2015
16.41
17.2
16.33
16.98
478,634
11/13/2015
17.8
17.8
16.28
16.54
788,852
11/12/2015
16.77
18
16.62
17.96
629,148
11/11/2015
17.71
17.7199
17.32
17.52
219,586
11/10/2015
17.71
17.71
16.7
17.6
471,808
11/09/2015
17.75
17.87
17.22
17.82
352,474
11/06/2015
17.72
17.87
17.5
17.81
314,595
11/05/2015
17.46
17.91
17.39
17.66
547,643
11/04/2015
17.4
17.68
17.235
17.51
825,027
11/03/2015
16.83
17.5
16.68
17.24
959,263
11/02/2015
16.14
16.85
15.89
16.77
276,602
10/30/2015
16.19
16.38
15.75
16.12
348,900
10/29/2015
16.76
17.02
16.02
16.15
496,014
10/28/2015
16.84
17.25
16.6008
17.25
232,795
10/27/2015
16.7
17.02
16.52
17
339,877
10/26/2015
16.66
17.06
16.66
17.02
446,923
10/23/2015
16.83
16.85
16.26
16.65
488,193
10/22/2015
15.78
16.57
15.74
16.37
645,442
10/21/2015
15.9
15.95
15.5
15.71
358,935
10/20/2015
15.8
16.27
15.75
15.91
536,326
10/19/2015
15.46
16
15.31
15.79
908,494
10/16/2015
14.5
16
14.5
15.57
3,196,774
10/15/2015
13.23
13.81
13.08
13.73
234,204
10/14/2015
13.55
13.55
12.91
13.08
291,752
10/13/2015
13.15
13.66
13.1022
13.52
262,856
10/12/2015
13.5
13.52
13.1
13.26
204,031
10/09/2015
13.48
13.54
13.16
13.39
149,561
10/08/2015
13.52
13.56
13.01
13.39
168,916
10/07/2015
13.27
13.54
12.72
13.45
328,676
10/06/2015
12.96
13.29
12.63
13.05
224,661
10/05/2015
12.96
13.25
12.72
13.02
306,406
10/02/2015
11.65
12.9
11.36
12.88
605,818
10/01/2015
11.76
11.93
11.48
11.49
397,721
09/30/2015
11.44
11.866
11.35
11.69
234,740
09/29/2015
11.39
11.8
11.11
11.24
350,252
09/28/2015
11.41
11.63
11.15
11.34
209,702
09/25/2015
11.7
11.7
11.34
11.44
117,874
09/24/2015
10.97
11.54
10.97
11.52
328,873
09/23/2015
11.72
11.72
11.13
11.16
223,679
09/22/2015
11.58
11.96
11.5
11.74
274,607
09/21/2015
12.13
12.25
11.77
11.81
368,000
09/18/2015
11.79
12.18
11.755
12.09
348,686
09/17/2015
11.97
12.26
11.8403
12.05
483,020
09/16/2015
11.47
12.13
11.45
12.05
543,574
09/15/2015
11.15
11.5
10.9
11.36
410,064
09/14/2015
11.65
11.65
11.15
11.3
340,771
09/11/2015
11.66
11.74
11.21
11.73
365,890
09/10/2015
11.74
11.834
11.4
11.57
336,536
09/09/2015
12.25
12.43
11.8
11.81
460,008
09/08/2015
12.3
12.7
11.93
12
499,444
09/04/2015
12.33
12.431
11.86
11.87
311,851
09/03/2015
12.7
12.7
12.31
12.46
242,636
09/02/2015
12.41
12.6
12.12
12.51
445,081
09/01/2015
11.66
12.43
11.66
12.33
572,041
08/31/2015
12.19
12.43
12
12.13
635,069
08/28/2015
12.07
12.68
11.95
12.31
879,768
08/27/2015
11.26
12.185
11.26
11.89
919,313
08/26/2015
10.87
11.17
10.73
11
498,652
08/25/2015
10.93
11.76
10.25
10.66
1,794,817
08/24/2015
10.74
11.5
8.78
9.67
2,318,683
08/21/2015
12.5
12.6
12.05
12.16
900,430
08/20/2015
13.33
13.35
12.52
12.61
1,555,012
08/19/2015
13.88
14.07
13.16
13.39
1,051,662
08/18/2015
12.94
13.5
12.83
13.44
525,133
08/17/2015
13.45
13.8
13.055
13.09
591,292
08/14/2015
13.34
13.78
13.28
13.6
333,801
08/13/2015
13.48
13.6524
13.22
13.25
399,902
08/12/2015
13.5
13.66
13.01
13.25
914,352
08/11/2015
14.33
14.52
13.71
13.8
390,691
08/10/2015
14.1
14.7
13.8907
14.57
372,780
08/07/2015
14.18
14.53
13.8
13.81
347,098
08/06/2015
13.8
14.2195
13.8
14.13
240,430
08/05/2015
14.06
14.38
13.8
13.87
284,340
08/04/2015
13.74
14.2
13.74
14.12
319,404
08/03/2015
13.99
14
13.64
13.69
339,530
07/31/2015
13.8
14.26
13.785
14.03
422,874
07/30/2015
14.1
14.2515
13.71
13.76
539,121
07/29/2015
14.17
14.25
13.8521
14.19
355,894
07/28/2015
14.01
14.14
13.68
14.09
331,288
07/27/2015
13.5
13.97
13.1
13.87
576,192
07/24/2015
15.16
15.16
14.4
14.48
580,929
07/23/2015
14.67
15.16
14.67
14.92
517,032
07/22/2015
14.77
14.85
14.38
14.6
532,341
07/21/2015
14.49
15.06
14.41
14.79
364,477
07/20/2015
14.5
14.71
14.27
14.52
583,739
07/17/2015
14.68
14.76
14.38
14.54
500,292
07/16/2015
14.34
14.54
14.11
14.3
724,946
07/15/2015
14.78
14.88
13.98
14.06
1,026,629
07/14/2015
15.02
15.47
14.7
14.94
827,019
07/13/2015
15.65
15.74
15
15.09
899,356
07/10/2015
15.82
15.9899
15.14
15.46
1,899,973
07/09/2015
14.57
15.8
14.53
15.3
2,983,835
07/08/2015
12.6
13.48
12.5
13.45
1,691,227
07/07/2015
13.8
13.8
12.52
13.395
1,977,325
07/06/2015
16.39
16.4
14.15
14.18
2,539,384
07/02/2015
16.77
17.11
16.69
16.76
514,582
07/01/2015
17.06
17.3
16.52
16.78
680,899
06/30/2015
17.21
17.76
17.02
17.14
739,004
06/29/2015
17.09
17.328
16.62
16.95
589,728
06/26/2015
18.2
18.22
17.41
17.73
896,449
06/25/2015
19
19
18.21
18.72
568,086
06/24/2015
19.43
19.85
18.92
19.03
486,005
06/23/2015
18.82
19.58
18.82
19.54
653,286
06/22/2015
19.14
19.21
18.5
18.69
439,583
06/19/2015
19.05
19.05
18.5
18.94
1,116,754
06/18/2015
19.61
19.92
19.2
19.26
937,855
06/17/2015
19.1
20.24
19.09
20.06
1,273,136
06/16/2015
19.47
19.47
18.3
18.81
855,365
06/15/2015
20.02
20.05
19.42
19.56
564,284
06/12/2015
19.82
20.7
19.82
20.3
1,653,925
06/11/2015
19.5
20.17
19.5
20.08
1,351,874
06/10/2015
19.48
19.945
19.29
19.44
739,816
06/09/2015
19.65
19.89
18.8
19.29
940,688
06/08/2015
19.35
20.25
19.26
19.77
1,208,392
06/05/2015
18.49
20.2
18.4297
19.76
2,566,268
06/04/2015
18.91
19.3
18.28
18.51
1,273,878
06/03/2015
17.5
19.3
17.28
19.16
2,710,566
06/02/2015
16.85
17.86
16.85
17.6
1,964,037
06/01/2015
15.92
17.5
15.92
16.88
2,295,945
05/29/2015
16
16.19
15.72
15.85
290,313
05/28/2015
15.6
16.08
15.33
16.01
660,091
05/27/2015
15.85
16.29
15.76
15.95
479,933
05/26/2015
16.26
16.33
15.5
15.67
515,456
05/22/2015
15.63
16.32
15.63
16.23
675,075
05/21/2015
15.36
15.55
15.2
15.545
523,831
05/20/2015
15.14
15.66
15.06
15.32
754,376
05/19/2015
15.58
15.7
15.1
15.14
885,418
05/18/2015
16.46
16.64
14.94
15.66
1,983,277
05/15/2015
16.78
16.98
16.51
16.6
861,422
05/14/2015
16.83
17.35
16.68
17.07
1,041,812
05/13/2015
16.9
16.98
16.79
16.79
204,798
05/12/2015
17.12
17.24
16.82
16.97
392,221
05/11/2015
16.72
17.36
16.7
17.09
516,386
05/08/2015
16.79
17.04
16.61
16.62
282,257
05/07/2015
16.3
16.96
16.3
16.71
428,748
05/06/2015
16.22
16.78
16.22
16.57
586,186
05/05/2015
16.66
16.905
16.51
16.59
622,500
05/04/2015
16.6
17.19
16.6
16.86
277,923
05/01/2015
16.75
16.778
16.375
16.62
557,081
04/30/2015
16.6
16.97
16.6
16.68
541,741
04/29/2015
16.78
16.97
16.54
16.9
520,593
04/28/2015
17.14
17.25
15.88
16.66
1,023,757
04/27/2015
17.21
17.82
17.05
17.26
1,034,360
04/24/2015
16
17.65
16
17.2
2,903,892
04/23/2015
16
16.09
15.62
15.89
703,251
04/22/2015
14.63
16.39
14.63
16.09
1,433,176
04/21/2015
14.53
14.85
14.42
14.53
312,961
04/20/2015
14.98
15.25
14.48
14.53
650,723
04/17/2015
14.77
14.94
14.551
14.78
606,432
04/16/2015
15.1
15.33
14.94
14.96
467,106
04/15/2015
14.64
15.2
14.64
15.05
1,170,599
04/14/2015
14.36
14.58
13.9
14.5
448,913
04/13/2015
14.75
14.85
14.18
14.3
686,686
04/10/2015
15.15
15.2995
14.72
14.88
632,181
04/09/2015
15.45
15.6423
14.5
15.09
938,321
04/08/2015
13.74
15.67
13.74
15.3
3,202,487
04/07/2015
13.23
13.69
13.15
13.52
400,709
04/06/2015
13.2
13.29
13.02
13.2
216,564
04/02/2015
13.03
13.37
13.01
13.33
255,662
04/01/2015
12.94
13.12
12.9
12.98
341,490
03/31/2015
12.75
13.05
12.68
12.89
355,219
03/30/2015
12.93
13.03
12.65
12.83
398,746
03/27/2015
13.08
13.24
12.9
12.93
507,500
03/26/2015
13.42
13.4601
13.04
13.2
410,503
03/25/2015
13.73
13.9292
13.35
13.41
257,280
03/24/2015
13.9
14.2
13.76
13.79
320,168
03/23/2015
13.4
13.95
13.2
13.93
578,912
03/20/2015
13.41
13.937
13.41
13.51
376,669
03/19/2015
13.43
13.63
13.41
13.52
527,621
03/18/2015
13.48
13.68
13.35
13.47
396,325
03/17/2015
14.06
14.1299
13.53
13.55
457,455
03/16/2015
14.05
14.2
13.32
14.16
1,218,057
03/13/2015
14.78
15
14
14.18
669,818
03/12/2015
14.8
15.2
14.8
14.87
1,343,285
03/11/2015
14.1
15.35
13.56
15.02
1,881,567
03/10/2015
14.55
15.39
14.35
14.88
1,326,863
03/09/2015
14.73
14.73
14.2
14.55
459,504
03/06/2015
14.72
14.8099
14.2801
14.62
503,282
03/05/2015
13.8
14.71
13.8
14.63
774,340
03/04/2015
13.69
13.98
13.66
13.85
431,483
03/03/2015
13.3
13.85
13.291
13.66
487,253
03/02/2015
13.32
13.5
13.2
13.42
234,798
02/27/2015
13.29
13.49
13.08
13.34
326,220
02/26/2015
13.22
13.45
13.19
13.26
243,712
02/25/2015
13.26
13.4
13.16
13.27
266,384
02/24/2015
13.18
13.46
13.1
13.31
286,185
02/23/2015
13.67
13.78
13.1
13.11
317,241
02/20/2015
13.91
13.94
13.51
13.76
368,932
02/19/2015
14.2
14.2199
13.78
13.98
437,502
02/18/2015
13.46
14.2
13.332
14.19
741,628
02/17/2015
13.31
13.5
13.31
13.45
330,834
02/13/2015
13.55
13.7499
13.169
13.3
582,181
02/12/2015
13.19
13.5
13.11
13.47
690,029
02/11/2015
12.6
13.47
12.44
13.05
975,643
02/10/2015
12.44
12.74
12.37
12.61
321,430
02/09/2015
12.39
12.84
12.29
12.43
319,221
02/06/2015
12.5
12.74
12.23
12.49
382,036
02/05/2015
12.94
13.2
12.37
12.41
692,975
02/04/2015
12.72
13.1
12.6406
12.84
385,562
02/03/2015
12.45
12.89
12.33
12.62
607,758
02/02/2015
12.42
12.6899
12.11
12.48
456,394
01/30/2015
12.61
12.66
12.31
12.44
318,185
01/29/2015
12.6
12.81
12.33
12.66
357,956
01/28/2015
12.92
13.1148
12.37
12.51
382,823
01/27/2015
12.89
13.13
12.76
12.89
225,196
01/26/2015
13.19
13.4
13.02
13.05
257,987
01/23/2015
13.18
13.5
13.18
13.25
244,396
01/22/2015
13.14
13.33
13
13.13
282,569
01/21/2015
13.02
13.5
12.79
13.11
721,902
01/20/2015
12.7
13.1
12.6
12.97
355,167
01/16/2015
12.44
12.77
12.3101
12.74
424,845
01/15/2015
13.01
13.04
12.5
12.5
530,304
01/14/2015
13.14
13.28
12.93
13.02
423,937
01/13/2015
13.8
13.9
13.09
13.22
516,361
01/12/2015
14.13
14.14
13.605
13.73
749,495
01/09/2015
14.37
14.45
14.11
14.13
306,489
01/08/2015
14.35
14.57
14.1
14.31
349,931
01/07/2015
14.73
14.8
14.2
14.29
530,604
01/06/2015
14.57
14.59
14.2
14.54
344,310
01/05/2015
14.49
14.721
14.24
14.46
282,618
01/02/2015
14.29
14.635
14.24
14.53
305,571
12/31/2014
14.33
14.49
14.06
14.24
487,136
12/30/2014
14.4
14.5
14.2
14.34
346,002
12/29/2014
14.77
14.85
14.4
14.5
291,036
12/26/2014
14.85
15.02
14.74
14.81
149,643
12/24/2014
14.74
15.15
14.6961
14.75
228,064
12/23/2014
15.26
15.26
14.75
14.78
341,529
12/22/2014
15.77
15.77
14.971
15.26
454,929
12/19/2014
15.21
15.78
15.21
15.78
699,792
12/18/2014
14.38
15.34
14.25
15.28
1,139,747
12/17/2014
14.99
15
13.88
14.24
961,070
12/16/2014
15.49
15.58
14.3799
14.57
900,870
12/15/2014
16.09
16.1
15.5
15.58
651,634
12/12/2014
15.66
16.37
15.41
16.03
1,200,622
12/11/2014
16.03
16.24
15.77
15.8
841,718
12/10/2014
16.08
16.72
15.9
16
705,280
12/09/2014
16.5
16.5
15.825
16.14
944,351
12/08/2014
17.33
17.33
16.4
16.58
1,017,496
12/05/2014
17.25
17.3
17.01
17.08
241,168
12/04/2014
17.1
17.36
17
17.14
401,113
12/03/2014
17.08
17.4
17.03
17.1
290,258
12/02/2014
17.33
17.4698
16.9
17.1
686,585
12/01/2014
17.71
18.01
17.1
17.26
807,697
11/28/2014
18.05
18.19
17.84
17.95
227,281
11/26/2014
18.33
18.68
18
18.03
805,099
11/25/2014
18.66
19.09
18.16
18.29
745,877
11/24/2014
18.63
19
18.4
18.59
713,292
11/21/2014
18.36
18.44
18.1
18.34
400,821
11/20/2014
17.88
18.5
17.72
18.12
696,882
11/19/2014
18.1
18.4
17.97
18.02
459,469
11/18/2014
18.5
18.79
18
18.28
660,518
11/17/2014
19.08
19.13
18.5
18.52
905,451
11/14/2014
20.3
20.48
18.57
18.93
2,313,923
11/13/2014
19.6
20.32
19.42
19.62
1,314,952
11/12/2014
18.83
19.71
18.79
19.47
407,688
11/11/2014
19.79
19.8
19.25
19.3
315,047
11/10/2014
19.13
19.79
19
19.74
555,301
11/07/2014
18.9
19.13
18.51
19.03
472,842
11/06/2014
18.97
19.2
18.73
18.9
289,950
11/05/2014
19.86
19.95
18.83
18.94
655,361
11/04/2014
19
19.67
19
19.66
866,328
11/03/2014
18.5
19.24
18.5
18.85
664,354
10/31/2014
18.26
18.96
18.1
18.51
1,072,029
10/30/2014
17.85
18.35
17.814
18.04
404,150
10/29/2014
18.13
18.289
17.7
17.89
252,431
10/28/2014
17.68
18.205
17.63
18.12
612,787
10/27/2014
18.3
18.3
17.87
17.95
316,075
10/24/2014
18.38
18.5499
18.051
18.27
573,815
10/23/2014
18.57
18.689
18.25
18.43
403,564
10/22/2014
19.08
19.0899
18.23
18.27
419,560
10/21/2014
18.62
18.65
18.2
18.47
500,199
10/20/2014
18.03
18.81
18.03
18.45
558,754
10/17/2014
18.55
19.12
17.97
18.03
1,137,201
10/16/2014
17.3
18.59
17.3
18.25
697,953
10/15/2014
16.91
18
16.88
17.88
941,055
10/14/2014
17.22
17.7
16.8
17.16
896,188
10/13/2014
17.12
17.755
16.724
17.15
897,755
10/10/2014
17.35
17.6
17
17
949,954
10/09/2014
17.93
18.105
17.285
17.52
992,452
10/08/2014
17.32
18.15
17.11
18.13
1,171,035
10/07/2014
17.6
18.1
17.34
17.38
1,035,812
10/06/2014
18.34
18.51
17.67
17.72
909,978
10/03/2014
18.52
18.67
18.06
18.33
967,817
10/02/2014
18.13
18.68
17.6
18.3
968,178
10/01/2014
18.59
18.59
17.88
17.97
1,302,446
09/30/2014
19.29
19.38
18.64
18.69
951,449
09/29/2014
19.5
19.66
19.17
19.21
647,105
09/26/2014
19.13
19.78
19.13
19.64
638,401
09/25/2014
19.98
20.07
19.04
19.14
1,362,451
09/24/2014
19.69
20.13
19.65
19.97
696,053
09/23/2014
19.7
20.65
19.5
19.59
1,403,408
09/22/2014
20.9
21.02
19.6
19.81
2,354,063
09/19/2014
21.64
22
20.8
21.01
2,614,551
09/18/2014
21.24
22.14
21.15
21.44
1,446,075
09/17/2014
21.37
21.5
20.85
21.08
1,702,237
09/16/2014
20.8
21.98
20.61
21.55
2,630,490
09/15/2014
23.61
23.7
20.53
21.05
5,298,994
09/12/2014
25.07
26.08
23.35
23.81
6,200,309
09/11/2014
21.11
25.5
21.11
24.34
8,949,095
09/10/2014
21.6
21.7
20.61
21.49
986,848
09/09/2014
20.79
21.95
20.5
21.49
4,545,989
09/08/2014
19.72
20.19
19.59
20.12
642,369
09/05/2014
20.14
20.34
19.73
19.81
503,083
09/04/2014
19.89
21
19.89
20.35
1,311,072
09/03/2014
20.1
20.22
19.8
19.89
630,341
09/02/2014
20
20.24
19.65
20
795,144
08/29/2014
19.54
19.98
19.5001
19.92
778,308
08/28/2014
19.26
19.58
19.17
19.5
396,374
08/27/2014
19.52
19.55
19.35
19.38
294,399
08/26/2014
19.33
19.55
19.33
19.52
270,671
08/25/2014
19.57
19.57
19.3
19.38
274,427
08/22/2014
19.6
19.6
19.2899
19.42
427,452
08/21/2014
19.35
19.63
19.24
19.52
678,862
08/20/2014
19.61
19.65
19.3201
19.36
720,443
08/19/2014
19.96
20.15
19.62
19.66
769,762
08/18/2014
20.16
20.18
19.81
20
1,246,239
08/15/2014
20.25
20.6
19.8
19.95
2,845,860
08/14/2014
20.3
21.48
20.25
21.46
1,857,002
08/13/2014
20.23
20.75
20.1
20.32
1,001,192
08/12/2014
20
20.25
19.81
20.09
540,773
08/11/2014
19.6
20.149
19.55
20
552,985
08/08/2014
19.26
19.56
19.1799
19.53
287,861
08/07/2014
19.32
19.4699
19.1678
19.24
324,740
08/06/2014
19.3
19.59
19.1
19.2
334,644
08/05/2014
19.42
19.67
19.19
19.48
319,011
08/04/2014
19.17
19.77
19.1101
19.63
636,048
08/01/2014
19.56
19.64
18.98
19.04
846,464
07/31/2014
20.15
20.15
19.395
19.56
833,918
07/30/2014
20.52
20.68
19.92
20.41
1,328,198
07/29/2014
19.71
19.89
19.28
19.56
536,215
07/28/2014
20.4
20.54
19.51
19.59
710,453
07/25/2014
19.77
20.42
19.45
20.16
901,585
07/24/2014
19.7
19.77
19.5421
19.64
513,500
07/23/2014
19.63
19.7134
19.22
19.32
558,599
07/22/2014
19.3
19.87
19.21
19.51
860,085
07/21/2014
18.91
19.28
18.82
19.16
572,775
07/18/2014
18.91
19.19
18.85
19.04
517,306
07/17/2014
19
19.3
18.8501
18.91
603,678
07/16/2014
19.16
19.3
19
19.03
571,083
07/15/2014
19.25
19.4499
19
19.1
611,193
07/14/2014
19.61
19.7
19.11
19.25
705,715
07/11/2014
19.32
19.55
19.08
19.3
545,077
07/10/2014
18.98
19.51
18.75
19.28
990,169
07/09/2014
18.98
19.79
18.98
19.55
1,029,034
07/08/2014
19.89
20.25
18.68
18.94
1,741,489
07/07/2014
20.94
20.9486
19.9
19.92
1,454,528
07/03/2014
21.78
22.07
20.81
21.04
961,539
07/02/2014
21.87
22.4799
21.59
22
2,293,600
07/01/2014
20.63
21.68
20.43
21.37
1,959,172
06/30/2014
20.8
20.9194
20.28
20.48
596,059
06/27/2014
20.47
20.76
20.47
20.64
455,376
06/26/2014
20.34
20.73
20.13
20.47
701,907
06/25/2014
19.71
20.5
19.71
20.34
783,878
06/24/2014
19.58
20.5
19.36
19.87
1,515,192
06/23/2014
19.88
19.9396
19.17
19.48
1,079,371
06/20/2014
20.36
20.5699
19.55
19.88
1,124,538
06/19/2014
21.23
21.2788
20.05
20.12
1,299,006
06/18/2014
21.09
21.85
21.0301
21.23
1,883,605
06/17/2014
19.65
21.02
19.51
20.8
3,954,275
06/16/2014
19.18
19.82
18.95
19.31
961,958
06/13/2014
19.49
19.7
18.83
19.21
1,269,605
06/12/2014
19.36
20.6
18.8
18.94
2,985,710
06/11/2014
18.98
19.7
18.9
19.21
1,061,930
06/10/2014
19
19.96
18.8
18.91
2,639,199
06/09/2014
18.62
18.95
18.5
18.65
587,701
06/06/2014
19.13
19.35
18.51
18.54
547,669
06/05/2014
19.09
19.23
18.6801
18.96
817,408
06/04/2014
18.13
19.15
18.0905
18.78
898,763
06/03/2014
18.3
18.48
18.06
18.32
379,184
06/02/2014
18.56
18.61
18.0701
18.35
439,725
05/30/2014
19.32
19.38
18.4
18.52
970,752
05/29/2014
18.59
19.49
18.45
19.15
1,936,561
05/28/2014
18.29
18.85
17.9101
18.369
1,643,858
05/27/2014
18.46
18.46
17.87
17.95
1,026,150
05/23/2014
18.15
18.49
18.01
18.07
1,037,130
05/22/2014
18.74
18.8
17.82
18.05
3,835,488
05/21/2014
19.01
20.25
19
20.25
1,511,644
05/20/2014
18.93
19.3399
18.5
19.07
947,007
05/19/2014
19.8
19.98
19.41
19.55
648,982
05/16/2014
19.74
20.18
19.28
19.75
949,684
05/15/2014
19.5
19.88
18.7
19.72
845,134
05/14/2014
20.15
20.2
19.5
19.55
1,018,695
05/13/2014
19.87
20.25
19.54
20.06
2,360,762
05/12/2014
18.22
19.65
18.22
19.52
2,129,709
05/09/2014
18.16
18.17
17.38
17.86
992,666
05/08/2014
17.95
18.3
17.7
17.97
1,457,432
05/07/2014
18.8
18.89
17.51
17.55
2,265,651
05/06/2014
20.05
20.1
18.28
18.57
1,731,341
05/05/2014
19.57
20.2
19.12
19.75
1,101,077
05/02/2014
20.56
20.56
19.88
20.03
1,145,405
05/01/2014
19.51
20.6599
19.23
20.22
2,864,325
04/30/2014
17.5
19.8
17.28
19.56
4,105,855
04/29/2014
17.5
18.73
17.4322
18.3
3,021,387
04/28/2014
19.58
19.7
17.13
17.51
7,797,654
04/25/2014
20.2
20.33
19.08
19.21
4,235,376
04/24/2014
22.1
22.13
20.12
20.44
4,981,442
04/23/2014
23.3
23.35
20.2
21.41
7,586,755
04/22/2014
24
24.24
22.64
23.15
10,470,330
04/21/2014
21.61
24.17
21.16
22.6099
13,433,680
04/17/2014
16.27
24.48
16.26
20.24
32,746,450
